<?xml version="1.0" encoding="UTF-8" standalone="no"?>
<graphml xmlns="http://graphml.graphdrawing.org/xmlns" xmlns:xsi="http://www.w3.org/2001/XMLSchema-instance" xmlns:y="http://www.yworks.com/xml/graphml" xmlns:yed="http://www.yworks.com/xml/yed/3" xsi:schemaLocation="http://graphml.graphdrawing.org/xmlns http://www.yworks.com/xml/schema/graphml/1.1/ygraphml.xsd">
  <!--Created by yFiles for Java 2.11-->
  <key for="graphml" id="d0" yfiles.type="resources"/>
  <key for="port" id="d1" yfiles.type="portgraphics"/>
  <key for="port" id="d2" yfiles.type="portgeometry"/>
  <key for="port" id="d3" yfiles.type="portuserdata"/>
  <key attr.name="url" attr.type="string" for="node" id="d4"/>
  <key attr.name="description" attr.type="string" for="node" id="d5"/>
  <key for="node" id="d6" yfiles.type="nodegraphics"/>
  <key attr.name="Description" attr.type="string" for="graph" id="d7"/>
  <key attr.name="url" attr.type="string" for="edge" id="d8"/>
  <key attr.name="description" attr.type="string" for="edge" id="d9"/>
  <key for="edge" id="d10" yfiles.type="edgegraphics"/>
  <graph edgedefault="directed" id="G">
    <data key="d7"/>
    <node id="n0">
      <data key="d6">
        <y:GenericNode configuration="com.yworks.flowchart.process">
          <y:Geometry height="459.0689450222883" width="394.73869992512766" x="346.76352321061626" y="129.05397444499795"/>
          <y:Fill color="#FFFFFF" transparent="false"/>
          <y:BorderStyle color="#5A5A5A" type="line" width="2.0"/>
          <y:NodeLabel alignment="left" autoSizePolicy="content" fontFamily="Courier New" fontSize="16" fontStyle="bold" hasBackgroundColor="false" hasLineColor="false" height="439.0" modelName="custom" textColor="#5A5A5A" visible="true" width="340.0546875" x="21.457632694398" y="4.0">/* Engines management */
uint32 MaxNumEngines()
AtPrbsEngine EngineGet(
    uint32 engineId)
eAtRet EngineDelete(
    uint32 engineId)

/* Engine factory APIs */
AtPrbsEngine De1PrbsEngineCreate(
    uint32 engineId,
    AtPdhDe1 de1)
AtPrbsEngine NxDs0PrbsEngineCreate(
    uint32 engineId,
    AtPdhNxDS0 nxDs0)
AtPrbsEngine SdhVcPrbsEngineCreate(
    uint32 engineId,
    AtSdhChannel sdhVc)
AtPrbsEngine De3PrbsEngineCreate(
    uint32 engineId,
    AtPdhDe3 de3)

/* Delete engine */
eAtRet EngineDelete(
    uint32 engineId)<y:LabelModel>
              <y:SmartNodeLabelModel distance="4.0"/>
            </y:LabelModel>
            <y:ModelParameter>
              <y:SmartNodeLabelModelParameter labelRatioX="-0.5" labelRatioY="-0.5" nodeRatioX="-0.44564091968061925" nodeRatioY="-0.5" offsetX="0.0" offsetY="4.0" upX="0.0" upY="-1.0"/>
            </y:ModelParameter>
          </y:NodeLabel>
          <y:StyleProperties>
            <y:Property class="java.lang.Boolean" name="y.view.ShadowNodePainter.SHADOW_PAINTING" value="true"/>
          </y:StyleProperties>
        </y:GenericNode>
      </data>
    </node>
    <node id="n1">
      <data key="d6">
        <y:GenericNode configuration="com.yworks.flowchart.process">
          <y:Geometry height="50.034472511144145" width="164.73869992512766" x="1103.6306500374362" y="-24.49773432171827"/>
          <y:Fill color="#FFFFFF" transparent="false"/>
          <y:BorderStyle color="#9933CC" type="line" width="2.0"/>
          <y:NodeLabel alignment="center" autoSizePolicy="content" fontFamily="Courier New" fontSize="20" fontStyle="bold" hasBackgroundColor="false" hasLineColor="false" height="26.65625" modelName="custom" textColor="#9933CC" visible="true" width="112.017578125" x="26.360560900063774" y="11.689111255572072">AtChannel<y:LabelModel>
              <y:SmartNodeLabelModel distance="4.0"/>
            </y:LabelModel>
            <y:ModelParameter>
              <y:SmartNodeLabelModelParameter labelRatioX="0.0" labelRatioY="0.0" nodeRatioX="0.0" nodeRatioY="0.0" offsetX="0.0" offsetY="0.0" upX="0.0" upY="-1.0"/>
            </y:ModelParameter>
          </y:NodeLabel>
          <y:StyleProperties>
            <y:Property class="java.lang.Boolean" name="y.view.ShadowNodePainter.SHADOW_PAINTING" value="true"/>
          </y:StyleProperties>
        </y:GenericNode>
      </data>
    </node>
    <node id="n2">
      <data key="d6">
        <y:GenericNode configuration="com.yworks.flowchart.process">
          <y:Geometry height="434.03447251114414" width="311.73869992512755" x="833.5270464212326" y="129.05397444499795"/>
          <y:Fill color="#FFFFFF" transparent="false"/>
          <y:BorderStyle color="#5A5A5A" type="line" width="2.0"/>
          <y:NodeLabel alignment="left" autoSizePolicy="content" fontFamily="Courier New" fontSize="16" fontStyle="bold" hasBackgroundColor="false" hasLineColor="false" height="420.875" modelName="custom" textColor="#5A5A5A" visible="true" width="263.2421875" x="16.945829027889317" y="4.0">eBool txEnabled
eBool rxEnabled
eBool txInverted
eBool rxInverted
eAtPrbsMode txMode
eAtPrbsMode rxMode
uint32 txFixedPattern
uint32 rxFixedPattern
eAtPrbsSide generatingSide
eAtPrbsSide monitoringSide
eAtPrbsBitOrder txBitOrder
eAtPrbsBitOrder rxBitOrder

/* Force error with rate */
eAtBerRate txErrorRate
eAtBerRate rxErrorRate

/* Two-directions */
eBool enabled
eBool inverted
eAtPrbsMode mode
eAtPrbsSide side
eAtPrbsBitOrder bitOrder<y:LabelModel>
              <y:SmartNodeLabelModel distance="4.0"/>
            </y:LabelModel>
            <y:ModelParameter>
              <y:SmartNodeLabelModelParameter labelRatioX="-0.5" labelRatioY="-0.5" nodeRatioX="-0.44564091968061925" nodeRatioY="-0.5" offsetX="0.0" offsetY="4.0" upX="0.0" upY="-1.0"/>
            </y:ModelParameter>
          </y:NodeLabel>
          <y:StyleProperties>
            <y:Property class="java.lang.Boolean" name="y.view.ShadowNodePainter.SHADOW_PAINTING" value="true"/>
          </y:StyleProperties>
        </y:GenericNode>
      </data>
    </node>
    <node id="n3">
      <data key="d6">
        <y:GenericNode configuration="com.yworks.flowchart.process">
          <y:Geometry height="241.45113917781077" width="311.73869992512766" x="833.5270464212326" y="563.0884469561421"/>
          <y:Fill color="#FFFFFF" transparent="false"/>
          <y:BorderStyle color="#5A5A5A" type="line" width="2.0"/>
          <y:NodeLabel alignment="left" autoSizePolicy="content" fontFamily="Courier New" fontSize="16" fontStyle="bold" hasBackgroundColor="false" hasLineColor="false" height="221.5" modelName="custom" textColor="#5A5A5A" visible="true" width="272.84375" x="16.945829027889317" y="4.0">eAtRet AllCountersLatch()

/* Continuous error force */
eAtModulePrbsRet ErrorForce(
    eBool force)
eBool ErrorIsForced()

/* One-shot error force */
eAtRet TxErrorInject(
    uint32 numErrors)

void Debug()<y:LabelModel>
              <y:SmartNodeLabelModel distance="4.0"/>
            </y:LabelModel>
            <y:ModelParameter>
              <y:SmartNodeLabelModelParameter labelRatioX="-0.5" labelRatioY="-0.5" nodeRatioX="-0.44564091968061925" nodeRatioY="-0.5" offsetX="0.0" offsetY="4.0" upX="0.0" upY="-1.0"/>
            </y:ModelParameter>
          </y:NodeLabel>
          <y:StyleProperties>
            <y:Property class="java.lang.Boolean" name="y.view.ShadowNodePainter.SHADOW_PAINTING" value="true"/>
          </y:StyleProperties>
        </y:GenericNode>
      </data>
    </node>
    <node id="n4">
      <data key="d6">
        <y:GenericNode configuration="com.yworks.flowchart.process">
          <y:Geometry height="50.034472511144145" width="394.73869992512766" x="346.76352321061626" y="79.0195019338538"/>
          <y:Fill color="#FFFFFF" transparent="false"/>
          <y:BorderStyle color="#9933CC" type="line" width="2.0"/>
          <y:NodeLabel alignment="center" autoSizePolicy="content" fontFamily="Courier New" fontSize="20" fontStyle="bold" hasBackgroundColor="false" hasLineColor="false" height="26.65625" modelName="custom" textColor="#9933CC" visible="true" width="148.0234375" x="123.35763121256383" y="11.689111255572072">AtModulePrbs<y:LabelModel>
              <y:SmartNodeLabelModel distance="4.0"/>
            </y:LabelModel>
            <y:ModelParameter>
              <y:SmartNodeLabelModelParameter labelRatioX="0.0" labelRatioY="0.0" nodeRatioX="0.0" nodeRatioY="0.0" offsetX="0.0" offsetY="0.0" upX="0.0" upY="-1.0"/>
            </y:ModelParameter>
          </y:NodeLabel>
          <y:StyleProperties>
            <y:Property class="java.lang.Boolean" name="y.view.ShadowNodePainter.SHADOW_PAINTING" value="true"/>
          </y:StyleProperties>
        </y:GenericNode>
      </data>
    </node>
    <node id="n5">
      <data key="d6">
        <y:GenericNode configuration="com.yworks.flowchart.process">
          <y:Geometry height="50.034472511144145" width="311.73869992512766" x="833.5270464212326" y="79.0195019338538"/>
          <y:Fill color="#FFFFFF" transparent="false"/>
          <y:BorderStyle color="#9933CC" type="line" width="2.0"/>
          <y:NodeLabel alignment="center" autoSizePolicy="content" fontFamily="Courier New" fontSize="20" fontStyle="bold" hasBackgroundColor="false" hasLineColor="false" height="26.65625" modelName="custom" textColor="#9933CC" visible="true" width="148.0234375" x="81.85763121256377" y="11.689111255572072">AtPrbsEngine<y:LabelModel>
              <y:SmartNodeLabelModel distance="4.0"/>
            </y:LabelModel>
            <y:ModelParameter>
              <y:SmartNodeLabelModelParameter labelRatioX="0.0" labelRatioY="0.0" nodeRatioX="0.0" nodeRatioY="0.0" offsetX="0.0" offsetY="0.0" upX="0.0" upY="-1.0"/>
            </y:ModelParameter>
          </y:NodeLabel>
          <y:StyleProperties>
            <y:Property class="java.lang.Boolean" name="y.view.ShadowNodePainter.SHADOW_PAINTING" value="true"/>
          </y:StyleProperties>
        </y:GenericNode>
      </data>
    </node>
    <node id="n6">
      <data key="d6">
        <y:GenericNode configuration="com.yworks.flowchart.process">
          <y:Geometry height="50.034472511144145" width="164.73869992512766" x="907.0270464212326" y="-24.49773432171827"/>
          <y:Fill color="#FFFFFF" transparent="false"/>
          <y:BorderStyle color="#9933CC" type="line" width="2.0"/>
          <y:NodeLabel alignment="center" autoSizePolicy="content" fontFamily="Courier New" fontSize="20" fontStyle="bold" hasBackgroundColor="false" hasLineColor="false" height="26.65625" modelName="custom" textColor="#9933CC" visible="true" width="100.015625" x="32.361537462563774" y="11.689111255572072">AtObject<y:LabelModel>
              <y:SmartNodeLabelModel distance="4.0"/>
            </y:LabelModel>
            <y:ModelParameter>
              <y:SmartNodeLabelModelParameter labelRatioX="0.0" labelRatioY="0.0" nodeRatioX="0.0" nodeRatioY="0.0" offsetX="0.0" offsetY="0.0" upX="0.0" upY="-1.0"/>
            </y:ModelParameter>
          </y:NodeLabel>
          <y:StyleProperties>
            <y:Property class="java.lang.Boolean" name="y.view.ShadowNodePainter.SHADOW_PAINTING" value="true"/>
          </y:StyleProperties>
        </y:GenericNode>
      </data>
    </node>
    <edge id="e0" source="n4" target="n5">
      <data key="d10">
        <y:PolyLineEdge>
          <y:Path sx="0.0" sy="0.0" tx="0.0" ty="0.0"/>
          <y:LineStyle color="#000000" type="line" width="1.0"/>
          <y:Arrows source="none" target="standard"/>
          <y:EdgeLabel alignment="center" backgroundColor="#FFFFFF" distance="2.0" fontFamily="Dialog" fontSize="12" fontStyle="plain" hasLineColor="false" height="18.701171875" modelName="custom" preferredPlacement="anywhere" ratio="0.5" textColor="#000000" visible="true" width="47.365234375" x="22.314561536300744" y="-9.350583282742107">manage<y:LabelModel>
              <y:SmartEdgeLabelModel autoRotationEnabled="false" defaultAngle="0.0" defaultDistance="10.0"/>
            </y:LabelModel>
            <y:ModelParameter>
              <y:SmartEdgeLabelModelParameter angle="0.0" distance="30.0" distanceToCenter="true" position="center" ratio="0.5" segment="0"/>
            </y:ModelParameter>
            <y:PreferredPlacementDescriptor angle="0.0" angleOffsetOnRightSide="0" angleReference="absolute" angleRotationOnRightSide="co" distance="-1.0" frozen="true" placement="anywhere" side="anywhere" sideReference="relative_to_edge_flow"/>
          </y:EdgeLabel>
          <y:BendStyle smoothed="false"/>
        </y:PolyLineEdge>
      </data>
    </edge>
    <edge id="e1" source="n5" target="n1">
      <data key="d10">
        <y:PolyLineEdge>
          <y:Path sx="0.0" sy="0.0" tx="0.0" ty="0.0">
            <y:Point x="1186.0" y="104.03673818942588"/>
          </y:Path>
          <y:LineStyle color="#000000" type="line" width="1.0"/>
          <y:Arrows source="none" target="standard"/>
          <y:EdgeLabel alignment="center" distance="2.0" fontFamily="Dialog" fontSize="12" fontStyle="plain" hasBackgroundColor="false" hasLineColor="false" height="18.701171875" modelName="custom" preferredPlacement="anywhere" ratio="0.5" textColor="#000000" visible="true" width="46.03515625" x="59.549957094402544" y="-43.55755693515009">channel<y:LabelModel>
              <y:SmartEdgeLabelModel autoRotationEnabled="false" defaultAngle="0.0" defaultDistance="10.0"/>
            </y:LabelModel>
            <y:ModelParameter>
              <y:SmartEdgeLabelModelParameter angle="6.283185307179586" distance="41.81643658659005" distanceToCenter="true" position="right" ratio="0.5332390662069112" segment="1"/>
            </y:ModelParameter>
            <y:PreferredPlacementDescriptor angle="0.0" angleOffsetOnRightSide="0" angleReference="absolute" angleRotationOnRightSide="co" distance="-1.0" frozen="true" placement="anywhere" side="anywhere" sideReference="relative_to_edge_flow"/>
          </y:EdgeLabel>
          <y:BendStyle smoothed="false"/>
        </y:PolyLineEdge>
      </data>
    </edge>
    <edge id="e2" source="n5" target="n6">
      <data key="d10">
        <y:PolyLineEdge>
          <y:Path sx="0.0" sy="0.0" tx="0.0" ty="0.0"/>
          <y:LineStyle color="#000000" type="line" width="1.0"/>
          <y:Arrows source="none" target="white_delta"/>
          <y:BendStyle smoothed="false"/>
        </y:PolyLineEdge>
      </data>
    </edge>
  </graph>
  <data key="d0">
    <y:Resources/>
  </data>
</graphml>
