<?xml version="1.0" encoding="UTF-8" standalone="no"?>
<graphml xmlns="http://graphml.graphdrawing.org/xmlns" xmlns:xsi="http://www.w3.org/2001/XMLSchema-instance" xmlns:y="http://www.yworks.com/xml/graphml" xmlns:yed="http://www.yworks.com/xml/yed/3" xsi:schemaLocation="http://graphml.graphdrawing.org/xmlns http://www.yworks.com/xml/schema/graphml/1.1/ygraphml.xsd">
  <!--Created by yFiles for Java 2.9-->
  <key for="graphml" id="d0" yfiles.type="resources"/>
  <key for="port" id="d1" yfiles.type="portgraphics"/>
  <key for="port" id="d2" yfiles.type="portgeometry"/>
  <key for="port" id="d3" yfiles.type="portuserdata"/>
  <key attr.name="url" attr.type="string" for="node" id="d4"/>
  <key attr.name="description" attr.type="string" for="node" id="d5"/>
  <key for="node" id="d6" yfiles.type="nodegraphics"/>
  <key attr.name="Description" attr.type="string" for="graph" id="d7"/>
  <key attr.name="url" attr.type="string" for="edge" id="d8"/>
  <key attr.name="description" attr.type="string" for="edge" id="d9"/>
  <key for="edge" id="d10" yfiles.type="edgegraphics"/>
  <graph edgedefault="directed" id="G">
    <data key="d7"/>
    <node id="n0">
      <data key="d6">
        <y:GenericNode configuration="com.yworks.flowchart.process">
          <y:Geometry height="38.39999999999998" width="196.1509687400669" x="643.1112213295663" y="177.39999999999998"/>
          <y:Fill color="#FFFFFF" transparent="false"/>
          <y:BorderStyle color="#9933CC" type="line" width="2.0"/>
          <y:NodeLabel alignment="center" autoSizePolicy="content" fontFamily="Courier New" fontSize="20" fontStyle="bold" hasBackgroundColor="false" hasLineColor="false" height="26.65625" modelName="custom" textColor="#9933CC" visible="true" width="184.029296875" x="6.06083593253345" y="5.871874999999989">AtBerController<y:LabelModel>
              <y:SmartNodeLabelModel distance="4.0"/>
            </y:LabelModel>
            <y:ModelParameter>
              <y:SmartNodeLabelModelParameter labelRatioX="0.0" labelRatioY="0.0" nodeRatioX="0.0" nodeRatioY="0.0" offsetX="0.0" offsetY="0.0" upX="0.0" upY="-1.0"/>
            </y:ModelParameter>
          </y:NodeLabel>
          <y:StyleProperties>
            <y:Property class="java.lang.Boolean" name="y.view.ShadowNodePainter.SHADOW_PAINTING" value="true"/>
          </y:StyleProperties>
        </y:GenericNode>
      </data>
    </node>
    <node id="n1">
      <data key="d6">
        <y:GenericNode configuration="com.yworks.flowchart.process">
          <y:Geometry height="38.39999999999998" width="251.1509687400669" x="522.2301262947498" y="369.7275483203075"/>
          <y:Fill color="#FFFFFF" transparent="false"/>
          <y:BorderStyle color="#9933CC" type="line" width="2.0"/>
          <y:NodeLabel alignment="center" autoSizePolicy="content" fontFamily="Courier New" fontSize="20" fontStyle="bold" hasBackgroundColor="false" hasLineColor="false" height="26.65625" modelName="custom" textColor="#9933CC" visible="true" width="232.037109375" x="9.55692968253345" y="5.871874999999989">AtBerSoftController<y:LabelModel>
              <y:SmartNodeLabelModel distance="4.0"/>
            </y:LabelModel>
            <y:ModelParameter>
              <y:SmartNodeLabelModelParameter labelRatioX="0.0" labelRatioY="0.0" nodeRatioX="0.0" nodeRatioY="0.0" offsetX="0.0" offsetY="0.0" upX="0.0" upY="-1.0"/>
            </y:ModelParameter>
          </y:NodeLabel>
          <y:StyleProperties>
            <y:Property class="java.lang.Boolean" name="y.view.ShadowNodePainter.SHADOW_PAINTING" value="true"/>
          </y:StyleProperties>
        </y:GenericNode>
      </data>
    </node>
    <node id="n2">
      <data key="d6">
        <y:GenericNode configuration="com.yworks.flowchart.process">
          <y:Geometry height="38.39999999999998" width="177.1509687400669" x="881.4602525894995" y="369.7275483203075"/>
          <y:Fill color="#FFFFFF" transparent="false"/>
          <y:BorderStyle color="#9933CC" type="line" width="2.0"/>
          <y:NodeLabel alignment="center" autoSizePolicy="content" fontFamily="Courier New" fontSize="20" fontStyle="bold" hasBackgroundColor="false" hasLineColor="false" height="26.65625" modelName="custom" textColor="#9933CC" visible="true" width="136.021484375" x="20.56474218253345" y="5.871874999999989">AtBerEngine<y:LabelModel>
              <y:SmartNodeLabelModel distance="4.0"/>
            </y:LabelModel>
            <y:ModelParameter>
              <y:SmartNodeLabelModelParameter labelRatioX="0.0" labelRatioY="0.0" nodeRatioX="0.0" nodeRatioY="0.0" offsetX="0.0" offsetY="0.0" upX="0.0" upY="-1.0"/>
            </y:ModelParameter>
          </y:NodeLabel>
          <y:StyleProperties>
            <y:Property class="java.lang.Boolean" name="y.view.ShadowNodePainter.SHADOW_PAINTING" value="true"/>
          </y:StyleProperties>
        </y:GenericNode>
      </data>
    </node>
    <node id="n3">
      <data key="d4"/>
      <data key="d5"/>
      <data key="d6">
        <y:UMLNoteNode>
          <y:Geometry height="38.39999999999998" width="251.1509687400669" x="844.4602525894995" y="291.0"/>
          <y:Fill color="#FFCC00" transparent="false"/>
          <y:BorderStyle color="#000000" type="line" width="1.0"/>
          <y:NodeLabel alignment="center" autoSizePolicy="content" fontFamily="Dialog" fontSize="12" fontStyle="plain" hasBackgroundColor="false" hasLineColor="false" height="33.40234375" modelName="custom" textColor="#000000" visible="true" width="242.107421875" x="4.521773432533337" y="2.4988281249999886">Software BER engine
which uses software algorithm to detect BER<y:LabelModel>
              <y:SmartNodeLabelModel distance="4.0"/>
            </y:LabelModel>
            <y:ModelParameter>
              <y:SmartNodeLabelModelParameter labelRatioX="0.0" labelRatioY="0.0" nodeRatioX="0.0" nodeRatioY="0.0" offsetX="0.0" offsetY="0.0" upX="0.0" upY="-1.0"/>
            </y:ModelParameter>
          </y:NodeLabel>
        </y:UMLNoteNode>
      </data>
    </node>
    <node id="n4">
      <data key="d6">
        <y:GenericNode configuration="com.yworks.flowchart.process">
          <y:Geometry height="38.39999999999998" width="299.15096874006707" x="365.4602525894993" y="260.9637741601537"/>
          <y:Fill color="#FFFFFF" transparent="false"/>
          <y:BorderStyle color="#9933CC" type="line" width="2.0"/>
          <y:NodeLabel alignment="center" autoSizePolicy="content" fontFamily="Courier New" fontSize="20" fontStyle="bold" hasBackgroundColor="false" hasLineColor="false" height="26.65625" modelName="custom" textColor="#9933CC" visible="true" width="184.029296875" x="57.56083593253351" y="5.871874999999989">AtModuleSoftBer<y:LabelModel>
              <y:SmartNodeLabelModel distance="4.0"/>
            </y:LabelModel>
            <y:ModelParameter>
              <y:SmartNodeLabelModelParameter labelRatioX="0.0" labelRatioY="0.0" nodeRatioX="0.0" nodeRatioY="0.0" offsetX="0.0" offsetY="0.0" upX="0.0" upY="-1.0"/>
            </y:ModelParameter>
          </y:NodeLabel>
          <y:StyleProperties>
            <y:Property class="java.lang.Boolean" name="y.view.ShadowNodePainter.SHADOW_PAINTING" value="true"/>
          </y:StyleProperties>
        </y:GenericNode>
      </data>
    </node>
    <node id="n5">
      <data key="d6">
        <y:GenericNode configuration="com.yworks.flowchart.process">
          <y:Geometry height="38.39999999999998" width="196.1509687400669" x="416.9602525894994" y="177.39999999999998"/>
          <y:Fill color="#FFFFFF" transparent="false"/>
          <y:BorderStyle color="#9933CC" type="line" width="2.0"/>
          <y:NodeLabel alignment="center" autoSizePolicy="content" fontFamily="Courier New" fontSize="20" fontStyle="bold" hasBackgroundColor="false" hasLineColor="false" height="26.65625" modelName="custom" textColor="#9933CC" visible="true" width="136.021484375" x="30.06474218253345" y="5.871874999999989">AtModuleBer<y:LabelModel>
              <y:SmartNodeLabelModel distance="4.0"/>
            </y:LabelModel>
            <y:ModelParameter>
              <y:SmartNodeLabelModelParameter labelRatioX="0.0" labelRatioY="0.0" nodeRatioX="0.0" nodeRatioY="0.0" offsetX="0.0" offsetY="0.0" upX="0.0" upY="-1.0"/>
            </y:ModelParameter>
          </y:NodeLabel>
          <y:StyleProperties>
            <y:Property class="java.lang.Boolean" name="y.view.ShadowNodePainter.SHADOW_PAINTING" value="true"/>
          </y:StyleProperties>
        </y:GenericNode>
      </data>
    </node>
    <node id="n6">
      <data key="d6">
        <y:GenericNode configuration="com.yworks.flowchart.process">
          <y:Geometry height="32.000000000000114" width="299.150968740067" x="365.46025258949936" y="299.3637741601537"/>
          <y:Fill color="#FFFFFF" transparent="false"/>
          <y:BorderStyle color="#5A5A5A" type="line" width="2.0"/>
          <y:NodeLabel alignment="left" autoSizePolicy="content" fontFamily="Courier New" fontSize="16" fontStyle="bold" hasBackgroundColor="false" hasLineColor="false" height="22.125" modelName="custom" textColor="#5A5A5A" visible="true" width="282.4453125" x="16.26157153736193" y="4.0">uint32 MaxNumControllersGet()<y:LabelModel>
              <y:SmartNodeLabelModel distance="4.0"/>
            </y:LabelModel>
            <y:ModelParameter>
              <y:SmartNodeLabelModelParameter labelRatioX="-0.5" labelRatioY="-0.5" nodeRatioX="-0.44564091968061925" nodeRatioY="-0.5" offsetX="0.0" offsetY="4.0" upX="0.0" upY="-1.0"/>
            </y:ModelParameter>
          </y:NodeLabel>
          <y:StyleProperties>
            <y:Property class="java.lang.Boolean" name="y.view.ShadowNodePainter.SHADOW_PAINTING" value="true"/>
          </y:StyleProperties>
        </y:GenericNode>
      </data>
    </node>
    <node id="n7">
      <data key="d6">
        <y:GenericNode configuration="com.yworks.flowchart.process">
          <y:Geometry height="38.39999999999998" width="352.1509687400669" x="297.46025258949953" y="446.4913224804612"/>
          <y:Fill color="#FFFFFF" transparent="false"/>
          <y:BorderStyle color="#9933CC" type="line" width="2.0"/>
          <y:NodeLabel alignment="center" autoSizePolicy="content" fontFamily="Courier New" fontSize="20" fontStyle="bold" hasBackgroundColor="false" hasLineColor="false" height="26.65625" modelName="custom" textColor="#9933CC" visible="true" width="316.05078125" x="18.05009374503345" y="5.8718750000000455">AtSdhLineBerSoftController<y:LabelModel>
              <y:SmartNodeLabelModel distance="4.0"/>
            </y:LabelModel>
            <y:ModelParameter>
              <y:SmartNodeLabelModelParameter labelRatioX="0.0" labelRatioY="0.0" nodeRatioX="0.0" nodeRatioY="0.0" offsetX="0.0" offsetY="0.0" upX="0.0" upY="-1.0"/>
            </y:ModelParameter>
          </y:NodeLabel>
          <y:StyleProperties>
            <y:Property class="java.lang.Boolean" name="y.view.ShadowNodePainter.SHADOW_PAINTING" value="true"/>
          </y:StyleProperties>
        </y:GenericNode>
      </data>
    </node>
    <node id="n8">
      <data key="d6">
        <y:GenericNode configuration="com.yworks.flowchart.process">
          <y:Geometry height="38.39999999999998" width="352.1509687400669" x="480.92050517899906" y="507.25509664061485"/>
          <y:Fill color="#FFFFFF" transparent="false"/>
          <y:BorderStyle color="#9933CC" type="line" width="2.0"/>
          <y:NodeLabel alignment="center" autoSizePolicy="content" fontFamily="Courier New" fontSize="20" fontStyle="bold" hasBackgroundColor="false" hasLineColor="false" height="26.65625" modelName="custom" textColor="#9933CC" visible="true" width="316.05078125" x="18.05009374503345" y="5.871874999999932">AtSdhPathBerSoftController<y:LabelModel>
              <y:SmartNodeLabelModel distance="4.0"/>
            </y:LabelModel>
            <y:ModelParameter>
              <y:SmartNodeLabelModelParameter labelRatioX="0.0" labelRatioY="0.0" nodeRatioX="0.0" nodeRatioY="0.0" offsetX="0.0" offsetY="0.0" upX="0.0" upY="-1.0"/>
            </y:ModelParameter>
          </y:NodeLabel>
          <y:StyleProperties>
            <y:Property class="java.lang.Boolean" name="y.view.ShadowNodePainter.SHADOW_PAINTING" value="true"/>
          </y:StyleProperties>
        </y:GenericNode>
      </data>
    </node>
    <edge id="e0" source="n1" target="n0">
      <data key="d9"/>
      <data key="d10">
        <y:PolyLineEdge>
          <y:Path sx="93.38109503481655" sy="0.0" tx="0.0" ty="0.0"/>
          <y:LineStyle color="#000000" type="line" width="1.0"/>
          <y:Arrows source="none" target="white_delta"/>
          <y:BendStyle smoothed="false"/>
        </y:PolyLineEdge>
      </data>
    </edge>
    <edge id="e1" source="n3" target="n2">
      <data key="d9"/>
      <data key="d10">
        <y:PolyLineEdge>
          <y:Path sx="0.0" sy="0.0" tx="0.0" ty="0.0"/>
          <y:LineStyle color="#000000" type="dashed" width="1.0"/>
          <y:Arrows source="none" target="none"/>
          <y:BendStyle smoothed="false"/>
        </y:PolyLineEdge>
      </data>
    </edge>
    <edge id="e2" source="n1" target="n2">
      <data key="d9"/>
      <data key="d10">
        <y:PolyLineEdge>
          <y:Path sx="0.0" sy="0.0" tx="0.0" ty="0.0"/>
          <y:LineStyle color="#000000" type="line" width="1.0"/>
          <y:Arrows source="white_diamond" target="standard"/>
          <y:EdgeLabel alignment="center" backgroundColor="#FFFFFF" distance="2.0" fontFamily="Dialog" fontSize="12" fontStyle="plain" hasLineColor="false" height="18.701171875" modelName="custom" preferredPlacement="anywhere" ratio="0.5" textColor="#000000" visible="true" width="58.708984375" x="24.664753402001907" y="-9.350588886723756">berEngine<y:LabelModel>
              <y:SmartEdgeLabelModel autoRotationEnabled="false" defaultAngle="0.0" defaultDistance="10.0"/>
            </y:LabelModel>
            <y:ModelParameter>
              <y:SmartEdgeLabelModelParameter angle="0.0" distance="30.0" distanceToCenter="true" position="center" ratio="0.5" segment="0"/>
            </y:ModelParameter>
          </y:EdgeLabel>
          <y:BendStyle smoothed="false"/>
        </y:PolyLineEdge>
      </data>
    </edge>
    <edge id="e3" source="n6" target="n1">
      <data key="d9"/>
      <data key="d10">
        <y:PolyLineEdge>
          <y:Path sx="-46.0" sy="0.0" tx="0.0" ty="0.0">
            <y:Point x="469.03573695953287" y="388.9275483203075"/>
          </y:Path>
          <y:LineStyle color="#000000" type="line" width="1.0"/>
          <y:Arrows source="white_diamond" target="standard"/>
          <y:EdgeLabel alignment="center" backgroundColor="#FFFFFF" distance="2.0" fontFamily="Dialog" fontSize="12" fontStyle="plain" hasLineColor="false" height="18.701171875" modelName="custom" preferredPlacement="anywhere" ratio="0.5" textColor="#000000" visible="true" width="59.353515625" x="-29.676756936951506" y="26.622284775386902">controllers<y:LabelModel>
              <y:SmartEdgeLabelModel autoRotationEnabled="false" defaultAngle="0.0" defaultDistance="10.0"/>
            </y:LabelModel>
            <y:ModelParameter>
              <y:SmartEdgeLabelModelParameter angle="0.0" distance="30.0" distanceToCenter="true" position="center" ratio="0.5" segment="0"/>
            </y:ModelParameter>
          </y:EdgeLabel>
          <y:BendStyle smoothed="false"/>
        </y:PolyLineEdge>
      </data>
    </edge>
    <edge id="e4" source="n4" target="n5">
      <data key="d9"/>
      <data key="d10">
        <y:PolyLineEdge>
          <y:Path sx="0.0" sy="0.0" tx="0.0" ty="0.0"/>
          <y:LineStyle color="#000000" type="line" width="1.0"/>
          <y:Arrows source="none" target="white_delta"/>
          <y:BendStyle smoothed="false"/>
        </y:PolyLineEdge>
      </data>
    </edge>
    <edge id="e5" source="n7" target="n1">
      <data key="d9"/>
      <data key="d10">
        <y:PolyLineEdge>
          <y:Path sx="77.46426304046702" sy="0.0" tx="-96.80561066478322" ty="14.072451679692506"/>
          <y:LineStyle color="#000000" type="line" width="1.0"/>
          <y:Arrows source="none" target="white_delta"/>
          <y:BendStyle smoothed="false"/>
        </y:PolyLineEdge>
      </data>
    </edge>
    <edge id="e6" source="n8" target="n1">
      <data key="d9"/>
      <data key="d10">
        <y:PolyLineEdge>
          <y:Path sx="56.0" sy="0.0" tx="65.1903788842493" ty="6.072451679692506"/>
          <y:LineStyle color="#000000" type="line" width="1.0"/>
          <y:Arrows source="none" target="white_delta"/>
          <y:BendStyle smoothed="false"/>
        </y:PolyLineEdge>
      </data>
    </edge>
  </graph>
  <data key="d0">
    <y:Resources/>
  </data>
</graphml>
