<?xml version="1.0" encoding="UTF-8" standalone="no"?>
<graphml xmlns="http://graphml.graphdrawing.org/xmlns" xmlns:xsi="http://www.w3.org/2001/XMLSchema-instance" xmlns:y="http://www.yworks.com/xml/graphml" xmlns:yed="http://www.yworks.com/xml/yed/3" xsi:schemaLocation="http://graphml.graphdrawing.org/xmlns http://www.yworks.com/xml/schema/graphml/1.1/ygraphml.xsd">
  <!--Created by yFiles for Java 2.8-->
  <key for="graphml" id="d0" yfiles.type="resources"/>
  <key for="port" id="d1" yfiles.type="portgraphics"/>
  <key for="port" id="d2" yfiles.type="portgeometry"/>
  <key for="port" id="d3" yfiles.type="portuserdata"/>
  <key attr.name="url" attr.type="string" for="node" id="d4"/>
  <key attr.name="description" attr.type="string" for="node" id="d5"/>
  <key for="node" id="d6" yfiles.type="nodegraphics"/>
  <key attr.name="Description" attr.type="string" for="graph" id="d7">
    <default/>
  </key>
  <key attr.name="url" attr.type="string" for="edge" id="d8"/>
  <key attr.name="description" attr.type="string" for="edge" id="d9"/>
  <key for="edge" id="d10" yfiles.type="edgegraphics"/>
  <graph edgedefault="directed" id="G">
    <node id="n0" yfiles.foldertype="group">
      <data key="d6">
        <y:TableNode configuration="com.yworks.bpmn.Pool">
          <y:Geometry height="170.60602503282269" width="674.5" x="-9.318359962144314" y="254.0"/>
          <y:Fill color="#FFF2BC" color2="#D4D4D4CC" transparent="false"/>
          <y:BorderStyle color="#000000" type="line" width="1.0"/>
          <y:NodeLabel alignment="center" autoSizePolicy="content" fontFamily="Dialog" fontSize="15" fontStyle="plain" hasBackgroundColor="false" hasLineColor="false" hasText="false" height="4.0" modelName="internal" modelPosition="l" rotationAngle="270.0" textColor="#000000" visible="true" width="4.0" x="4.0" y="83.30301251641134"/>
          <y:NodeLabel alignment="center" autoSizePolicy="content" fontFamily="Dialog" fontSize="12" fontStyle="plain" hasBackgroundColor="false" hasLineColor="false" height="18.701171875" modelName="custom" rotationAngle="270.0" textColor="#000000" visible="true" width="35.34765625" x="33.0" y="35.802734375">Editor<y:LabelModel>
              <y:RowNodeLabelModel offset="3.0"/>
            </y:LabelModel>
            <y:ModelParameter>
              <y:RowNodeLabelModelParameter horizontalPosition="0.0" id="row_0" inside="true"/>
            </y:ModelParameter>
          </y:NodeLabel>
          <y:NodeLabel alignment="center" autoSizePolicy="content" fontFamily="Dialog" fontSize="12" fontStyle="plain" hasBackgroundColor="false" hasLineColor="false" height="18.701171875" modelName="custom" rotationAngle="270.0" textColor="#000000" visible="true" width="54.015625" x="33.0" y="100.27176251641134">Reviewer<y:LabelModel>
              <y:RowNodeLabelModel offset="3.0"/>
            </y:LabelModel>
            <y:ModelParameter>
              <y:RowNodeLabelModelParameter horizontalPosition="0.0" id="row_1" inside="true"/>
            </y:ModelParameter>
          </y:NodeLabel>
          <y:StyleProperties>
            <y:Property class="com.yworks.yfiles.bpmn.view.BPMNTypeEnum" name="com.yworks.bpmn.type" value="POOL_TYPE_LANE"/>
            <y:Property name="y.view.tabular.TableNodePainter.ALTERNATE_COLUMN_SELECTION_STYLE">
              <y:SimpleStyle fillColor="#474A4380" lineColor="#000000" lineType="line" lineWidth="3.0"/>
            </y:Property>
            <y:Property name="y.view.tabular.TableNodePainter.ALTERNATE_ROW_STYLE">
              <y:SimpleStyle fillColor="#474A4340" lineColor="#000000" lineType="line" lineWidth="1.0"/>
            </y:Property>
            <y:Property class="java.awt.Color" name="com.yworks.bpmn.icon.line.color" value="#000000"/>
            <y:Property name="y.view.tabular.TableNodePainter.ALTERNATE_ROW_SELECTION_STYLE">
              <y:SimpleStyle fillColor="#474A4380" lineColor="#000000" lineType="line" lineWidth="3.0"/>
            </y:Property>
            <y:Property class="java.awt.Color" name="POOL_LANE_COLOR_ALTERNATING" value="#ffffff"/>
            <y:Property class="java.awt.Color" name="com.yworks.bpmn.icon.fill" value="#ffffff"/>
            <y:Property class="java.lang.String" name="POOL_LANE_STYLE" value="LANE_STYLE_COLUMNS"/>
            <y:Property class="java.awt.Color" name="com.yworks.bpmn.icon.fill2" value="#d4d4d4"/>
            <y:Property class="java.awt.Color" name="POOL_LANE_COLOR_MAIN" value="#ffffff"/>
            <y:Property name="y.view.tabular.TableNodePainter.ALTERNATE_COLUMN_STYLE">
              <y:SimpleStyle fillColor="#474A4340" lineColor="#000000" lineType="line" lineWidth="1.0"/>
            </y:Property>
          </y:StyleProperties>
          <y:State autoResize="true" closed="false" closedHeight="80.0" closedWidth="100.0"/>
          <y:Insets bottom="0" bottomF="0.0" left="0" leftF="0.0" right="0" rightF="0.0" top="0" topF="0.0"/>
          <y:BorderInsets bottom="10" bottomF="9.839244497350307" left="8" leftF="8.199999999999989" right="32" rightF="31.682560733760738" top="11" topF="10.746650032822686"/>
          <y:Table autoResizeTable="true" defaultColumnWidth="360.0" defaultMinimumColumnWidth="30.0" defaultMinimumRowHeight="30.0" defaultRowHeight="107.0">
            <y:DefaultColumnInsets bottom="3.0" left="3.0" right="3.0" top="20.0"/>
            <y:DefaultRowInsets bottom="3.0" left="20.0" right="3.0" top="3.0"/>
            <y:Insets bottom="0.0" left="30.0" right="0.0" top="0.0"/>
            <y:Columns>
              <y:Column id="column_0" minimumWidth="30.0" width="621.5">
                <y:Insets bottom="3.0" left="3.0" right="3.0" top="20.0"/>
              </y:Column>
            </y:Columns>
            <y:Rows>
              <y:Row height="66.953125" id="row_0" minimumHeight="50.703125">
                <y:Insets bottom="3.0" left="20.0" right="3.0" top="3.0"/>
              </y:Row>
              <y:Row height="80.65290003282271" id="row_1" minimumHeight="50.703125">
                <y:Insets bottom="3.0" left="20.0" right="3.0" top="3.0"/>
              </y:Row>
            </y:Rows>
          </y:Table>
        </y:TableNode>
      </data>
      <graph edgedefault="directed" id="n0:">
        <node id="n0::n0">
          <data key="d6">
            <y:GenericNode configuration="com.yworks.bpmn.Event.withShadow">
              <y:Geometry height="34.80000000000001" width="30.0" x="48.881640037855675" y="284.7466500328227"/>
              <y:Fill color="#FFFFFFE6" color2="#D4D4D4CC" transparent="false"/>
              <y:BorderStyle color="#27AE27" type="line" width="1.0"/>
              <y:NodeLabel alignment="center" autoSizePolicy="content" fontFamily="Dialog" fontSize="12" fontStyle="plain" hasBackgroundColor="false" hasLineColor="false" hasText="false" height="4.0" modelName="eight_pos" modelPosition="s" textColor="#000000" visible="true" width="4.0" x="13.0" y="38.80000000000001"/>
              <y:StyleProperties>
                <y:Property class="com.yworks.yfiles.bpmn.view.BPMNTypeEnum" name="com.yworks.bpmn.type" value="EVENT_TYPE_PLAIN"/>
                <y:Property class="java.awt.Color" name="com.yworks.bpmn.icon.line.color" value="#000000"/>
                <y:Property class="java.awt.Color" name="com.yworks.bpmn.icon.fill" value="#ffffff"/>
                <y:Property class="java.awt.Color" name="com.yworks.bpmn.icon.fill2" value="#d4d4d4"/>
                <y:Property class="com.yworks.yfiles.bpmn.view.EventCharEnum" name="com.yworks.bpmn.characteristic" value="EVENT_CHARACTERISTIC_START"/>
              </y:StyleProperties>
            </y:GenericNode>
          </data>
        </node>
        <node id="n0::n1">
          <data key="d6">
            <y:GenericNode configuration="com.yworks.bpmn.Activity.withShadow">
              <y:Geometry height="34.200000000000045" width="70.0" x="187.88164003785568" y="285.7466500328227"/>
              <y:Fill color="#FFFFFFE6" color2="#D4D4D4CC" transparent="false"/>
              <y:BorderStyle color="#123EA2" type="line" width="1.0"/>
              <y:NodeLabel alignment="center" autoSizePolicy="content" fontFamily="Dialog" fontSize="12" fontStyle="plain" hasBackgroundColor="false" hasLineColor="false" height="33.40234375" modelName="internal" modelPosition="c" textColor="#000000" visible="true" width="49.345703125" x="10.3271484375" y="0.39882812500002274">Invite
reviewer</y:NodeLabel>
              <y:StyleProperties>
                <y:Property class="com.yworks.yfiles.bpmn.view.BPMNTypeEnum" name="com.yworks.bpmn.type" value="ACTIVITY_TYPE_STATELESS_TASK_PLAIN"/>
                <y:Property class="java.awt.Color" name="com.yworks.bpmn.icon.line.color" value="#000000"/>
                <y:Property class="java.awt.Color" name="com.yworks.bpmn.icon.fill" value="#ffffff"/>
                <y:Property class="java.awt.Color" name="com.yworks.bpmn.icon.fill2" value="#d4d4d4"/>
              </y:StyleProperties>
            </y:GenericNode>
          </data>
        </node>
        <node id="n0::n2">
          <data key="d6">
            <y:GenericNode configuration="com.yworks.bpmn.Event.withShadow">
              <y:Geometry height="30.0" width="30.0" x="267.1816400378557" y="373.7667805354724"/>
              <y:Fill color="#FFFFFFE6" color2="#D4D4D4CC" transparent="false"/>
              <y:BorderStyle color="#27AE27" type="line" width="1.0"/>
              <y:NodeLabel alignment="center" autoSizePolicy="content" fontFamily="Dialog" fontSize="12" fontStyle="plain" hasBackgroundColor="false" hasLineColor="false" hasText="false" height="4.0" modelName="eight_pos" modelPosition="s" textColor="#000000" visible="true" width="4.0" x="13.0" y="34.0"/>
              <y:StyleProperties>
                <y:Property class="com.yworks.yfiles.bpmn.view.BPMNTypeEnum" name="com.yworks.bpmn.type" value="EVENT_TYPE_MESSAGE"/>
                <y:Property class="java.awt.Color" name="com.yworks.bpmn.icon.line.color" value="#000000"/>
                <y:Property class="java.awt.Color" name="com.yworks.bpmn.icon.fill" value="#ffffff"/>
                <y:Property class="java.awt.Color" name="com.yworks.bpmn.icon.fill2" value="#d4d4d4"/>
                <y:Property class="com.yworks.yfiles.bpmn.view.EventCharEnum" name="com.yworks.bpmn.characteristic" value="EVENT_CHARACTERISTIC_START"/>
              </y:StyleProperties>
            </y:GenericNode>
          </data>
        </node>
        <node id="n0::n3">
          <data key="d6">
            <y:GenericNode configuration="com.yworks.bpmn.Activity.withShadow">
              <y:Geometry height="39.0" width="66.0" x="326.99907930409495" y="366.94665003282273"/>
              <y:Fill color="#FFFFFFE6" color2="#D4D4D4CC" transparent="false"/>
              <y:BorderStyle color="#123EA2" type="line" width="1.0"/>
              <y:NodeLabel alignment="center" autoSizePolicy="content" fontFamily="Dialog" fontSize="12" fontStyle="plain" hasBackgroundColor="false" hasLineColor="false" height="18.701171875" modelName="internal" modelPosition="c" textColor="#000000" visible="true" width="57.349609375" x="4.3251953125" y="10.1494140625">Do review</y:NodeLabel>
              <y:StyleProperties>
                <y:Property class="com.yworks.yfiles.bpmn.view.BPMNTypeEnum" name="com.yworks.bpmn.type" value="ACTIVITY_TYPE_STATELESS_TASK_PLAIN"/>
                <y:Property class="java.awt.Color" name="com.yworks.bpmn.icon.line.color" value="#000000"/>
                <y:Property class="java.awt.Color" name="com.yworks.bpmn.icon.fill" value="#ffffff"/>
                <y:Property class="java.awt.Color" name="com.yworks.bpmn.icon.fill2" value="#d4d4d4"/>
              </y:StyleProperties>
            </y:GenericNode>
          </data>
        </node>
        <node id="n0::n4">
          <data key="d6">
            <y:GenericNode configuration="com.yworks.bpmn.Activity.withShadow">
              <y:Geometry height="34.19999999999999" width="110.99999999999994" x="457.59907930409497" y="286.7466500328227"/>
              <y:Fill color="#FFFFFFE6" color2="#D4D4D4CC" transparent="false"/>
              <y:BorderStyle color="#123EA2" type="line" width="1.0"/>
              <y:NodeLabel alignment="center" autoSizePolicy="content" fontFamily="Dialog" fontSize="12" fontStyle="plain" hasBackgroundColor="false" hasLineColor="false" height="33.40234375" modelName="internal" modelPosition="c" textColor="#000000" visible="true" width="109.375" x="0.8125" y="0.39882812500002274">Re-edit 
following comments</y:NodeLabel>
              <y:StyleProperties>
                <y:Property class="com.yworks.yfiles.bpmn.view.BPMNTypeEnum" name="com.yworks.bpmn.type" value="ACTIVITY_TYPE_STATELESS_TASK_PLAIN"/>
                <y:Property class="java.awt.Color" name="com.yworks.bpmn.icon.line.color" value="#000000"/>
                <y:Property class="java.awt.Color" name="com.yworks.bpmn.icon.fill" value="#ffffff"/>
                <y:Property class="java.awt.Color" name="com.yworks.bpmn.icon.fill2" value="#d4d4d4"/>
              </y:StyleProperties>
            </y:GenericNode>
          </data>
        </node>
        <node id="n0::n5">
          <data key="d6">
            <y:GenericNode configuration="com.yworks.bpmn.Event.withShadow">
              <y:Geometry height="34.799999999999955" width="30.0" x="405.69907930409494" y="286.7466500328227"/>
              <y:Fill color="#FFFFFFE6" color2="#D4D4D4CC" transparent="false"/>
              <y:BorderStyle color="#27AE27" type="line" width="1.0"/>
              <y:NodeLabel alignment="center" autoSizePolicy="content" fontFamily="Dialog" fontSize="12" fontStyle="plain" hasBackgroundColor="false" hasLineColor="false" hasText="false" height="4.0" modelName="eight_pos" modelPosition="s" textColor="#000000" visible="true" width="4.0" x="13.0" y="38.799999999999955"/>
              <y:StyleProperties>
                <y:Property class="com.yworks.yfiles.bpmn.view.BPMNTypeEnum" name="com.yworks.bpmn.type" value="EVENT_TYPE_MESSAGE"/>
                <y:Property class="java.awt.Color" name="com.yworks.bpmn.icon.line.color" value="#000000"/>
                <y:Property class="java.awt.Color" name="com.yworks.bpmn.icon.fill" value="#ffffff"/>
                <y:Property class="java.awt.Color" name="com.yworks.bpmn.icon.fill2" value="#d4d4d4"/>
                <y:Property class="com.yworks.yfiles.bpmn.view.EventCharEnum" name="com.yworks.bpmn.characteristic" value="EVENT_CHARACTERISTIC_START"/>
              </y:StyleProperties>
            </y:GenericNode>
          </data>
        </node>
        <node id="n0::n6">
          <data key="d6">
            <y:GenericNode configuration="com.yworks.bpmn.Event.withShadow">
              <y:Geometry height="30.0" width="30.0" x="600.499079304095" y="288.04665003282275"/>
              <y:Fill color="#FFFFFFE6" color2="#D4D4D4CC" transparent="false"/>
              <y:BorderStyle color="#B11F1F" type="line" width="1.0"/>
              <y:NodeLabel alignment="center" autoSizePolicy="content" fontFamily="Dialog" fontSize="12" fontStyle="plain" hasBackgroundColor="false" hasLineColor="false" hasText="false" height="4.0" modelName="eight_pos" modelPosition="s" textColor="#000000" visible="true" width="4.0" x="13.0" y="34.0"/>
              <y:StyleProperties>
                <y:Property class="com.yworks.yfiles.bpmn.view.BPMNTypeEnum" name="com.yworks.bpmn.type" value="EVENT_TYPE_TERMINATE"/>
                <y:Property class="java.awt.Color" name="com.yworks.bpmn.icon.line.color" value="#000000"/>
                <y:Property class="java.awt.Color" name="com.yworks.bpmn.icon.fill" value="#ffffff"/>
                <y:Property class="java.awt.Color" name="com.yworks.bpmn.icon.fill2" value="#d4d4d4"/>
                <y:Property class="com.yworks.yfiles.bpmn.view.EventCharEnum" name="com.yworks.bpmn.characteristic" value="EVENT_CHARACTERISTIC_END"/>
              </y:StyleProperties>
            </y:GenericNode>
          </data>
        </node>
        <node id="n0::n7">
          <data key="d5"/>
          <data key="d6">
            <y:GenericNode configuration="com.yworks.bpmn.Activity.withShadow">
              <y:Geometry height="34.0" width="58.0" x="100.0" y="285.0"/>
              <y:Fill color="#FFFFFFE6" color2="#D4D4D4CC" transparent="false"/>
              <y:BorderStyle color="#123EA2" type="line" width="1.0"/>
              <y:NodeLabel alignment="center" autoSizePolicy="content" fontFamily="Dialog" fontSize="12" fontStyle="plain" hasBackgroundColor="false" hasLineColor="false" height="33.40234375" modelName="internal" modelPosition="c" textColor="#000000" visible="true" width="40.017578125" x="8.9912109375" y="0.298828125">Create
Doc</y:NodeLabel>
              <y:StyleProperties>
                <y:Property class="com.yworks.yfiles.bpmn.view.BPMNTypeEnum" name="com.yworks.bpmn.type" value="ACTIVITY_TYPE_STATELESS_TASK_PLAIN"/>
                <y:Property class="java.awt.Color" name="com.yworks.bpmn.icon.line.color" value="#000000"/>
                <y:Property class="java.awt.Color" name="com.yworks.bpmn.icon.fill" value="#ffffff"/>
                <y:Property class="java.awt.Color" name="com.yworks.bpmn.icon.fill2" value="#d4d4d4"/>
              </y:StyleProperties>
            </y:GenericNode>
          </data>
        </node>
      </graph>
    </node>
    <node id="n1" yfiles.foldertype="group">
      <data key="d6">
        <y:TableNode configuration="com.yworks.bpmn.Pool">
          <y:Geometry height="100.5" width="670.0" x="-13.733333333333348" y="50.5466500328227"/>
          <y:Fill color="#FFF2BC" color2="#D4D4D4CC" transparent="false"/>
          <y:BorderStyle color="#000000" type="line" width="1.0"/>
          <y:NodeLabel alignment="center" autoSizePolicy="content" fontFamily="Dialog" fontSize="15" fontStyle="plain" hasBackgroundColor="false" hasLineColor="false" height="40.7529296875" modelName="internal" modelPosition="l" rotationAngle="270.0" textColor="#000000" visible="true" width="94.0439453125" x="4.0" y="3.22802734375">Codendi
Doc Manager</y:NodeLabel>
          <y:StyleProperties>
            <y:Property class="com.yworks.yfiles.bpmn.view.BPMNTypeEnum" name="com.yworks.bpmn.type" value="POOL_TYPE_EMPTY"/>
            <y:Property name="y.view.tabular.TableNodePainter.ALTERNATE_COLUMN_SELECTION_STYLE">
              <y:SimpleStyle fillColor="#474A4380" lineColor="#000000" lineType="line" lineWidth="3.0"/>
            </y:Property>
            <y:Property class="java.awt.Color" name="com.yworks.bpmn.icon.line.color" value="#000000"/>
            <y:Property name="y.view.tabular.TableNodePainter.ALTERNATE_ROW_STYLE">
              <y:SimpleStyle fillColor="#474A4340" lineColor="#000000" lineType="line" lineWidth="1.0"/>
            </y:Property>
            <y:Property class="java.awt.Color" name="com.yworks.bpmn.icon.fill" value="#ffffff"/>
            <y:Property class="java.awt.Color" name="POOL_LANE_COLOR_ALTERNATING" value="#ffffff"/>
            <y:Property name="y.view.tabular.TableNodePainter.ALTERNATE_ROW_SELECTION_STYLE">
              <y:SimpleStyle fillColor="#474A4380" lineColor="#000000" lineType="line" lineWidth="3.0"/>
            </y:Property>
            <y:Property class="java.lang.String" name="POOL_LANE_STYLE" value="LANE_STYLE_COLUMNS"/>
            <y:Property class="java.awt.Color" name="com.yworks.bpmn.icon.fill2" value="#d4d4d4"/>
            <y:Property class="java.awt.Color" name="POOL_LANE_COLOR_MAIN" value="#ffffff"/>
            <y:Property name="y.view.tabular.TableNodePainter.ALTERNATE_COLUMN_STYLE">
              <y:SimpleStyle fillColor="#474A4340" lineColor="#000000" lineType="line" lineWidth="1.0"/>
            </y:Property>
          </y:StyleProperties>
          <y:State autoResize="true" closed="false" closedHeight="80.0" closedWidth="100.0"/>
          <y:Insets bottom="0" bottomF="0.0" left="0" leftF="0.0" right="0" rightF="0.0" top="0" topF="0.0"/>
          <y:BorderInsets bottom="0" bottomF="0.0" left="0" leftF="0.0" right="0" rightF="0.0" top="0" topF="0.0"/>
          <y:Table autoResizeTable="true" defaultColumnWidth="380.0" defaultMinimumColumnWidth="30.0" defaultMinimumRowHeight="30.0" defaultRowHeight="320.0">
            <y:DefaultColumnInsets bottom="3.0" left="3.0" right="3.0" top="20.0"/>
            <y:DefaultRowInsets bottom="3.0" left="20.0" right="3.0" top="3.0"/>
            <y:Insets bottom="0.0" left="30.0" right="0.0" top="0.0"/>
            <y:Columns>
              <y:Column id="column_0" minimumWidth="30.0" width="617.0">
                <y:Insets bottom="3.0" left="3.0" right="3.0" top="20.0"/>
              </y:Column>
            </y:Columns>
            <y:Rows>
              <y:Row height="77.5" id="row_0" minimumHeight="30.0">
                <y:Insets bottom="3.0" left="20.0" right="3.0" top="3.0"/>
              </y:Row>
            </y:Rows>
          </y:Table>
        </y:TableNode>
      </data>
      <graph edgedefault="directed" id="n1:"/>
    </node>
    <edge id="e0" source="n0::n7" target="n1">
      <data key="d10">
        <y:GenericEdge configuration="com.yworks.bpmn.Connection">
          <y:Path sx="-1.1856377882348852" sy="-16.999294080134177" tx="-193.45230445490154" ty="50.2267874671773"/>
          <y:LineStyle color="#000000" type="line" width="1.0"/>
          <y:Arrows source="none" target="delta"/>
          <y:EdgeLabel alignment="center" distance="2.0" fontFamily="Dialog" fontSize="12" fontStyle="plain" hasBackgroundColor="false" hasLineColor="false" height="33.40234375" modelName="six_pos" modelPosition="ttail" preferredPlacement="anywhere" ratio="0.5" textColor="#000000" visible="true" width="58.69140625" x="2.00000063949949" y="-123.79633702772418">New
Document</y:EdgeLabel>
          <y:StyleProperties>
            <y:Property class="com.yworks.yfiles.bpmn.view.BPMNTypeEnum" name="com.yworks.bpmn.type" value="CONNECTION_TYPE_SEQUENCE_FLOW"/>
          </y:StyleProperties>
        </y:GenericEdge>
      </data>
    </edge>
    <edge id="e1" source="n0::n1" target="n1">
      <data key="d10">
        <y:GenericEdge configuration="com.yworks.bpmn.Connection">
          <y:Path sx="0.0" sy="0.0" tx="-120.13502662881098" ty="50.23710937499993"/>
          <y:LineStyle color="#000000" type="line" width="1.0"/>
          <y:Arrows source="none" target="delta"/>
          <y:EdgeLabel alignment="center" distance="2.0" fontFamily="Dialog" fontSize="12" fontStyle="plain" hasBackgroundColor="false" hasLineColor="false" height="48.103515625" modelName="six_pos" modelPosition="ttail" preferredPlacement="anywhere" ratio="0.5" textColor="#000000" visible="true" width="51.361328125" x="-8.957903576768189" y="-124.58863439100543">Create
Approval
Table</y:EdgeLabel>
          <y:StyleProperties>
            <y:Property class="com.yworks.yfiles.bpmn.view.BPMNTypeEnum" name="com.yworks.bpmn.type" value="CONNECTION_TYPE_SEQUENCE_FLOW"/>
          </y:StyleProperties>
        </y:GenericEdge>
      </data>
    </edge>
    <edge id="e2" source="n1" target="n0::n2">
      <data key="d10">
        <y:GenericEdge configuration="com.yworks.bpmn.Connection">
          <y:Path sx="-37.79159966770942" sy="50.28875674828362" tx="0.0" ty="0.0"/>
          <y:LineStyle color="#000000" type="dashed" width="1.0"/>
          <y:Arrows source="transparent_circle" target="white_delta"/>
          <y:EdgeLabel alignment="center" backgroundColor="#FFFFFF" distance="2.0" fontFamily="Dialog" fontSize="12" fontStyle="plain" hasLineColor="false" hasText="false" height="4.0" modelName="center_slider" preferredPlacement="anywhere" ratio="0.5263157894736842" textColor="#000000" visible="true" width="4.0" x="-2.634216513894387" y="114.5442100128871"/>
          <y:StyleProperties>
            <y:Property class="com.yworks.yfiles.bpmn.view.BPMNTypeEnum" name="com.yworks.bpmn.type" value="CONNECTION_TYPE_MESSAGE_FLOW"/>
          </y:StyleProperties>
        </y:GenericEdge>
      </data>
    </edge>
    <edge id="e3" source="n0::n3" target="n0">
      <data key="d10">
        <y:GenericEdge configuration="com.yworks.bpmn.Connection">
          <y:Path sx="0.0" sy="0.0" tx="44.31967408914256" ty="-74.32013050264965"/>
          <y:LineStyle color="#000000" type="line" width="1.0"/>
          <y:Arrows source="none" target="delta"/>
          <y:StyleProperties>
            <y:Property class="com.yworks.yfiles.bpmn.view.BPMNTypeEnum" name="com.yworks.bpmn.type" value="CONNECTION_TYPE_SEQUENCE_FLOW"/>
          </y:StyleProperties>
        </y:GenericEdge>
      </data>
    </edge>
    <edge id="n0::e0" source="n0::n2" target="n0::n3">
      <data key="d10">
        <y:GenericEdge configuration="com.yworks.bpmn.Connection">
          <y:Path sx="0.0" sy="0.0" tx="10.09411764705887" ty="3.545454545454545"/>
          <y:LineStyle color="#000000" type="line" width="1.0"/>
          <y:Arrows source="none" target="delta"/>
          <y:StyleProperties>
            <y:Property class="com.yworks.yfiles.bpmn.view.BPMNTypeEnum" name="com.yworks.bpmn.type" value="CONNECTION_TYPE_SEQUENCE_FLOW"/>
          </y:StyleProperties>
        </y:GenericEdge>
      </data>
    </edge>
    <edge id="n0::e1" source="n0::n0" target="n0::n7">
      <data key="d10">
        <y:GenericEdge configuration="com.yworks.bpmn.Connection">
          <y:Path sx="0.0" sy="0.0" tx="-28.9765625" ty="1.146650032822663"/>
          <y:LineStyle color="#000000" type="line" width="1.0"/>
          <y:Arrows source="none" target="delta"/>
          <y:StyleProperties>
            <y:Property class="com.yworks.yfiles.bpmn.view.BPMNTypeEnum" name="com.yworks.bpmn.type" value="CONNECTION_TYPE_SEQUENCE_FLOW"/>
          </y:StyleProperties>
        </y:GenericEdge>
      </data>
    </edge>
    <edge id="e4" source="n0::n3" target="n1">
      <data key="d10">
        <y:GenericEdge configuration="com.yworks.bpmn.Connection">
          <y:Path sx="0.0" sy="0.0" tx="38.7324126374283" ty="50.2111624671773"/>
          <y:LineStyle color="#000000" type="line" width="1.0"/>
          <y:Arrows source="none" target="delta"/>
          <y:EdgeLabel alignment="center" distance="2.0" fontFamily="Dialog" fontSize="12" fontStyle="plain" hasBackgroundColor="false" hasLineColor="false" height="33.40234375" modelName="six_pos" modelPosition="ttail" preferredPlacement="anywhere" ratio="0.5" textColor="#000000" visible="true" width="62.013671875" x="1.9999948314386984" y="-205.7604788734273">Give
Comments</y:EdgeLabel>
          <y:StyleProperties>
            <y:Property class="com.yworks.yfiles.bpmn.view.BPMNTypeEnum" name="com.yworks.bpmn.type" value="CONNECTION_TYPE_SEQUENCE_FLOW"/>
          </y:StyleProperties>
        </y:GenericEdge>
      </data>
    </edge>
    <edge id="e5" source="n1" target="n0::n5">
      <data key="d10">
        <y:GenericEdge configuration="com.yworks.bpmn.Connection">
          <y:Path sx="99.43241263742829" sy="50.2736624671773" tx="0.0" ty="0.0"/>
          <y:LineStyle color="#000000" type="dashed" width="1.0"/>
          <y:Arrows source="transparent_circle" target="white_delta"/>
          <y:EdgeLabel alignment="center" backgroundColor="#FFFFFF" distance="2.0" fontFamily="Dialog" fontSize="12" fontStyle="plain" hasLineColor="false" hasText="false" height="4.0" modelName="center_slider" preferredPlacement="anywhere" ratio="0.47368421052631576" textColor="#000000" visible="true" width="4.0" x="-1.999986858014438" y="62.893442795980576"/>
          <y:StyleProperties>
            <y:Property class="com.yworks.yfiles.bpmn.view.BPMNTypeEnum" name="com.yworks.bpmn.type" value="CONNECTION_TYPE_MESSAGE_FLOW"/>
          </y:StyleProperties>
        </y:GenericEdge>
      </data>
    </edge>
    <edge id="e6" source="n0::n1" target="n0">
      <data key="d10">
        <y:GenericEdge configuration="com.yworks.bpmn.Connection">
          <y:Path sx="0.0" sy="0.0" tx="-75.20490097305606" ty="10.0"/>
          <y:LineStyle color="#000000" type="line" width="1.0"/>
          <y:Arrows source="none" target="delta"/>
          <y:StyleProperties>
            <y:Property class="com.yworks.yfiles.bpmn.view.BPMNTypeEnum" name="com.yworks.bpmn.type" value="CONNECTION_TYPE_SEQUENCE_FLOW"/>
          </y:StyleProperties>
        </y:GenericEdge>
      </data>
    </edge>
    <edge id="n0::e2" source="n0::n5" target="n0::n4">
      <data key="d10">
        <y:GenericEdge configuration="com.yworks.bpmn.Connection">
          <y:Path sx="0.0" sy="0.0" tx="0.0" ty="0.0"/>
          <y:LineStyle color="#000000" type="line" width="1.0"/>
          <y:Arrows source="none" target="delta"/>
          <y:StyleProperties>
            <y:Property class="com.yworks.yfiles.bpmn.view.BPMNTypeEnum" name="com.yworks.bpmn.type" value="CONNECTION_TYPE_SEQUENCE_FLOW"/>
          </y:StyleProperties>
        </y:GenericEdge>
      </data>
    </edge>
    <edge id="n0::e3" source="n0::n1" target="n0::n5">
      <data key="d10">
        <y:GenericEdge configuration="com.yworks.bpmn.Connection">
          <y:Path sx="0.0" sy="0.0" tx="-1.1999999999999318" ty="-0.2999999999999545"/>
          <y:LineStyle color="#000000" type="line" width="1.0"/>
          <y:Arrows source="none" target="delta"/>
          <y:StyleProperties>
            <y:Property class="com.yworks.yfiles.bpmn.view.BPMNTypeEnum" name="com.yworks.bpmn.type" value="CONNECTION_TYPE_SEQUENCE_FLOW"/>
          </y:StyleProperties>
        </y:GenericEdge>
      </data>
    </edge>
    <edge id="e7" source="n0::n4" target="n1">
      <data key="d10">
        <y:GenericEdge configuration="com.yworks.bpmn.Connection">
          <y:Path sx="0.0" sy="0.0" tx="191.83241263742832" ty="50.2736624671773"/>
          <y:LineStyle color="#000000" type="line" width="1.0"/>
          <y:Arrows source="none" target="delta"/>
          <y:EdgeLabel alignment="center" distance="2.0" fontFamily="Dialog" fontSize="12" fontStyle="plain" hasBackgroundColor="false" hasLineColor="false" height="33.40234375" modelName="six_pos" modelPosition="tail" preferredPlacement="anywhere" ratio="0.5" textColor="#000000" visible="true" width="50.025390625" x="2.000019245501221" y="-84.53096227186481">Increase
Version</y:EdgeLabel>
          <y:StyleProperties>
            <y:Property class="com.yworks.yfiles.bpmn.view.BPMNTypeEnum" name="com.yworks.bpmn.type" value="CONNECTION_TYPE_SEQUENCE_FLOW"/>
          </y:StyleProperties>
        </y:GenericEdge>
      </data>
    </edge>
    <edge id="n0::e4" source="n0::n4" target="n0::n1">
      <data key="d10">
        <y:GenericEdge configuration="com.yworks.bpmn.Connection">
          <y:Path sx="0.0" sy="0.0" tx="-1.4556531113430056" ty="14.102755214716055">
            <y:Point x="461.899079304095" y="332.24665003282274"/>
            <y:Point x="319.0490793040951" y="329.94665003282273"/>
            <y:Point x="239.89907930409498" y="330.44665003282273"/>
          </y:Path>
          <y:LineStyle color="#000000" type="line" width="1.0"/>
          <y:Arrows source="none" target="delta"/>
          <y:StyleProperties>
            <y:Property class="com.yworks.yfiles.bpmn.view.BPMNTypeEnum" name="com.yworks.bpmn.type" value="CONNECTION_TYPE_SEQUENCE_FLOW"/>
          </y:StyleProperties>
        </y:GenericEdge>
      </data>
    </edge>
    <edge id="n0::e5" source="n0::n4" target="n0::n6">
      <data key="d10">
        <y:GenericEdge configuration="com.yworks.bpmn.Connection">
          <y:Path sx="0.0" sy="0.0" tx="0.0" ty="0.0"/>
          <y:LineStyle color="#000000" type="line" width="1.0"/>
          <y:Arrows source="none" target="delta"/>
          <y:StyleProperties>
            <y:Property class="com.yworks.yfiles.bpmn.view.BPMNTypeEnum" name="com.yworks.bpmn.type" value="CONNECTION_TYPE_SEQUENCE_FLOW"/>
          </y:StyleProperties>
        </y:GenericEdge>
      </data>
    </edge>
    <edge id="n0::e6" source="n0::n7" target="n0::n1">
      <data key="d10">
        <y:GenericEdge configuration="com.yworks.bpmn.Connection">
          <y:Path sx="0.0" sy="0.0" tx="0.0" ty="0.0"/>
          <y:LineStyle color="#000000" type="line" width="1.0"/>
          <y:Arrows source="none" target="delta"/>
          <y:StyleProperties>
            <y:Property class="com.yworks.yfiles.bpmn.view.BPMNTypeEnum" name="com.yworks.bpmn.type" value="CONNECTION_TYPE_SEQUENCE_FLOW"/>
          </y:StyleProperties>
        </y:GenericEdge>
      </data>
    </edge>
    <edge id="e8" source="n0::n1" target="n1">
      <data key="d10">
        <y:GenericEdge configuration="com.yworks.bpmn.Connection">
          <y:Path sx="0.0" sy="0.0" tx="-98.38502662881098" ty="3.703349967177303"/>
          <y:LineStyle color="#000000" type="line" width="1.0"/>
          <y:Arrows source="none" target="delta"/>
          <y:EdgeLabel alignment="center" distance="2.0" fontFamily="Dialog" fontSize="12" fontStyle="plain" hasBackgroundColor="false" hasLineColor="false" height="48.103515625" modelName="six_pos" modelPosition="ttail" preferredPlacement="anywhere" ratio="0.5" textColor="#000000" visible="true" width="51.361328125" x="2.0000024646134875" y="-124.5811575843648">Create
Approval
Table</y:EdgeLabel>
          <y:StyleProperties>
            <y:Property class="com.yworks.yfiles.bpmn.view.BPMNTypeEnum" name="com.yworks.bpmn.type" value="CONNECTION_TYPE_SEQUENCE_FLOW"/>
          </y:StyleProperties>
        </y:GenericEdge>
      </data>
    </edge>
  </graph>
  <data key="d0">
    <y:Resources/>
  </data>
</graphml>
