<?xml version="1.0" encoding="UTF-8"?>
<svg xmlns="http://www.w3.org/2000/svg" xmlns:xlink="http://www.w3.org/1999/xlink" fill-opacity="1" color-rendering="auto" color-interpolation="auto" stroke="black" text-rendering="auto" stroke-linecap="square" width="1237" stroke-miterlimit="10" stroke-opacity="1" shape-rendering="auto" fill="black" stroke-dasharray="none" font-weight="normal" stroke-width="1" height="671" font-family="'Dialog'" font-style="normal" stroke-linejoin="miter" font-size="12" stroke-dashoffset="0" image-rendering="auto">
  <!--Generated by ySVG-->
  <defs id="genericDefs"/>
  <g>
    <defs id="defs1">
      <clipPath clipPathUnits="userSpaceOnUse" id="clipPath1">
        <path d="M0 0 L1237 0 L1237 671 L0 671 L0 0 Z"/>
      </clipPath>
      <clipPath clipPathUnits="userSpaceOnUse" id="clipPath2">
        <path d="M-369 -268 L868 -268 L868 403 L-369 403 L-369 -268 Z"/>
      </clipPath>
      <clipPath clipPathUnits="userSpaceOnUse" id="clipPath3">
        <path d="M-284.5632 1.9593 L271.9781 1.9593 L271.9781 303.8503 L-284.5632 303.8503 L-284.5632 1.9593 Z"/>
      </clipPath>
      <clipPath clipPathUnits="userSpaceOnUse" id="clipPath4">
        <path d="M-284.5632 -20.5518 L271.9781 -20.5518 L271.9781 281.3392 L-284.5632 281.3392 L-284.5632 -20.5518 Z"/>
      </clipPath>
      <clipPath clipPathUnits="userSpaceOnUse" id="clipPath5">
        <path d="M-309.1328 -124.4424 L927.8672 -124.4424 L927.8672 546.5576 L-309.1328 546.5576 L-309.1328 -124.4424 Z"/>
      </clipPath>
      <clipPath clipPathUnits="userSpaceOnUse" id="clipPath6">
        <path d="M-309.1328 -174.4769 L927.8672 -174.4769 L927.8672 496.5231 L-309.1328 496.5231 L-309.1328 -174.4769 Z"/>
      </clipPath>
      <clipPath clipPathUnits="userSpaceOnUse" id="clipPath7">
        <path d="M-160.8239 -213.5211 L674.7222 -213.5211 L674.7222 239.7137 L-160.8239 239.7137 L-160.8239 -213.5211 Z"/>
      </clipPath>
      <clipPath clipPathUnits="userSpaceOnUse" id="clipPath8">
        <path d="M-160.3744 -246.6404 L672.973 -246.6404 L672.973 205.4017 L-160.3744 205.4017 L-160.3744 -246.6404 Z"/>
      </clipPath>
      <clipPath clipPathUnits="userSpaceOnUse" id="clipPath9">
        <path d="M-7.7263 -427.994 L1229.2737 -427.994 L1229.2737 243.006 L-7.7263 243.006 L-7.7263 -427.994 Z"/>
      </clipPath>
      <clipPath clipPathUnits="userSpaceOnUse" id="clipPath10">
        <path d="M-672.5392 -450.985 L564.4608 -450.985 L564.4608 220.015 L-672.5392 220.015 L-672.5392 -450.985 Z"/>
      </clipPath>
      <clipPath clipPathUnits="userSpaceOnUse" id="clipPath11">
        <path d="M-219.0363 -597.0754 L1017.9637 -597.0754 L1017.9637 73.9246 L-219.0363 73.9246 L-219.0363 -597.0754 Z"/>
      </clipPath>
      <clipPath clipPathUnits="userSpaceOnUse" id="clipPath12">
        <path d="M-445.2504 -597.0754 L791.7496 -597.0754 L791.7496 73.9246 L-445.2504 73.9246 L-445.2504 -597.0754 Z"/>
      </clipPath>
      <clipPath clipPathUnits="userSpaceOnUse" id="clipPath13">
        <path d="M-672.5392 -380.892 L564.4608 -380.892 L564.4608 290.108 L-672.5392 290.108 L-672.5392 -380.892 Z"/>
      </clipPath>
    </defs>
    <g transform="matrix(2.2227,0,0,2.2227,632.4862,-4.3548)" image-rendering="optimizeQuality">
      <image x="0" y="0" clip-path="url(#clipPath3)" width="275" xlink:href="data:image/png;base64,iVBORw0KGgoAAAANSUhEUgAAARMAAAAqCAYAAACQq79pAAABp0lEQVR42u3d626C&#13;&#10;MBiA4eLY8f7vdVFQB8nX2OGm1i071OdJGpgBfyzhDcWkpAQAAAAAAMDf1VUe11We&#13;&#10;B/xv+0+2V8VkPmYVoysGcDsh2S22R/oLQzIfd1cMMYHbiEkOyHYaY3z+YVD6C0Iy&#13;&#10;x+N+Go+x7eNzoP2Y5JBsprFeRKb6zmQ+5mEaz9N4iv3e/xmal0MyTON1EZeqaU55&#13;&#10;Z5Jj8hJB6U11oHl5arOOkAwxutqYlEHpi6nOU+yLCbQfkyH2h3R4xHFVTJZ3KDkq&#13;&#10;YgLty89Gx7j+V6eu+5pnH90HA2hX1bXuVxngW29jAMQEEBNATADEBBATQEwAMQEQ&#13;&#10;E0BMADEBxARATIBfULv84j59sv4j0Jyq672v+MJdOqz/eHKRFKAJ2xj52j8ZlnMx&#13;&#10;ySfn5dvmFarv4ovFBNqPyRjX/Rh/fykmOSTruCPZJavTwy1YvuZiTFe+hGv5zowu&#13;&#10;9temOXAzMdkVs5JNEZTqmOzT+7d4DenwqlCgbeVjjvHcVOfc3UVeTHaVjt83DLQf&#13;&#10;k1RMbbbFjKU6Jsuo1JwDtBOU5RYAAAAAgJ/yBp/hcxbyQ8n+AAAAAElFTkSuQmCC" height="42" preserveAspectRatio="none"/>
    </g>
    <g fill="white" stroke-width="2" stroke-miterlimit="1.45" transform="matrix(1,0,0,1,369,268)" stroke-linecap="butt" stroke="white">
      <path d="M283.7127 -252.1283 L852.6938 -252.1283 L852.6938 -202.0938 L283.7127 -202.0938 Z" clip-path="url(#clipPath2)" stroke="none"/>
      <path fill="none" d="M283.7127 -252.1283 L852.6938 -252.1283 L852.6938 -202.0938 L283.7127 -202.0938 Z" clip-path="url(#clipPath2)" stroke="rgb(153,51,204)"/>
    </g>
    <g font-size="20" stroke-linecap="butt" transform="matrix(1,0,0,1,369,268)" fill="rgb(153,51,204)" font-family="'Courier New'" stroke="rgb(153,51,204)" font-weight="bold" stroke-miterlimit="1.45">
      <text x="454.1848" xml:space="preserve" y="-221.7888" clip-path="url(#clipPath2)" stroke="none">AtModulePktAnalyzer</text>
    </g>
    <g transform="matrix(2.2227,0,0,2.2227,632.4862,45.6796)" image-rendering="optimizeQuality">
      <image x="0" y="0" clip-path="url(#clipPath4)" width="275" xlink:href="data:image/png;base64,iVBORw0KGgoAAAANSUhEUgAAARMAAABrCAYAAABUr2agAAACRUlEQVR42u3Z7U7C&#13;&#10;MBSAYQr18/7vVXHA3JLT2ExEiiRqeZ7khLkMfpj0TQurFQAAAAAAAH9XanwuNb4P&#13;&#10;+N/GL14visn8zDomVQPcTkgOi9dP8pkhmZ/bVCMmcBsxKQHZT7OL+0eDks8IyRyP&#13;&#10;u2ke4jXHfaD/mJSQvE2zXUSmeWcyP3M/zdM0j3Gd/Z+heyUkwzQvi7g0HXPqnUmJ&#13;&#10;yXMEJTvqQPfK0WYbIRliUmtM6qDk6qjzGNdiAv3HZIjrYfXxFcdFMVnuUEpUxAT6&#13;&#10;V74b3cX6X59a9y3ffaQjA/Sraa37VQa46jYGQEwAMQHEBEBMADEBxAQQEwAxAcQE&#13;&#10;EBNATADEBBATQEwAMQEQE0BMADEBEBNATAAxAcQEQEwAMQHEBBATADEBxAQQE0BM&#13;&#10;AMQEEBNATADEBBATQEwAMQEQE0BMADEBxARATAAxAcQEQEwAMQHEBBATADEBxAQQ&#13;&#10;E0BMAMQEEBNATAAxARATQEwAMQEQE0BMADEBxARATAAxAcQEEBMAMQHEBBATQEwA&#13;&#10;xAQQE0BMAMQEEBPgz8kXvGeMAfrWtM5zw4ceptnH6zxJVKBLabHmy7offxqTEo9d&#13;&#10;zFt8aPI/h67tq3VfbyQuislYhWSOyGvcG8QEulfW/jbW/+7UDiWfebSZP2gT98q1&#13;&#10;Yw70fcwZY/0PEZQh/m6OyaqKybbakcwh8SsQ9K/eUJTTyZcx+e6okiIc64hI2ZEk&#13;&#10;OxPofmdSB6X+MvboL7rpzA9eDnBbO5TlNO9MrvUe4H/HBAAAAACA3/IOPYJ7h8VD&#13;&#10;iuwAAAAASUVORK5CYII=" height="107" preserveAspectRatio="none"/>
    </g>
    <g fill="white" stroke-width="2" stroke-miterlimit="1.45" transform="matrix(1,0,0,1,369,268)" stroke-linecap="butt" stroke="white">
      <path d="M283.7127 -202.0938 L852.6938 -202.0938 L852.6938 -8.9525 L283.7127 -8.9525 Z" clip-path="url(#clipPath2)" stroke="none"/>
      <path fill="none" d="M283.7127 -202.0938 L852.6938 -202.0938 L852.6938 -8.9525 L283.7127 -8.9525 Z" clip-path="url(#clipPath2)" stroke="rgb(90,90,90)"/>
    </g>
    <g font-size="16" stroke-linecap="butt" transform="matrix(1,0,0,1,369,268)" fill="rgb(90,90,90)" font-family="'Courier New'" stroke="rgb(90,90,90)" font-weight="bold" stroke-miterlimit="1.45">
      <text x="316.642" xml:space="preserve" y="-182.7735" clip-path="url(#clipPath2)" stroke="none">/* Get current packet analyzer */</text>
      <text x="316.642" xml:space="preserve" y="-164.6485" clip-path="url(#clipPath2)" stroke="none">AtPktAnalyzer CurrentAnalyzerGet()</text>
      <text x="316.642" xml:space="preserve" y="-146.5235" clip-path="url(#clipPath2)" stroke="none"> </text>
      <text x="316.642" xml:space="preserve" y="-128.3985" clip-path="url(#clipPath2)" stroke="none">/* Packet analyzer factory */</text>
      <text x="316.642" xml:space="preserve" y="-110.2735" clip-path="url(#clipPath2)" stroke="none">AtPktAnalyzer EthPortPktAnalyzerCreate(</text>
      <text x="316.642" xml:space="preserve" y="-92.1485" clip-path="url(#clipPath2)" stroke="none">    AtEthPort port)</text>
      <text x="316.642" xml:space="preserve" y="-74.0235" clip-path="url(#clipPath2)" stroke="none">AtPktAnalyzer EthFlowPktAnalyzerCreate(</text>
      <text x="316.642" xml:space="preserve" y="-55.8985" clip-path="url(#clipPath2)" stroke="none">    AtEthFlow flow)</text>
      <text x="316.642" xml:space="preserve" y="-37.7735" clip-path="url(#clipPath2)" stroke="none">AtPktAnalyzer PppLinkPktAnalyzerCreate(</text>
      <text x="316.642" xml:space="preserve" y="-19.6485" clip-path="url(#clipPath2)" stroke="none">    AtPppLink link)</text>
    </g>
    <g transform="matrix(1,0,0,1,309.1327,124.4424)" image-rendering="optimizeQuality">
      <image x="0" y="0" clip-path="url(#clipPath5)" width="266" xlink:href="data:image/png;base64,iVBORw0KGgoAAAANSUhEUgAAAQoAAABHCAYAAAD/egnPAAAB2ElEQVR42u3a226C&#13;&#10;QBRAUVA0vfz/t6oIUkjOJBOjBbU+DF0rOYFSw4PJ7AylVQUAAAAAUID6TZ8FyjD8&#13;&#10;1eKvrwZYVySGbJ4KxfT7zTjbOG7EAlYTiWkuV3MzFs3CSOxiGrGAVUWiG+ccx+GV&#13;&#10;UEyB+BjnM4uFUEDZUiTacQ7ZtZuxaGZulofiO467uA6Uu6PoYydxyH7u4vj0o8c+&#13;&#10;IvEV50IB5YfiFOdtrPO7TwpzO4oUiyZ2EvuYre8aig5FdxWJzSuhSLFIwUg7DKGA&#13;&#10;skMxVA+8yfQIAcwSCkAoAKEAhAIQCkAoAKEAhAJAKAChAIQCEApAKAChAIQCEAoA&#13;&#10;oQCEAhAKQCgAoQCEAhAKQCgAhAIQCkAoAKEAhAIQCkAoAKEAEApAKAChAIQCEApA&#13;&#10;KAChAIQCQCgAoQDerXngs8PVAGV6eB03C296ieljgLJD0Wdr+jIXjWbBDaebdOOc&#13;&#10;x2nj+tZ3DcWHoo21PRuLZkEk+ojEMa5N5/62AWVLoTjGmu5fDUUeiTZ2E0IBZe8o&#13;&#10;0pPCtKZPcX53VzH36JFCUcWNjhGJ2ncNq3j8SE8MKRQ3zS34OsKwyQJRCwWsIhT5&#13;&#10;i4pL9cubkCULvr5zBMqPRVX5lwcAAAAAAODf+AHvUHsh28lYvgAAAABJRU5ErkJg&#13;&#10;gg==" height="71" preserveAspectRatio="none"/>
    </g>
    <g fill="white" stroke-width="2" stroke-miterlimit="1.45" transform="matrix(1,0,0,1,369,268)" stroke-linecap="butt" stroke="white">
      <path d="M-51.8673 -135.5576 L194.0701 -135.5576 L194.0701 -85.5231 L-51.8673 -85.5231 Z" clip-path="url(#clipPath2)" stroke="none"/>
      <path fill="none" d="M-51.8673 -135.5576 L194.0701 -135.5576 L194.0701 -85.5231 L-51.8673 -85.5231 Z" clip-path="url(#clipPath2)" stroke="rgb(153,51,204)"/>
    </g>
    <g font-size="20" stroke-linecap="butt" transform="matrix(1,0,0,1,369,268)" fill="rgb(153,51,204)" font-family="'Courier New'" stroke="rgb(153,51,204)" font-weight="bold" stroke-miterlimit="1.45">
      <text x="-6.9113" xml:space="preserve" y="-105.2181" clip-path="url(#clipPath2)" stroke="none">AtPktAnalyzer</text>
    </g>
    <g transform="matrix(1,0,0,1,309.1327,174.4769)" image-rendering="optimizeQuality">
      <image x="0" y="0" clip-path="url(#clipPath6)" width="266" xlink:href="data:image/png;base64,iVBORw0KGgoAAAANSUhEUgAAAQoAAABqCAYAAABESB8nAAACJklEQVR42u3ai2qD&#13;&#10;MBSAYa3p2OX9n7U3W6dwAqG007YbLPJ9cNC5zkEhP7Fb0wAAAAAAVKD9o9cCdRh+&#13;&#10;a/G3VwOsKxJDMU+FYvr+ZpwujhuxgNVEYprL1dyMRVoYiW1MEgtYVST6cU5xHF4J&#13;&#10;xRSI93E+ilgIBdQtR+I4zq64djMWaeZmZSi+4riN60C9O4pz7CR2xdd9HJ9+9HiL&#13;&#10;SHzGuVBA/aE4xPkx1vndJ4W5HUWORYqdxFtM572GqkPRX0Vi80oocixyMPIOQyig&#13;&#10;7lAMzQN/yfQIAcwSCkAoAKEAhAIQCkAoAKEAhAJAKAChAIQCEApAKAChAIQCEAoA&#13;&#10;oQCEAhAKQCgAoQCEAhAKQCgAhAIQCkAoAKEAhAIQCkAoAKEAEApAKAChAIQCEApA&#13;&#10;KAChAIQCQCgAoQCEAhAKQCgAoQCEAkAoAKEAhAIQCkAoAKEAhAIQCgChAIQCEApA&#13;&#10;KAChAIQCEApAKACEAhAKQCgAoQCEAhAKQCgAoQAQCkAoAKEAhAIQCkAogBVLD75+&#13;&#10;KAao08PrOC286WWcc3EE6g5FXs95hldCUUaiH+cY1zvvNVQdiryeT7G+f9xhpIWR&#13;&#10;mG64j+vTL/DZBtS/o5gicbiKxdOhyDdrIxhJKKD6UFyKXcUhzu8+gsw9euSb7aM4&#13;&#10;XUSi9V7DKnYVfWwGcihumlvwbYQhB0IkYD2hyDuL2Q81lyz6tpilPwP8/1CUwWga&#13;&#10;//YAAAAAAACs3jeYI3p06CcNDgAAAABJRU5ErkJggg==" height="106" preserveAspectRatio="none"/>
    </g>
    <g fill="white" stroke-width="2" stroke-miterlimit="1.45" transform="matrix(1,0,0,1,369,268)" stroke-linecap="butt" stroke="white">
      <path d="M-51.8673 -85.5231 L194.0701 -85.5231 L194.0701 -0.4253 L-51.8673 -0.4253 Z" clip-path="url(#clipPath2)" stroke="none"/>
      <path fill="none" d="M-51.8673 -85.5231 L194.0701 -85.5231 L194.0701 -0.4253 L-51.8673 -0.4253 Z" clip-path="url(#clipPath2)" stroke="rgb(90,90,90)"/>
    </g>
    <g font-size="16" stroke-linecap="butt" transform="matrix(1,0,0,1,369,268)" fill="rgb(90,90,90)" font-family="'Courier New'" stroke="rgb(90,90,90)" font-weight="bold" stroke-miterlimit="1.45">
      <text x="-36.4983" xml:space="preserve" y="-66.2028" clip-path="url(#clipPath2)" stroke="none">void AnalyzeRxPackets()</text>
      <text x="-36.4983" xml:space="preserve" y="-48.0778" clip-path="url(#clipPath2)" stroke="none">void AnalyzeTxPackets()</text>
      <text x="-36.4983" xml:space="preserve" y="-29.9528" clip-path="url(#clipPath2)" stroke="none">void Init()</text>
      <text x="-36.4983" xml:space="preserve" y="-11.8278" clip-path="url(#clipPath2)" stroke="none">void Recapture()</text>
    </g>
    <g transform="matrix(1.4805,0,0,1.4805,238.0948,316.1114)" image-rendering="optimizeQuality">
      <image x="0" y="0" clip-path="url(#clipPath7)" width="276" xlink:href="data:image/png;base64,iVBORw0KGgoAAAANSUhEUgAAARQAAAA2CAYAAAAGY2bwAAAB0ElEQVR42u3d0W7a&#13;&#10;MBSA4TjJuml7/2fdKBAWS8fCijKRpLtone+TjoAq5QIpv2y4cNcBAAAAAADw9aQd&#13;&#10;16Wd/wO04RHTVY+HgpKq6WOSqMCpQpJnWjyuGjcEpY/r8gxVVIBzBOUec4u//zMq&#13;&#10;44bVSb7mbZ7v83yL173PGk4RlBKSy8qqZfcKpY9VSQ7Kz3l+RFQGqxQ4xeqkxKSv&#13;&#10;tjzTkS1Pvd15i5j8iuejoEDzQcnhuMYCIj9/71585bHnO5Sy7SlbH0GB9rc7fcRk&#13;&#10;3LIzGTe8caq2PkP3/IJWUKDtoKSVmHw4KMu4pM5Px3AGu+9zv9YA/42gAIICCAog&#13;&#10;KACCAggKICiAoAAICiAogKAACAogKICgAIICICiAoACCAiAogKAAggIICoCgAIIC&#13;&#10;CArAiq1HkZaT2MvkQ5QdRQrtKoell3v+EfOhoDwWEbnNc+2eBykD7QZlivv9Fvf/&#13;&#10;y6hsDUp+w/d5/nTP09gFBc4RlEs83qvVyu6glBqVmPyO1/n54POG5k3VrqRE5XBQ&#13;&#10;umqrc4k3uUZMeisUaH6FstyhXKutz6pXUUgRjyHi04sJnDIq92qmo0Ep16QqJGIC&#13;&#10;54vKcg4H5ci1QHthAQAAAADgM/kLuIZ5PEu2casAAAAASUVORK5CYII=" height="54" preserveAspectRatio="none"/>
    </g>
    <g fill="white" stroke-width="2" stroke-miterlimit="1.45" transform="matrix(1,0,0,1,369,268)" stroke-linecap="butt" stroke="white">
      <path d="M-118.1005 60.9161 L260.3033 60.9161 L260.3033 110.9505 L-118.1005 110.9505 Z" clip-path="url(#clipPath2)" stroke="none"/>
      <path fill="none" d="M-118.1005 60.9161 L260.3033 60.9161 L260.3033 110.9505 L-118.1005 110.9505 Z" clip-path="url(#clipPath2)" stroke="rgb(153,51,204)"/>
    </g>
    <g font-size="20" stroke-linecap="butt" transform="matrix(1,0,0,1,369,268)" fill="rgb(153,51,204)" font-family="'Courier New'" stroke="rgb(153,51,204)" font-weight="bold" stroke-miterlimit="1.45">
      <text x="23.0936" xml:space="preserve" y="91.2556" clip-path="url(#clipPath2)" stroke="none">AtPacket</text>
    </g>
    <g transform="matrix(1.4844,0,0,1.4844,238.0557,366.1068)" image-rendering="optimizeQuality">
      <image x="0" y="0" clip-path="url(#clipPath8)" width="276" xlink:href="data:image/png;base64,iVBORw0KGgoAAAANSUhEUgAAARQAAACOCAYAAADw+vfoAAACmUlEQVR42u3ZgYqb&#13;&#10;QBRAUUdtd2n//1vbRBNX4Q0dAo2ahIWM58Aj7mISEOYymqYBAAAAAADg/aQd56Wd&#13;&#10;7wHe31S8Ts8GJRXTxiRRgUOF5FrM3aj0G4LSxnnLdEVUgPqjcokZi+PpkaDknchy&#13;&#10;zs95Pub5EX+3rjVUH5NrhGSY5zTPeW2XsrZDaWNXsgTl1zyfEZXOLgUOsTtZIvLn&#13;&#10;Zrfy3+cpazuUttihLDH5Hce9oEDV8u6kj3iMEZe7637PM5R825NvfQQF6g7KEMdD&#13;&#10;s/H5ab/hg1Nx69M1/x7QCgrUHZSpWPebfozpd35JuhmgTg+tc7/WAC8jKICgAIIC&#13;&#10;CAqAoACCAggKICgAggIICiAoAIICCAogKICgAAgKICiAoAAICiAogKAAggIgKICg&#13;&#10;AIICICiAoACCAggKgKAAggIICoCgAIICCAogKACCAggKICgAggIICiAogKAACAog&#13;&#10;KICgAAgKICiAoACCAiAogKAAggIIiksACAogKICgAAgKICiAoACCAiAogKAAggIg&#13;&#10;KICgAIICCAqAoACCAggKgKAAggIICiAoAIICCAogKACCAggKICiAoAAICiAogKAA&#13;&#10;CAogKICgAIICICiAoACCAiAogKAAggIICoCgAIICCAqAoACCAggKICgAggIICiAo&#13;&#10;gKAACAogKICgAAgKICiAoAAH1m88b4q5FpNcPqhWudbz+n9JUHJILvOMMY2gQPVB&#13;&#10;GWPdX4qwPBWUqQjJuTi/d72halOs+9M8w9ao9Bt3JssH/o3/L8ed6w3VB6Vc+zkq&#13;&#10;Dwel3PacbmLSuuWB6oOS1/8QDRjXdilrUUgRkC7iIyZwnKCUdymXVwQln9PevALH&#13;&#10;iEpTRGT1GcqeOKQH3we8d1CaZuPPxgAAAAAAfKMvZ/Bz4a3PZMoAAAAASUVORK5C&#13;&#10;YII=" height="142" preserveAspectRatio="none"/>
    </g>
    <g fill="white" stroke-width="2" stroke-miterlimit="1.45" transform="matrix(1,0,0,1,369,268)" stroke-linecap="butt" stroke="white">
      <path d="M-118.1005 110.9505 L260.3033 110.9505 L260.3033 291.9852 L-118.1005 291.9852 Z" clip-path="url(#clipPath2)" stroke="none"/>
      <path fill="none" d="M-118.1005 110.9505 L260.3033 110.9505 L260.3033 291.9852 L-118.1005 291.9852 Z" clip-path="url(#clipPath2)" stroke="rgb(90,90,90)"/>
    </g>
    <g font-size="16" stroke-linecap="butt" transform="matrix(1,0,0,1,369,268)" fill="rgb(90,90,90)" font-family="'Courier New'" stroke="rgb(90,90,90)" font-weight="bold" stroke-miterlimit="1.45">
      <text x="-95.5308" xml:space="preserve" y="130.2708" clip-path="url(#clipPath2)" stroke="none">/* Access data buffer */</text>
      <text x="-95.5308" xml:space="preserve" y="148.3958" clip-path="url(#clipPath2)" stroke="none">uint8 *DataBuffer(</text>
      <text x="-95.5308" xml:space="preserve" y="166.5208" clip-path="url(#clipPath2)" stroke="none">    uint32 *numBytesInBuffer);</text>
      <text x="-95.5308" xml:space="preserve" y="184.6458" clip-path="url(#clipPath2)" stroke="none">uint32 LengthGet()</text>
      <text x="-95.5308" xml:space="preserve" y="202.7708" clip-path="url(#clipPath2)" stroke="none">eAtPacketCacheMode DataCacheModeGet()</text>
      <text x="-95.5308" xml:space="preserve" y="220.8958" clip-path="url(#clipPath2)" stroke="none"> </text>
      <text x="-95.5308" xml:space="preserve" y="239.0208" clip-path="url(#clipPath2)" stroke="none">/* Analyze packet */</text>
      <text x="-95.5308" xml:space="preserve" y="257.1458" clip-path="url(#clipPath2)" stroke="none">void Display()</text>
      <text x="-95.5308" xml:space="preserve" y="275.2708" clip-path="url(#clipPath2)" stroke="none">void DisplayAtLevel(level)</text>
    </g>
    <g transform="matrix(1,0,0,1,7.7263,427.9941)" image-rendering="optimizeQuality">
      <image x="0" y="0" clip-path="url(#clipPath9)" width="204" xlink:href="data:image/png;base64,iVBORw0KGgoAAAANSUhEUgAAAMwAAABHCAYAAABLVajpAAABs0lEQVR42u3Z22rC&#13;&#10;QBRA0USj9PL/36rGXJrAGRiCNlHbB4e14BCbig8ymxm1qgAAAIAi1f/0XHg3419F&#13;&#10;UC8GSo1lzOapYOb/76bZx3UnGgqMZZ5hMTejaTbGcohpREOhsXTTXOM6vhLMHMrH&#13;&#10;NJ9ZNIKhFCmWdppTdu9mNM3Ki+XBfMf1EPehhB2mj53llP3dxfXpI9kxYvmKx4Kh&#13;&#10;pGAu8biN9X73BLW2w6RomthZjjF77zWFBNMtYtm9EkyKJoWTdhzBUNKH/s3fADta&#13;&#10;wQMEA4IBwYBgQDAgGEAwIBgQDAgGBAOCAQQDggHBgGBAMCAYQDAgGBAMCAYEA4IB&#13;&#10;BAOCAcGAYEAwIBhAMCAYEAwIBgQDggEEA4IBwYBgQDAgGKB54LnjYuDdPbyem40v&#13;&#10;OsT0MVBKMH22toe1eJqNsXTTXKdp4/7ee01BwbSxxlejaTbE0kcs57h39dmHgqRg&#13;&#10;zrG2+1eDyWNpY3cRDKXsMOkENa/tSzy+u8usHclSMFW80Dliqb3XFHYsSyepFMxN&#13;&#10;awu/jkB2WSi1YCgsmPyLraH65ZuzLQu/vnOFkqKpKj+ZAAAAAMAGP8vzeyERKz78&#13;&#10;AAAAAElFTkSuQmCC" height="71" preserveAspectRatio="none"/>
    </g>
    <g fill="white" stroke-width="2" stroke-miterlimit="1.45" transform="matrix(1,0,0,1,369,268)" stroke-linecap="butt" stroke="white">
      <path d="M-353.2737 167.994 L-169.3363 167.994 L-169.3363 218.0285 L-353.2737 218.0285 Z" clip-path="url(#clipPath2)" stroke="none"/>
      <path fill="none" d="M-353.2737 167.994 L-169.3363 167.994 L-169.3363 218.0285 L-353.2737 218.0285 Z" clip-path="url(#clipPath2)" stroke="rgb(153,51,204)"/>
    </g>
    <g font-size="20" stroke-linecap="butt" transform="matrix(1,0,0,1,369,268)" fill="rgb(153,51,204)" font-family="'Courier New'" stroke="rgb(153,51,204)" font-weight="bold" stroke-miterlimit="1.45">
      <text x="-327.3157" xml:space="preserve" y="198.3336" clip-path="url(#clipPath2)" stroke="none">AtEthPacket</text>
    </g>
    <g transform="matrix(1,0,0,1,672.5392,450.985)" image-rendering="optimizeQuality">
      <image x="0" y="0" clip-path="url(#clipPath10)" width="204" xlink:href="data:image/png;base64,iVBORw0KGgoAAAANSUhEUgAAAMwAAABHCAYAAABLVajpAAABs0lEQVR42u3Z22rC&#13;&#10;QBRA0USj9PL/36rGXJrAGRiCNlHbB4e14BCbig8ymxm1qgAAAIAi1f/0XHg3419F&#13;&#10;UC8GSo1lzOapYOb/76bZx3UnGgqMZZ5hMTejaTbGcohpREOhsXTTXOM6vhLMHMrH&#13;&#10;NJ9ZNIKhFCmWdppTdu9mNM3Ki+XBfMf1EPehhB2mj53llP3dxfXpI9kxYvmKx4Kh&#13;&#10;pGAu8biN9X73BLW2w6RomthZjjF77zWFBNMtYtm9EkyKJoWTdhzBUNKH/s3fADta&#13;&#10;wQMEA4IBwYBgQDAgGEAwIBgQDAgGBAOCAQQDggHBgGBAMCAYQDAgGBAMCAYEA4IB&#13;&#10;BAOCAcGAYEAwIBhAMCAYEAwIBgQDggEEA4IBwYBgQDAgGKB54LnjYuDdPbyem40v&#13;&#10;OsT0MVBKMH22toe1eJqNsXTTXKdp4/7ee01BwbSxxlejaTbE0kcs57h39dmHgqRg&#13;&#10;zrG2+1eDyWNpY3cRDKXsMOkENa/tSzy+u8usHclSMFW80Dliqb3XFHYsSyepFMxN&#13;&#10;awu/jkB2WSi1YCgsmPyLraH65ZuzLQu/vnOFkqKpKj+ZAAAAAMAGP8vzeyERKz78&#13;&#10;AAAAAElFTkSuQmCC" height="71" preserveAspectRatio="none"/>
    </g>
    <g fill="white" stroke-width="2" stroke-miterlimit="1.45" transform="matrix(1,0,0,1,369,268)" stroke-linecap="butt" stroke="white">
      <path d="M311.5392 190.985 L495.4765 190.985 L495.4765 241.0195 L311.5392 241.0195 Z" clip-path="url(#clipPath2)" stroke="none"/>
      <path fill="none" d="M311.5392 190.985 L495.4765 190.985 L495.4765 241.0195 L311.5392 241.0195 Z" clip-path="url(#clipPath2)" stroke="rgb(153,51,204)"/>
    </g>
    <g font-size="20" stroke-linecap="butt" transform="matrix(1,0,0,1,369,268)" fill="rgb(153,51,204)" font-family="'Courier New'" stroke="rgb(153,51,204)" font-weight="bold" stroke-miterlimit="1.45">
      <text x="331.4961" xml:space="preserve" y="221.3245" clip-path="url(#clipPath2)" stroke="none">AtHdlcPacket</text>
    </g>
    <g transform="matrix(1,0,0,1,219.0363,597.0754)" image-rendering="optimizeQuality">
      <image x="0" y="0" clip-path="url(#clipPath11)" width="204" xlink:href="data:image/png;base64,iVBORw0KGgoAAAANSUhEUgAAAMwAAABHCAYAAABLVajpAAABs0lEQVR42u3Z22rC&#13;&#10;QBRA0USj9PL/36rGXJrAGRiCNlHbB4e14BCbig8ymxm1qgAAAIAi1f/0XHg3419F&#13;&#10;UC8GSo1lzOapYOb/76bZx3UnGgqMZZ5hMTejaTbGcohpREOhsXTTXOM6vhLMHMrH&#13;&#10;NJ9ZNIKhFCmWdppTdu9mNM3Ki+XBfMf1EPehhB2mj53llP3dxfXpI9kxYvmKx4Kh&#13;&#10;pGAu8biN9X73BLW2w6RomthZjjF77zWFBNMtYtm9EkyKJoWTdhzBUNKH/s3fADta&#13;&#10;wQMEA4IBwYBgQDAgGEAwIBgQDAgGBAOCAQQDggHBgGBAMCAYQDAgGBAMCAYEA4IB&#13;&#10;BAOCAcGAYEAwIBhAMCAYEAwIBgQDggEEA4IBwYBgQDAgGKB54LnjYuDdPbyem40v&#13;&#10;OsT0MVBKMH22toe1eJqNsXTTXKdp4/7ee01BwbSxxlejaTbE0kcs57h39dmHgqRg&#13;&#10;zrG2+1eDyWNpY3cRDKXsMOkENa/tSzy+u8usHclSMFW80Dliqb3XFHYsSyepFMxN&#13;&#10;awu/jkB2WSi1YCgsmPyLraH65ZuzLQu/vnOFkqKpKj+ZAAAAAMAGP8vzeyERKz78&#13;&#10;AAAAAElFTkSuQmCC" height="71" preserveAspectRatio="none"/>
    </g>
    <g fill="white" stroke-width="2" stroke-miterlimit="1.45" transform="matrix(1,0,0,1,369,268)" stroke-linecap="butt" stroke="white">
      <path d="M-141.9637 337.0754 L41.9736 337.0754 L41.9736 387.1099 L-141.9637 387.1099 Z" clip-path="url(#clipPath2)" stroke="none"/>
      <path fill="none" d="M-141.9637 337.0754 L41.9736 337.0754 L41.9736 387.1099 L-141.9637 387.1099 Z" clip-path="url(#clipPath2)" stroke="rgb(153,51,204)"/>
    </g>
    <g font-size="20" stroke-linecap="butt" transform="matrix(1,0,0,1,369,268)" fill="rgb(153,51,204)" font-family="'Courier New'" stroke="rgb(153,51,204)" font-weight="bold" stroke-miterlimit="1.45">
      <text x="-122.0068" xml:space="preserve" y="367.4149" clip-path="url(#clipPath2)" stroke="none">AtIpV4Packet</text>
    </g>
    <g transform="matrix(1,0,0,1,445.2504,597.0754)" image-rendering="optimizeQuality">
      <image x="0" y="0" clip-path="url(#clipPath12)" width="204" xlink:href="data:image/png;base64,iVBORw0KGgoAAAANSUhEUgAAAMwAAABHCAYAAABLVajpAAABs0lEQVR42u3Z22rC&#13;&#10;QBRA0USj9PL/36rGXJrAGRiCNlHbB4e14BCbig8ymxm1qgAAAIAi1f/0XHg3419F&#13;&#10;UC8GSo1lzOapYOb/76bZx3UnGgqMZZ5hMTejaTbGcohpREOhsXTTXOM6vhLMHMrH&#13;&#10;NJ9ZNIKhFCmWdppTdu9mNM3Ki+XBfMf1EPehhB2mj53llP3dxfXpI9kxYvmKx4Kh&#13;&#10;pGAu8biN9X73BLW2w6RomthZjjF77zWFBNMtYtm9EkyKJoWTdhzBUNKH/s3fADta&#13;&#10;wQMEA4IBwYBgQDAgGEAwIBgQDAgGBAOCAQQDggHBgGBAMCAYQDAgGBAMCAYEA4IB&#13;&#10;BAOCAcGAYEAwIBhAMCAYEAwIBgQDggEEA4IBwYBgQDAgGKB54LnjYuDdPbyem40v&#13;&#10;OsT0MVBKMH22toe1eJqNsXTTXKdp4/7ee01BwbSxxlejaTbE0kcs57h39dmHgqRg&#13;&#10;zrG2+1eDyWNpY3cRDKXsMOkENa/tSzy+u8usHclSMFW80Dliqb3XFHYsSyepFMxN&#13;&#10;awu/jkB2WSi1YCgsmPyLraH65ZuzLQu/vnOFkqKpKj+ZAAAAAMAGP8vzeyERKz78&#13;&#10;AAAAAElFTkSuQmCC" height="71" preserveAspectRatio="none"/>
    </g>
    <g fill="white" stroke-width="2" stroke-miterlimit="1.45" transform="matrix(1,0,0,1,369,268)" stroke-linecap="butt" stroke="white">
      <path d="M84.2504 337.0754 L268.1877 337.0754 L268.1877 387.1099 L84.2504 387.1099 Z" clip-path="url(#clipPath2)" stroke="none"/>
      <path fill="none" d="M84.2504 337.0754 L268.1877 337.0754 L268.1877 387.1099 L84.2504 387.1099 Z" clip-path="url(#clipPath2)" stroke="rgb(153,51,204)"/>
    </g>
    <g font-size="20" stroke-linecap="butt" transform="matrix(1,0,0,1,369,268)" fill="rgb(153,51,204)" font-family="'Courier New'" stroke="rgb(153,51,204)" font-weight="bold" stroke-miterlimit="1.45">
      <text x="104.2074" xml:space="preserve" y="367.4149" clip-path="url(#clipPath2)" stroke="none">AtIpV6Packet</text>
    </g>
    <g transform="matrix(1,0,0,1,672.5392,380.892)" image-rendering="optimizeQuality">
      <image x="0" y="0" clip-path="url(#clipPath13)" width="204" xlink:href="data:image/png;base64,iVBORw0KGgoAAAANSUhEUgAAAMwAAABHCAYAAABLVajpAAABs0lEQVR42u3Z22rC&#13;&#10;QBRA0USj9PL/36rGXJrAGRiCNlHbB4e14BCbig8ymxm1qgAAAIAi1f/0XHg3419F&#13;&#10;UC8GSo1lzOapYOb/76bZx3UnGgqMZZ5hMTejaTbGcohpREOhsXTTXOM6vhLMHMrH&#13;&#10;NJ9ZNIKhFCmWdppTdu9mNM3Ki+XBfMf1EPehhB2mj53llP3dxfXpI9kxYvmKx4Kh&#13;&#10;pGAu8biN9X73BLW2w6RomthZjjF77zWFBNMtYtm9EkyKJoWTdhzBUNKH/s3fADta&#13;&#10;wQMEA4IBwYBgQDAgGEAwIBgQDAgGBAOCAQQDggHBgGBAMCAYQDAgGBAMCAYEA4IB&#13;&#10;BAOCAcGAYEAwIBhAMCAYEAwIBgQDggEEA4IBwYBgQDAgGKB54LnjYuDdPbyem40v&#13;&#10;OsT0MVBKMH22toe1eJqNsXTTXKdp4/7ee01BwbSxxlejaTbE0kcs57h39dmHgqRg&#13;&#10;zrG2+1eDyWNpY3cRDKXsMOkENa/tSzy+u8usHclSMFW80Dliqb3XFHYsSyepFMxN&#13;&#10;awu/jkB2WSi1YCgsmPyLraH65ZuzLQu/vnOFkqKpKj+ZAAAAAMAGP8vzeyERKz78&#13;&#10;AAAAAElFTkSuQmCC" height="71" preserveAspectRatio="none"/>
    </g>
    <g fill="white" stroke-width="2" stroke-miterlimit="1.45" transform="matrix(1,0,0,1,369,268)" stroke-linecap="butt" stroke="white">
      <path d="M311.5392 120.892 L495.4765 120.892 L495.4765 170.9264 L311.5392 170.9264 Z" clip-path="url(#clipPath2)" stroke="none"/>
      <path fill="none" d="M311.5392 120.892 L495.4765 120.892 L495.4765 170.9264 L311.5392 170.9264 Z" clip-path="url(#clipPath2)" stroke="rgb(153,51,204)"/>
    </g>
    <g font-size="20" stroke-linecap="butt" transform="matrix(1,0,0,1,369,268)" fill="rgb(153,51,204)" font-family="'Courier New'" stroke="rgb(153,51,204)" font-weight="bold" stroke-miterlimit="1.45">
      <text x="337.4971" xml:space="preserve" y="151.2315" clip-path="url(#clipPath2)" stroke="none">AtLcpPacket</text>
    </g>
    <g stroke-linecap="butt" transform="matrix(1,0,0,1,369,268)" stroke-miterlimit="1.45">
      <path fill="none" d="M283.7379 -105.5231 L202.0457 -105.5231" clip-path="url(#clipPath2)"/>
    </g>
    <g stroke-linecap="butt" transform="matrix(1,0,0,1,369,268)" stroke-miterlimit="1.45">
      <path d="M194.0457 -105.5231 L206.0457 -100.5231 L203.0457 -105.5231 L206.0457 -110.5231 Z" clip-path="url(#clipPath2)" stroke="none"/>
      <rect x="220.2156" y="-114.8737" clip-path="url(#clipPath2)" fill="white" width="37.3516" height="18.7012" stroke="none"/>
      <text x="222.2156" xml:space="preserve" y="-100.8093" font-family="sans-serif" clip-path="url(#clipPath2)" stroke="none">create</text>
      <path fill="none" d="M71.1014 -0.4288 L71.1014 52.8818" clip-path="url(#clipPath2)"/>
      <path d="M71.1014 60.8818 L76.1014 48.8818 L71.1014 51.8818 L66.1014 48.8818 Z" clip-path="url(#clipPath2)" stroke="none"/>
      <text x="25.4237" xml:space="preserve" y="29.9592" font-family="sans-serif" clip-path="url(#clipPath2)" stroke="none">packets</text>
      <path fill="none" d="M-169.317 193.0113 L-133.1049 193.0113" clip-path="url(#clipPath2)"/>
      <path fill="white" d="M-118.1049 193.0113 L-134.1049 187.0113 L-134.1049 199.0113 Z" clip-path="url(#clipPath2)" stroke="none"/>
      <path fill="none" d="M-118.1049 193.0113 L-134.1049 187.0113 L-134.1049 199.0113 Z" clip-path="url(#clipPath2)"/>
      <path fill="none" d="M311.5199 216.0022 L275.3077 216.0022" clip-path="url(#clipPath2)"/>
      <path fill="white" d="M260.3077 216.0022 L276.3077 222.0022 L276.3077 210.0022 Z" clip-path="url(#clipPath2)" stroke="none"/>
      <path fill="none" d="M260.3077 216.0022 L276.3077 222.0022 L276.3077 210.0022 Z" clip-path="url(#clipPath2)"/>
      <path fill="none" d="M-49.995 337.0425 L-49.995 306.9806" clip-path="url(#clipPath2)"/>
      <path fill="white" d="M-49.995 291.9806 L-55.995 307.9806 L-43.995 307.9806 Z" clip-path="url(#clipPath2)" stroke="none"/>
      <path fill="none" d="M-49.995 291.9806 L-55.995 307.9806 L-43.995 307.9806 Z" clip-path="url(#clipPath2)"/>
      <path fill="none" d="M176.2191 337.0505 L176.2191 307.0273" clip-path="url(#clipPath2)"/>
      <path fill="white" d="M176.2191 292.0273 L170.2191 308.0273 L182.2191 308.0273 Z" clip-path="url(#clipPath2)" stroke="none"/>
      <path fill="none" d="M176.2191 292.0273 L170.2191 308.0273 L182.2191 308.0273 Z" clip-path="url(#clipPath2)"/>
      <path fill="none" d="M311.5199 145.9092 L275.3077 145.9092" clip-path="url(#clipPath2)"/>
      <path fill="white" d="M260.3077 145.9092 L276.3077 151.9092 L276.3077 139.9092 Z" clip-path="url(#clipPath2)" stroke="none"/>
      <path fill="none" d="M260.3077 145.9092 L276.3077 151.9092 L276.3077 139.9092 Z" clip-path="url(#clipPath2)"/>
    </g>
  </g>
</svg>
