<?xml version="1.0" encoding="UTF-8"?>
<svg xmlns="http://www.w3.org/2000/svg" xmlns:xlink="http://www.w3.org/1999/xlink" fill-opacity="1" color-rendering="auto" color-interpolation="auto" stroke="black" text-rendering="auto" stroke-linecap="square" width="1568" stroke-miterlimit="10" stroke-opacity="1" shape-rendering="auto" fill="black" stroke-dasharray="none" font-weight="normal" stroke-width="1" height="1460" font-family="'Dialog'" font-style="normal" stroke-linejoin="miter" font-size="12" stroke-dashoffset="0" image-rendering="auto">
  <!--Generated by ySVG-->
  <defs id="genericDefs"/>
  <g>
    <defs id="defs1">
      <clipPath clipPathUnits="userSpaceOnUse" id="clipPath1">
        <path d="M0 0 L1568 0 L1568 1460 L0 1460 L0 0 Z"/>
      </clipPath>
      <clipPath clipPathUnits="userSpaceOnUse" id="clipPath2">
        <path d="M-50 -265 L1518 -265 L1518 1195 L-50 1195 L-50 -265 Z"/>
      </clipPath>
      <clipPath clipPathUnits="userSpaceOnUse" id="clipPath3">
        <path d="M-353.3019 -319.3844 L630.5413 -319.3844 L630.5413 596.694 L-353.3019 596.694 L-353.3019 -319.3844 Z"/>
      </clipPath>
      <clipPath clipPathUnits="userSpaceOnUse" id="clipPath4">
        <path d="M-353.3019 -343.4785 L630.5413 -343.4785 L630.5413 572.5999 L-353.3019 572.5999 L-353.3019 -343.4785 Z"/>
      </clipPath>
      <clipPath clipPathUnits="userSpaceOnUse" id="clipPath5">
        <path d="M-0.6315 -282.3907 L941.6408 -282.3907 L941.6408 594.9802 L-0.6315 594.9802 L-0.6315 -282.3907 Z"/>
      </clipPath>
      <clipPath clipPathUnits="userSpaceOnUse" id="clipPath6">
        <path d="M-0.6315 -305.4668 L941.6408 -305.4668 L941.6408 571.9041 L-0.6315 571.9041 L-0.6315 -305.4668 Z"/>
      </clipPath>
      <clipPath clipPathUnits="userSpaceOnUse" id="clipPath7">
        <path d="M1.067 -406.1233 L792.7988 -406.1233 L792.7988 331.0759 L1.067 331.0759 L1.067 -406.1233 Z"/>
      </clipPath>
      <clipPath clipPathUnits="userSpaceOnUse" id="clipPath8">
        <path d="M2.2581 -367.4443 L688.4256 -367.4443 L688.4256 271.4617 L2.2581 271.4617 L2.2581 -367.4443 Z"/>
      </clipPath>
      <clipPath clipPathUnits="userSpaceOnUse" id="clipPath9">
        <path d="M-451.5623 -610.5132 L729.0495 -610.5132 L729.0495 488.7809 L-451.5623 488.7809 L-451.5623 -610.5132 Z"/>
      </clipPath>
      <clipPath clipPathUnits="userSpaceOnUse" id="clipPath10">
        <path d="M-451.5623 -639.4262 L729.0495 -639.4262 L729.0495 459.868 L-451.5623 459.868 L-451.5623 -639.4262 Z"/>
      </clipPath>
      <clipPath clipPathUnits="userSpaceOnUse" id="clipPath11">
        <path d="M-29.8968 -2.7924 L1110.4668 -2.7924 L1110.4668 1059.0258 L-29.8968 1059.0258 L-29.8968 -2.7924 Z"/>
      </clipPath>
      <clipPath clipPathUnits="userSpaceOnUse" id="clipPath12">
        <path d="M-29.8968 -30.7197 L1110.4668 -30.7197 L1110.4668 1031.0985 L-29.8968 1031.0985 L-29.8968 -30.7197 Z"/>
      </clipPath>
      <clipPath clipPathUnits="userSpaceOnUse" id="clipPath13">
        <path d="M-353.3019 -1.4196 L630.5413 -1.4196 L630.5413 914.6588 L-353.3019 914.6588 L-353.3019 -1.4196 Z"/>
      </clipPath>
      <clipPath clipPathUnits="userSpaceOnUse" id="clipPath14">
        <path d="M-353.3019 -25.5137 L630.5413 -25.5137 L630.5413 890.5647 L-353.3019 890.5647 L-353.3019 -25.5137 Z"/>
      </clipPath>
      <clipPath clipPathUnits="userSpaceOnUse" id="clipPath15">
        <path d="M-552.4079 0.1705 L294.4445 0.1705 L294.4445 788.6937 L-552.4079 788.6937 L-552.4079 0.1705 Z"/>
      </clipPath>
      <clipPath clipPathUnits="userSpaceOnUse" id="clipPath16">
        <path d="M-552.4079 -20.5688 L294.4445 -20.5688 L294.4445 767.9544 L-552.4079 767.9544 L-552.4079 -20.5688 Z"/>
      </clipPath>
      <clipPath clipPathUnits="userSpaceOnUse" id="clipPath17">
        <path d="M-203.7781 -24.3609 L118.1208 -24.3609 L118.1208 275.3665 L-203.7781 275.3665 L-203.7781 -24.3609 Z"/>
      </clipPath>
      <clipPath clipPathUnits="userSpaceOnUse" id="clipPath18">
        <path d="M-603.0124 -1169.7238 L964.9876 -1169.7238 L964.9876 290.2763 L-603.0124 290.2763 L-603.0124 -1169.7238 Z"/>
      </clipPath>
      <clipPath clipPathUnits="userSpaceOnUse" id="clipPath19">
        <path d="M-603.0124 -1218.1238 L964.9876 -1218.1238 L964.9876 241.8763 L-603.0124 241.8763 L-603.0124 -1218.1238 Z"/>
      </clipPath>
      <clipPath clipPathUnits="userSpaceOnUse" id="clipPath20">
        <path d="M-603.0124 -1266.5237 L964.9876 -1266.5237 L964.9876 193.4763 L-603.0124 193.4763 L-603.0124 -1266.5237 Z"/>
      </clipPath>
      <clipPath clipPathUnits="userSpaceOnUse" id="clipPath21">
        <path d="M-603.0124 -1319.3912 L964.9876 -1319.3912 L964.9876 140.6088 L-603.0124 140.6088 L-603.0124 -1319.3912 Z"/>
      </clipPath>
      <clipPath clipPathUnits="userSpaceOnUse" id="clipPath22">
        <path d="M-683.6374 -722.9883 L884.3626 -722.9883 L884.3626 737.0117 L-683.6374 737.0117 L-683.6374 -722.9883 Z"/>
      </clipPath>
      <clipPath clipPathUnits="userSpaceOnUse" id="clipPath23">
        <path d="M-364.2297 -408.1564 L1203.7703 -408.1564 L1203.7703 1051.8435 L-364.2297 1051.8435 L-364.2297 -408.1564 Z"/>
      </clipPath>
    </defs>
    <g transform="matrix(1.5938,0,0,1.5938,563.0749,509.0189)" image-rendering="optimizeQuality">
      <image x="0" y="0" clip-path="url(#clipPath3)" width="276" xlink:href="data:image/png;base64,iVBORw0KGgoAAAANSUhEUgAAARQAAAAsCAYAAACkLkcNAAACPElEQVR42u3dDW+a&#10;UBSAYa8f25r9///a1gK7R881rLGIbMsiPk9C0M6xpAlvDrhcNhsAAAAAAAAeT/lH&#10;nwXWZ/jjSJRS2ue2o8+LCzxRSEIGZZgKS5kRk23dx7arx9y2sNTXogLrn0ja1tWt&#10;r+d9NxWV/e0B5RSTfd0OsdUD7urPd37X8BT6jMlHPfff82fd4qDkhHKo+x91e6nb&#10;If+eCQXWP6FEPI51e8tzfsjIlGtRmROUuNSJ6eSl7n9GWOK9Sx5Yr7zd0edkEjHZ&#10;juLS5Z/dP6HEfZO8f3LImMSU8i3/AWCNo8n5JuwpKDlYdPVH0Yvd1NXJfsaxS943&#10;ic/u6+uIyfe8QQusczpplzslo7K7FZObQTlH6rfLn+3omx5BgXVOJ+O3/eh8L7eC&#10;IgrA1a5c2U/+HxRBAe6Jyk2CAvw1ggIICiAogKAACAogKICgAIICICiAoACCAiAo&#10;wCJ3r8ooKMBUTMqV7UuTCyzlyk2XfTqtiTB8WoUFWFFNShk+neuz1kPZzzx+W1+y&#10;LU7bb+5YIwF4SN295/ycoIxjEmtLvs8ZfYCHnU7GQfmo74/5gK8WlsVBucSkHjRC&#10;8ro5z0ARFvdfYL3a5U2c629x/ud5PzmpzAlKxOTYYlId40mCJhR4iqiMH/Q1fibP&#10;oicHniaUWqaIyCbHntd8rAawfv0oKi0oyx6WntdTpyX0Y58haQ9L96uGlRrdR4kv&#10;edq9k34UlGFRUPLgl++gPYIUnvLSZ7jyGgAAAACA/+kX/gzn9BwKFhoAAAAASUVO&#10;RK5CYII=" height="44" preserveAspectRatio="none"/>
    </g>
    <g fill="white" stroke-width="2" stroke-miterlimit="1.45" transform="matrix(1,0,0,1,50,265)" stroke-linecap="butt" stroke="white">
      <path d="M527.0124 257.9565 L934.1723 257.9565 L934.1723 296.3564 L527.0124 296.3564 Z" clip-path="url(#clipPath2)" stroke="none"/>
      <path fill="none" d="M527.0124 257.9565 L934.1723 257.9565 L934.1723 296.3564 L527.0124 296.3564 Z" clip-path="url(#clipPath2)" stroke="rgb(153,51,204)"/>
    </g>
    <g font-size="20" stroke-linecap="butt" transform="matrix(1,0,0,1,50,265)" fill="rgb(153,51,204)" font-family="'Courier New'" stroke="rgb(153,51,204)" font-weight="bold" stroke-miterlimit="1.45">
      <text x="640.5777" xml:space="preserve" y="282.4787" clip-path="url(#clipPath2)" stroke="none">AtSerdesManager</text>
    </g>
    <g transform="matrix(1.5938,0,0,1.5938,563.0749,547.4189)" image-rendering="optimizeQuality">
      <image x="0" y="0" clip-path="url(#clipPath4)" width="276" xlink:href="data:image/png;base64,iVBORw0KGgoAAAANSUhEUgAAARQAAABPCAYAAAAqTjr5AAACe0lEQVR42u3ai2rb&#10;QBBAUa9kNw39/3+tH5I664zDBhxJSdNC5HNgke06CgT2MpK62wEAAAAAAPD9lH/0&#10;XWB7pr+ORCnl9r2u+b64wAOFpMqgTHNhKSti0sWxrj7O2d3CEq9FBbY/kdzWEGuM&#10;fT/MRWW/PKBcY7KPdagrTtjH572/NTyEMWNyib1/ys+GTwclJ5RDHH/Geo51yJ8z&#10;ocD2J5Qaj3OsY+75KSNT7kVlTVDqpU6dTp7j+KuGpb53yQPblbc7xpxMaky6Ji5D&#10;/tvHJ5R63yTvnxwyJnVK+ZG/ANjiaPJyE/YalBwshvio9qKfuzrZrzh3yfsm9bv7&#10;eF1j8pQ3aIFtTie3y52SUemXYrIYlJdIvbn86ZonPYIC25xO2rdjs9/LUlBEAbjb&#10;lTvH2f+DIijAR6KySFCALyMogKAAggIICoCgAIICCAogKACCAggKICgAggIICiAo&#10;gKAACAogKICgAAgKICiAoACCAiAogKAAggIgKICgAIICCAqAoACCAggKgKAAggII&#10;CiAoAIICCAogKACCAggKICiAoAAICiAogKAACAowpwgK8JUxKXfWu/azZyzlzbEx&#10;Vf7msNGalFL399Ts9XZ9LihtQGKNuYY8Cgps29Ds91V7fk1QpiYk51yLow/w7Y3N&#10;nl81SCwF5TUmMQKdY/I5ljoLTdNFUGCzlzttUC7x/hjHU+77YS4qa4JyjUkcf9df&#10;FCetr/ty58YKsClTc2VyXDOprJpQMiLVJX+mM6HAQwTldruj7v3T0oSyGIUYRLoM&#10;SJ/Ha0w85IGHuOy5PeUZmri8+7SnrDz56zPoOLfJBB5vUtntVj46BgAAAADgP/kD&#10;VNXgSbJQ1FkAAAAASUVORK5CYII=" height="79" preserveAspectRatio="none"/>
    </g>
    <g fill="white" stroke-width="2" stroke-miterlimit="1.45" transform="matrix(1,0,0,1,50,265)" stroke-linecap="butt" stroke="white">
      <path d="M527.0124 296.3564 L934.1723 296.3564 L934.1723 390.561 L527.0124 390.561 Z" clip-path="url(#clipPath2)" stroke="none"/>
      <path fill="none" d="M527.0124 296.3564 L934.1723 296.3564 L934.1723 390.561 L527.0124 390.561 Z" clip-path="url(#clipPath2)" stroke="rgb(90,90,90)"/>
    </g>
    <g font-size="16" stroke-linecap="butt" transform="matrix(1,0,0,1,50,265)" fill="rgb(90,90,90)" font-family="'Courier New'" stroke="rgb(90,90,90)" font-weight="bold" stroke-miterlimit="1.45">
      <text x="551.1452" xml:space="preserve" y="315.6768" clip-path="url(#clipPath2)" stroke="none">uint32 NumSerdesControllers()</text>
      <text x="551.1452" xml:space="preserve" y="333.8018" clip-path="url(#clipPath2)" stroke="none">AtSerdesController SerdesControllerGet(</text>
      <text x="551.1452" xml:space="preserve" y="351.9268" clip-path="url(#clipPath2)" stroke="none">    uint32 serdesId)</text>
      <text x="551.1452" xml:space="preserve" y="370.0518" clip-path="url(#clipPath2)" stroke="none">AtDevice DeviceGet()</text>
    </g>
    <g transform="matrix(1.6641,0,0,1.6641,1.0508,469.9158)" image-rendering="optimizeQuality">
      <image x="0" y="0" clip-path="url(#clipPath5)" width="276" xlink:href="data:image/png;base64,iVBORw0KGgoAAAANSUhEUgAAARQAAAArCAYAAAC5K3e1AAACQElEQVR42u3djWqj&#10;QBSAUTUmtOz7v2vzpztT77BT2mhIloWdnAOihKwLgXxcTXG6DgAAAAAAgP9Pf9eb&#10;+v7L++d59snB69n84o9bIYmY9FkKSR9R6X228FIhmedlkpjXwjLeMZ0MZUvn26Vt&#10;EBR4nZhESKbUgGs6nPLxraiMG9NJNuyS9NI+nexQojJNk6hAo+LKpEwj17Rd0vf+&#10;nPdrU8q4fd4+TySHtH9LJ3zLx2nLgRl87NC0Mo3kiBzT9hEhmW5FZVyZc7q4b5In&#10;kn16KQflV9q/p/0oKND0dU4JSr7MOcUQUeJyufXvxo2T5qCUeyf5kidH5T2Odz52&#10;aPqS5xrxGCIs+zgeHgpKHZX83gjJITYTCrR/yTPEjdhxKyb3TCjLWZcbsCUsQ+xN&#10;KND2JU8fUdlVMVn9sxFTBnCzK93Xm6+bf4ciKMC9cdkkKMBfIyiAoACCAggKgKAA&#10;ggIICiAoAIICCAogKACCAjykX9l+dNcyGtW6PFn9SH2gxZIs3/mp+758xnPLaFQR&#10;+Xy+ZLUH2la+6+V7/9xCX3VM8poc3fIo/VO85olt0H5QytIZdVgeDkodkxySjxiF&#10;8n/i/gs0fMkTlzqXdHxKh8cIy7QWlc2gRExyQI6xrMY5phMLfUHbUfkcKNJ3Pkfl&#10;GFcnTy30NccTr09LS+ZL9+fp14ICDatuxpblNM7VlPJzhLbGnhyPfjnYlcmkWjQd&#10;aLgpsZ+qNY2vaxPKZhQiKt9+g/arMbxcWDZ/NgYAAAAA4B/6DaifJu4MEPJhAAAA&#10;AElFTkSuQmCC" height="43" preserveAspectRatio="none"/>
    </g>
    <g fill="white" stroke-width="2" stroke-miterlimit="1.45" transform="matrix(1,0,0,1,50,265)" stroke-linecap="butt" stroke="white">
      <path d="M-34.3086 219.5564 L391.1847 219.5564 L391.1847 257.9565 L-34.3086 257.9565 Z" clip-path="url(#clipPath2)" stroke="none"/>
      <path fill="none" d="M-34.3086 219.5564 L391.1847 219.5564 L391.1847 257.9565 L-34.3086 257.9565 Z" clip-path="url(#clipPath2)" stroke="rgb(153,51,204)"/>
    </g>
    <g font-size="20" stroke-linecap="butt" transform="matrix(1,0,0,1,50,265)" fill="rgb(153,51,204)" font-family="'Courier New'" stroke="rgb(153,51,204)" font-weight="bold" stroke-miterlimit="1.45">
      <text x="130.4303" xml:space="preserve" y="244.0787" clip-path="url(#clipPath2)" stroke="none">AtDevice</text>
    </g>
    <g transform="matrix(1.6641,0,0,1.6641,1.0508,508.3158)" image-rendering="optimizeQuality">
      <image x="0" y="0" clip-path="url(#clipPath6)" width="276" xlink:href="data:image/png;base64,iVBORw0KGgoAAAANSUhEUgAAARQAAACYCAYAAAAldRZuAAADH0lEQVR42u3a4Wqj&#10;QBSA0WhMadn3f9dNE3XvkOsyLcSRJn9qzoFBaVMLgh93JIcDAAAAAAAAv0+36UNd&#10;9+Xz8zy7c/B6mg/+0ApJxqQrIiRdRqVzb+GlQjLPt0liXgvLsGE66ZcV1zvG6gUF&#10;XicmGZIpGjDG6VTO70VlaEwnRX8M8aNTXOxtico0TaICO5U7k2UaGWNd47m/lOPa&#10;lDK0r9uVieQtju9xwfdyHqsEpnfbYdeWaaRE5Bzrb4ZkuheVYWXOOeR7kzKRnOJH&#10;JSh/4vgRx0FQYNf7nCUoZZvzmUPEEpfrvb8bGhctQVnenZQtT4nKR54f3XbY9ZZn&#10;zHj0GZZTnvc/CkodlfLZDMlbLhMK7H/L0+eL2KEVky0Tyu2qtxewS1j6PJpQYN9b&#10;ni6jcqxisvq1EVMGcLcrh68vX5vfQxEUYGtcmgQFeBpBAQQFEBRAUAAEBRAUQFAA&#10;QQEQFEBQAEEBEBRAUABBAQQFQFAAQQEEBUBQAEEBBAUQFABBAQQFEBQAQQEEBRAU&#10;QFAABAUQFEBQAAQFEBRAUABBARAUQFAAQQEQFEBQAEEBBAVAUABBAQQFQFAAQQEE&#10;BRAUAEEBBAUQFEBQ3AJAUABBAQQFQFAAQQEEBRAUAEEBBAUQFABBAQQFEBRAUAAE&#10;BRAUQFAABAUQFEBQAEEBEBRAUABBARAUQFAAQQEEBUBQAEEBBAVAUABBAQQFEBQA&#10;QQEEBRAUAEEBBAUQFEBQAAQFEBRAUAAEBRAUQFAAQQEQFEBQAEEBBAVAUABBAQQF&#10;QFAAQQEEBRAUAEEBBAUQFABBAQQFEBRAUAAeMqz9suu6/6syl1W4fbBP+cwvz/pz&#10;gvItIlOssToC+zZ+e+6bZdkSlDom11iX6p8B+zXlM3+tojI9EpQ6JiUk5zIN5bn3&#10;L7D/oJRn/zPXtTWpbApK7KEusaeqYzLkObBfc7UzOWdUxrUpZTUo+TZmjJhc4rQE&#10;ZIzjOacTQYE91+T2/NdRaU4pzShETPoMyDFXn3EBXmNKqV99jA8FpfrcMpWICbxm&#10;VOp1eCQoj/4N8PujAgAAAMAT/AO/4xK3NJYGvAAAAABJRU5ErkJggg==" height="152" preserveAspectRatio="none"/>
    </g>
    <g fill="white" stroke-width="2" stroke-miterlimit="1.45" transform="matrix(1,0,0,1,50,265)" stroke-linecap="butt" stroke="white">
      <path d="M-34.3086 257.9565 L391.1847 257.9565 L391.1847 478.1064 L-34.3086 478.1064 Z" clip-path="url(#clipPath2)" stroke="none"/>
      <path fill="none" d="M-34.3086 257.9565 L391.1847 257.9565 L391.1847 478.1064 L-34.3086 478.1064 Z" clip-path="url(#clipPath2)" stroke="rgb(90,90,90)"/>
    </g>
    <g font-size="16" stroke-linecap="butt" transform="matrix(1,0,0,1,50,265)" fill="rgb(90,90,90)" font-family="'Courier New'" stroke="rgb(90,90,90)" font-weight="bold" stroke-miterlimit="1.45">
      <text x="-9.1791" xml:space="preserve" y="277.2768" clip-path="url(#clipPath2)" stroke="none">/* SERDES manager */</text>
      <text x="-9.1791" xml:space="preserve" y="295.4018" clip-path="url(#clipPath2)" stroke="none">AtSerdesManager SerdesManagerGet()</text>
      <text x="-9.1791" xml:space="preserve" y="313.5268" clip-path="url(#clipPath2)" stroke="none"> </text>
      <text x="-9.1791" xml:space="preserve" y="331.6518" clip-path="url(#clipPath2)" stroke="none">/* Soft Error Mitigation controller */</text>
      <text x="-9.1791" xml:space="preserve" y="349.7768" clip-path="url(#clipPath2)" stroke="none">AtSemController SemControllerGetByIndex(</text>
      <text x="-9.1791" xml:space="preserve" y="367.9018" clip-path="url(#clipPath2)" stroke="none">    uint8 semId)</text>
      <text x="-9.1791" xml:space="preserve" y="386.0268" clip-path="url(#clipPath2)" stroke="none">uint8 NumSemControllersGet()</text>
      <text x="-9.1791" xml:space="preserve" y="404.1518" clip-path="url(#clipPath2)" stroke="none"> </text>
      <text x="-9.1791" xml:space="preserve" y="422.2768" clip-path="url(#clipPath2)" stroke="none">/* Physical sensors */</text>
      <text x="-9.1791" xml:space="preserve" y="440.4018" clip-path="url(#clipPath2)" stroke="none">AtThermalSensor ThermalSensorGet()</text>
      <text x="-9.1791" xml:space="preserve" y="458.5268" clip-path="url(#clipPath2)" stroke="none">eBool ThermalSensorIsSupported()</text>
    </g>
    <g transform="matrix(1.9805,0,0,1.9805,-2.1132,804.3145)" image-rendering="optimizeQuality">
      <image x="0" y="0" clip-path="url(#clipPath7)" width="276" xlink:href="data:image/png;base64,iVBORw0KGgoAAAANSUhEUgAAARQAAAAnCAYAAADO6bfOAAACfklEQVR42u3dYW+b&#10;MBSFYRsb1G3//78uAcPuoWZyohXM1lWKeR/pikALHyJxdE2aW+cAAAAAAAAAAF/G&#10;V/+i9w9bANewLMvDdk+sCZKiPIECXCtMci01oeJrwiSE4LuuW4tQAa4XJimlZZ5n&#10;1e9wOdWhlGESY+ys7GXo5MxSCcBLB8oaJpYF8zRNyXbnrVk5veRRR6IwGYYhWPUW&#10;KL0d0zmECtB4nqgbsVqDxPYnezlq18IlfdSkxIruZA0T82Zh8s1+3NvFol2YQAEa&#10;pHu/6EIUJqPVrWgituPnljxa3WiZkzuTNwuRH1ba9pZaHW890GagvK94lrVBsSXP&#10;Tfe7drQCspo+OvfoGYoexOpJbLBDg8LELvzdahjHkUAB2g0Ul8NDyxyFSbK62f7u&#10;445Yd33f5WVOn8NkuN/vgbceaLdDsVJH4tWR5Ps/aH/v3JpAcfmiXm2POhOFiW0J&#10;FKBtek4Scm2did/rUFi2APhjH3FQBAqA/4tAAUCgACBQABAoAECgACBQABAoAAgU&#10;APjyQCnHQQLAs3jml5eC2/nzWwCvq/hy4MN9/ilDqosBtfrm4ezevzCUCBSgeamo&#10;ueaejzVhosEqumj+GrOmN3nH8xegZUsOEd3vU22oxL0w0YCmlNI2U3K01z9zyEyO&#10;mbJA6+YcJhr/eM+vd0Ml7nQmChRnYaKljgbTagyct1BRlxIIFOASXUo5U3Z0B487&#10;DjsUdSeadq0A0Rg4O344Bg7AC6eI3fvWQGyhsc6Rzd3JYaDU/KMvzZRVgIQcJN02&#10;wY23Hmi+Q9nq+QOZ5XSgFMGyjX3r8kdHhAlwnVB5Dpe/61A+8RwAbQQLAAAAAAAA&#10;/tEvrVK5DUJsIjYAAAAASUVORK5CYII=" height="39" preserveAspectRatio="none"/>
    </g>
    <g fill="white" stroke-width="2" stroke-miterlimit="1.45" transform="matrix(1,0,0,1,50,265)" stroke-linecap="butt" stroke="white">
      <path d="M-34.3086 557.1191 L471.8514 557.1191 L471.8514 595.5192 L-34.3086 595.5192 Z" clip-path="url(#clipPath2)" stroke="none"/>
      <path fill="none" d="M-34.3086 557.1191 L471.8514 557.1191 L471.8514 595.5192 L-34.3086 595.5192 Z" clip-path="url(#clipPath2)" stroke="rgb(153,51,204)"/>
    </g>
    <g font-size="20" stroke-linecap="butt" transform="matrix(1,0,0,1,50,265)" fill="rgb(153,51,204)" font-family="'Courier New'" stroke="rgb(153,51,204)" font-weight="bold" stroke-miterlimit="1.45">
      <text x="128.7568" xml:space="preserve" y="581.6414" clip-path="url(#clipPath2)" stroke="none">AtSemController</text>
    </g>
    <g transform="matrix(2.2852,0,0,2.2852,-5.1601,839.6676)" image-rendering="optimizeQuality">
      <image x="0" y="0" clip-path="url(#clipPath8)" width="241" xlink:href="data:image/png;base64,iVBORw0KGgoAAAANSUhEUgAAAPEAAAEUCAYAAAD6NdCMAAADkUlEQVR42u3Z7Urc&#10;QBiA0Xwpbb3/e9XmqxN8xw4SuzFmliLnwEuWEOdH4HGS3aYBAAAAAIB7aytfD3zN&#10;elWU7bsB7hNwOacj3q7p0vRx7IQMdwl4iZnjuJ6JuAz4IWYQMlTffXO8U5oxjrsh&#10;Dwcj3uL9keZnEbKIoY4c8Bbv886j9acibt5F/BTHhzgP1HmM3gJ+iXNzMc3ZnXh7&#10;nH6MgH/FZxFDnYjzLtwUMX/4CntkJ84hD7EDP8b07jdUiXiK7sbmwHdQw8GF2yLm&#10;vDOLGOpEnN+L++bAl8geieH/DPnm78Mihm9CxCBiQMSAiEHEgIgBEQMiBhEDIgZE&#10;DIgYRAyIGBAxIGIQMSBiQMSAiEHEgIgBEQMiBhEDIgZEDCIGRAyIGBAxiBgQMSBi&#10;QMQgYkDEgIgBEYOIAREDIgZEDCIGRAyIGBAxiBgQMSBiQMQgYkDEgIhBxICIARED&#10;IgYRAyIGRAyIGEQMiBgQMSBiEDEgYkDEgIhBxICIAREDIgYRAyIGRAyIGEQMiBgQ&#10;MYgYEDEgYkDEIGJAxICIARGDiAERAyIGRAwiBkQMiBgQMYgYEDEgYkDEIGJAxICI&#10;QcSAiAERAyIGEQMiBkQMiBhEDIgYEDEgYhAxIGJAxICIQcSAiAERAyIGEQMiBkQM&#10;iBhEDIgYEDGIGBAxIGJAxCBiQMSAiAERg4gBEQMiBkQMIgZEDIgYEDGIGBAxIGJA&#10;xCBiQMSAiAERg4gBEQMiBhEDIgZEDIgYRAyIGBAxIGIQMSBiQMSAiEHEgIgBEQMi&#10;BhEDIgZEDIgYRAyIGBAxiNgtABEDIgZEDCIGRAyIGBAxiBgQMSBiQMQgYkDEgIgB&#10;EYOIAREDIgZEDCIGRAyIGBAxiBgQMSBiEDEgYkDEgIhBxICIAREDIgYRAyIGRAyI&#10;GEQMiBgQMSBiEDEgYkDEgIhBxICIAREDIgYRAyIGRAwiBkQMiBgQMYgYEDEgYkDE&#10;IGJAxEB1w4m/WYsBLtS27W5f67p+OeJthSXNXByB6+XW8tzcMIeDi64R7pRmjPO9&#10;+w1VIp6jsyk+/zPk4ZOLvmw7fizufRquLvj1sXlOj9VT9DbeCnk4EPBSBNzFgr2I&#10;oZr8yvp7J+TTEef/Cmss3MWODFynzTtussRuPMYsH0V8JMQupi+mFTFUeyd+20BT&#10;yHMKem7+fql8KuJ8XVfEK2CoH/PenI747PXAdbszAAAAAHwffwCavY7NkA53RwAA&#10;AABJRU5ErkJggg==" height="276" preserveAspectRatio="none"/>
    </g>
    <g fill="white" stroke-width="2" stroke-miterlimit="1.45" transform="matrix(1,0,0,1,50,265)" stroke-linecap="butt" stroke="white">
      <path d="M-34.3086 595.5192 L471.8514 595.5192 L471.8514 1179.7238 L-34.3086 1179.7238 Z" clip-path="url(#clipPath2)" stroke="none"/>
      <path fill="none" d="M-34.3086 595.5192 L471.8514 595.5192 L471.8514 1179.7238 L-34.3086 1179.7238 Z" clip-path="url(#clipPath2)" stroke="rgb(90,90,90)"/>
    </g>
    <g font-size="16" stroke-linecap="butt" transform="matrix(1,0,0,1,50,265)" fill="rgb(90,90,90)" font-family="'Courier New'" stroke="rgb(90,90,90)" font-weight="bold" stroke-miterlimit="1.45">
      <text x="-4.7942" xml:space="preserve" y="614.8395" clip-path="url(#clipPath2)" stroke="none">AtDevice DeviceGet()</text>
      <text x="-4.7942" xml:space="preserve" y="632.9645" clip-path="url(#clipPath2)" stroke="none">uint32 IdGet()</text>
      <text x="-4.7942" xml:space="preserve" y="651.0895" clip-path="url(#clipPath2)" stroke="none"> </text>
      <text x="-4.7942" xml:space="preserve" y="669.2145" clip-path="url(#clipPath2)" stroke="none">eAtRet Init()</text>
      <text x="-4.7942" xml:space="preserve" y="687.3395" clip-path="url(#clipPath2)" stroke="none">eAtRet Validate()</text>
      <text x="-4.7942" xml:space="preserve" y="705.4645" clip-path="url(#clipPath2)" stroke="none"> </text>
      <text x="-4.7942" xml:space="preserve" y="723.5895" clip-path="url(#clipPath2)" stroke="none">/* Counters */</text>
      <text x="-4.7942" xml:space="preserve" y="741.7145" clip-path="url(#clipPath2)" stroke="none">uint32 CounterGet(uint32 counterType)</text>
      <text x="-4.7942" xml:space="preserve" y="759.8395" clip-path="url(#clipPath2)" stroke="none">uint32 CounterClear(uint32 counterType)</text>
      <text x="-4.7942" xml:space="preserve" y="777.9645" clip-path="url(#clipPath2)" stroke="none"> </text>
      <text x="-4.7942" xml:space="preserve" y="796.0895" clip-path="url(#clipPath2)" stroke="none">/* Alarm and status. */</text>
      <text x="-4.7942" xml:space="preserve" y="814.2145" clip-path="url(#clipPath2)" stroke="none">uint32 AlarmGet()</text>
      <text x="-4.7942" xml:space="preserve" y="832.3395" clip-path="url(#clipPath2)" stroke="none">uint32 AlarmHistoryGet()</text>
      <text x="-4.7942" xml:space="preserve" y="850.4645" clip-path="url(#clipPath2)" stroke="none">uint32 AlarmHistoryClear()</text>
      <text x="-4.7942" xml:space="preserve" y="868.5895" clip-path="url(#clipPath2)" stroke="none"> </text>
      <text x="-4.7942" xml:space="preserve" y="886.7145" clip-path="url(#clipPath2)" stroke="none">/* Interrupt. */</text>
      <text x="-4.7942" xml:space="preserve" y="904.8395" clip-path="url(#clipPath2)" stroke="none">eAtRet InterruptMaskSet(</text>
      <text x="-4.7942" xml:space="preserve" y="922.9645" clip-path="url(#clipPath2)" stroke="none">    uint32 alarmMask, </text>
      <text x="-4.7942" xml:space="preserve" y="941.0895" clip-path="url(#clipPath2)" stroke="none">    uint32 enableMask)</text>
      <text x="-4.7942" xml:space="preserve" y="959.2145" clip-path="url(#clipPath2)" stroke="none">uint32 InterruptMaskGet()</text>
      <text x="-4.7942" xml:space="preserve" y="977.3395" clip-path="url(#clipPath2)" stroke="none"> </text>
      <text x="-4.7942" xml:space="preserve" y="995.4645" clip-path="url(#clipPath2)" stroke="none">/* Event listener reported through interrupt. */</text>
      <text x="-4.7942" xml:space="preserve" y="1013.5895" clip-path="url(#clipPath2)" stroke="none">eAtRet EventListenerAdd(</text>
      <text x="-4.7942" xml:space="preserve" y="1031.7145" clip-path="url(#clipPath2)" stroke="none">    tAtSemControllerEventListener *listener, </text>
      <text x="-4.7942" xml:space="preserve" y="1049.8395" clip-path="url(#clipPath2)" stroke="none">    void *userData)</text>
      <text x="-4.7942" xml:space="preserve" y="1067.9645" clip-path="url(#clipPath2)" stroke="none">eAtRet EventListenerRemove(</text>
      <text x="-4.7942" xml:space="preserve" y="1086.0895" clip-path="url(#clipPath2)" stroke="none">    tAtSemControllerEventListener *listener)</text>
      <text x="-4.7942" xml:space="preserve" y="1104.2145" clip-path="url(#clipPath2)" stroke="none"> </text>
      <text x="-4.7942" xml:space="preserve" y="1122.3395" clip-path="url(#clipPath2)" stroke="none">/* UART */</text>
      <text x="-4.7942" xml:space="preserve" y="1140.4645" clip-path="url(#clipPath2)" stroke="none">AtUart UartGet()</text>
      <text x="-4.7942" xml:space="preserve" y="1158.5895" clip-path="url(#clipPath2)" stroke="none">eAtRet ValidateByUart()</text>
    </g>
    <g transform="matrix(1.3281,0,0,1.3281,599.7311,810.8379)" image-rendering="optimizeQuality">
      <image x="0" y="0" clip-path="url(#clipPath9)" width="276" xlink:href="data:image/png;base64,iVBORw0KGgoAAAANSUhEUgAAARQAAAAxCAYAAAAbZlZIAAACLklEQVR42u3d4Wqj&#10;QBSAUTU2tPT933WbGO1MnFtmu7vRpksheg6IaWn8UfDjToRM0wAAAAAAAPB42jv+&#10;tvVvg12ZPp2/FZS2OjpRgd3GZCzn6d6gXEOSHNI5jhyVdpom/2rY6tKlndMwzTd6&#10;DsmlHGMVli8HpUsXzgF5SsexnPtqUgG27RqT1JVzOp/Sca7C8od+xVInTyXHFJaX&#10;dH5OFz6W31n2wPaXO5cSkbdyz8fE0v5tSulXLHlyPJ5SSJ7T+TVHJb8v/WxKgW0v&#10;eXI4hnSvR0wiLt09E0oEpYsppcTkpSx9BAW2v9w5VzF5W1qd9CsuGlPKoYQkPk8R&#10;FNi2S3X+eCBz6w2LQame5tSPjjtBge2q7vuxut8XPzcVBeCfXfl0LBIU4CuBERTg&#10;ZwgKICiAoACCAiAogKAAggIICoCgAIICCAqAoACCAggKICgAggIICiAowG4tfkn1&#10;4rfexx6nxccX1k42N4btlmO+7+Ner+//7wWlulBskhybJgsKbNul+X2T9P8SlNjf&#10;dGjmXcQOa8cf4KGN1X0/NDc2SV8blOtkksaffKG88/qv8rvY33TVGAQ82oqnjeXO&#10;kF7ne/+UXy9NKv1CTGI6OZXJZKpem1Bg4xNKismYQpIHiFMOy1JUliaU+MzkXH4e&#10;ypTi6RDsQApINCCWPjc/P10zZXSpTLG3aUwmphPYSVPKkSeV+sPZ6d6gxN+114XV&#10;/AhJUGB/UVm9xzEAAAAAAD/gHXkus/l+ujk5AAAAAElFTkSuQmCC" height="49" preserveAspectRatio="none"/>
    </g>
    <g fill="white" stroke-width="2" stroke-miterlimit="1.45" transform="matrix(1,0,0,1,50,265)" stroke-linecap="butt" stroke="white">
      <path d="M561.0124 557.1191 L900.1723 557.1191 L900.1723 595.5192 L561.0124 595.5192 Z" clip-path="url(#clipPath2)" stroke="none"/>
      <path fill="none" d="M561.0124 557.1191 L900.1723 557.1191 L900.1723 595.5192 L561.0124 595.5192 Z" clip-path="url(#clipPath2)" stroke="rgb(153,51,204)"/>
    </g>
    <g font-size="20" stroke-linecap="butt" transform="matrix(1,0,0,1,50,265)" fill="rgb(153,51,204)" font-family="'Courier New'" stroke="rgb(153,51,204)" font-weight="bold" stroke-miterlimit="1.45">
      <text x="694.5865" xml:space="preserve" y="581.6414" clip-path="url(#clipPath2)" stroke="none">AtUart</text>
    </g>
    <g transform="matrix(1.3281,0,0,1.3281,599.7311,849.2379)" image-rendering="optimizeQuality">
      <image x="0" y="0" clip-path="url(#clipPath10)" width="276" xlink:href="data:image/png;base64,iVBORw0KGgoAAAANSUhEUgAAARQAAADsCAYAAAC1xlm5AAADvUlEQVR42u3ZD2vi&#10;MBjA4bVW2bjv/13PP20u0eQInlu7Og5MnwdCmWgHhfx4o29vAAAAAAAAvJ5uxXs7&#10;jw02JdxdnwpKV61eVGCzMZnyNawNyjUk0S5ey0pR6UIIHjW0enTpbmkIt42eQjLm&#10;NVVh+XZQ+njjFJB9XId8HapJBWjbNSaxK+d4PcV1rsLyj2HBUSdNJYcYlo94fY83&#10;PuTXHHug/ePOmCNyzHu+TCzdoyllWHDkSfHYx5C8x+uvFJX0ufi3KQXaPvKkcFzi&#10;Xi8xKXHp10woJSh9mVJyTD7y0UdQoP3jzrmKyXHudDIsuGmZUnY5JOX7FEGBto3V&#10;9e8PMl99YDYo1a859U/HvaBAu6p9P1X7ffZ7U1EAPu3K3ZolKMB3AiMowP8hKICg&#10;AIICCAqAoACCAggKICgAggIICiAoAIICCAogKICgAAgKICiAoAAICiAogKAAggIg&#10;KICgAIICICiAoACCAggKgKAAggIICoCgAIICCAogKACCAggKICgAggIICiAogKAA&#10;CAogKICgAAgKICiAoACCAiAogKAAggIIikcACAogKICgAAgKICiAoACCAiAogKAA&#10;ggIgKICgAIICCAqAoACCAggKgKAAggIICiAoAIICCAogKACCAggKICiAoAAICiAo&#10;gKAACAogKICgAIICICiAoACCAiAogKAAggIICoCgAIICCAqAoACCAggKICgAggII&#10;CiAogKAACAogKICgAAgKICiAoACCAiAogKAAggIgKICgAIICCAqAoACCAggKgKAA&#10;ggIICiAoAIICCAogKACCAggKICiAoAAICiAogKAACAogKICgAIICICiAoACCAiAo&#10;gKAAggIICoCgAIICCAqAoACCAggKICgAggIICiAogKAACAogKICgAAgKICiAoACC&#10;AiAogKAAggIgKICgAIICCAqAoACCAggKgKAAggIICiAoAIICCAogKACCAggKICiA&#10;oAAICiAogKAACAogKICgAIICICiAoACCAiAogKAAggIICoCgAIICCArQnu7B+tIw&#10;e8fu8T1CCB43tFqS274Pt61+3exlPReU0o+8przGJTcHXtpUrR8LSrlRisglrrPj&#10;EmwmKOe878cqLKuDkqadKY4/JSTHfI4al5yngNcOStz/l7zvT0uiMhuUqlK/c0TS&#10;P9iZUGATE8pY7f9T3v+fBmVuyuhzPPZxHfIa8usmFGhbuIvKsToCTWsnlLGq1UVM&#10;YLNRKWv1hFLeU5aYwDajUsISng3KM+8H2goLAAAAAE/6A3AhootG0qgHAAAAAElF&#10;TkSuQmCC" height="236" preserveAspectRatio="none"/>
    </g>
    <g fill="white" stroke-width="2" stroke-miterlimit="1.45" transform="matrix(1,0,0,1,50,265)" stroke-linecap="butt" stroke="white">
      <path d="M561.0124 595.5192 L900.1723 595.5192 L900.1723 882.7238 L561.0124 882.7238 Z" clip-path="url(#clipPath2)" stroke="none"/>
      <path fill="none" d="M561.0124 595.5192 L900.1723 595.5192 L900.1723 882.7238 L561.0124 882.7238 Z" clip-path="url(#clipPath2)" stroke="rgb(90,90,90)"/>
    </g>
    <g font-size="16" stroke-linecap="butt" transform="matrix(1,0,0,1,50,265)" fill="rgb(90,90,90)" font-family="'Courier New'" stroke="rgb(90,90,90)" font-weight="bold" stroke-miterlimit="1.45">
      <text x="581.4488" xml:space="preserve" y="614.8395" clip-path="url(#clipPath2)" stroke="none">/* Read-only attributes */</text>
      <text x="581.4488" xml:space="preserve" y="632.9645" clip-path="url(#clipPath2)" stroke="none">uint8 SuperLogicRegionIdGet()</text>
      <text x="581.4488" xml:space="preserve" y="651.0895" clip-path="url(#clipPath2)" stroke="none">AtDevice DeviceGet()</text>
      <text x="581.4488" xml:space="preserve" y="669.2145" clip-path="url(#clipPath2)" stroke="none"> </text>
      <text x="581.4488" xml:space="preserve" y="687.3395" clip-path="url(#clipPath2)" stroke="none">/* Transmission */</text>
      <text x="581.4488" xml:space="preserve" y="705.4645" clip-path="url(#clipPath2)" stroke="none">eAtRet Transmit(</text>
      <text x="581.4488" xml:space="preserve" y="723.5895" clip-path="url(#clipPath2)" stroke="none">    const char *buffer, </text>
      <text x="581.4488" xml:space="preserve" y="741.7145" clip-path="url(#clipPath2)" stroke="none">    uint32 bufferSize)</text>
      <text x="581.4488" xml:space="preserve" y="759.8395" clip-path="url(#clipPath2)" stroke="none">uint32 Receive(</text>
      <text x="581.4488" xml:space="preserve" y="777.9645" clip-path="url(#clipPath2)" stroke="none">    char *buffer, </text>
      <text x="581.4488" xml:space="preserve" y="796.0895" clip-path="url(#clipPath2)" stroke="none">    uint32 bufferSize)</text>
      <text x="581.4488" xml:space="preserve" y="814.2145" clip-path="url(#clipPath2)" stroke="none">void ReceiveDataWait()</text>
      <text x="581.4488" xml:space="preserve" y="832.3395" clip-path="url(#clipPath2)" stroke="none"> </text>
      <text x="581.4488" xml:space="preserve" y="850.4645" clip-path="url(#clipPath2)" stroke="none">/* Debugging */</text>
      <text x="581.4488" xml:space="preserve" y="868.5895" clip-path="url(#clipPath2)" stroke="none">void Debug()</text>
    </g>
    <g transform="matrix(1.375,0,0,1.375,41.1081,3.8396)" image-rendering="optimizeQuality">
      <image x="0" y="0" clip-path="url(#clipPath11)" width="276" xlink:href="data:image/png;base64,iVBORw0KGgoAAAANSUhEUgAAARQAAAAwCAYAAADQOoXtAAACIElEQVR42u3di2rb&#10;MBSA4dhxusv7P2yXizXJOyoiXWIn22Cxvw+EQikuFPxznJZotwMAAAAAAOD1dE9+&#10;b+dXB5uRrvY/Ckp3YwHbickYr9O9sMyFYYpHts97WX2sLqUkKrDWR5euqzFJRd4v&#10;scYmLg8Hpc8XLgE55P0t70O+9lCj4tcOq59OyjqXle/9Y95PTVg+GRY86uwjJt/y&#10;+tKERVBg3eo0UiLy3kRmjDakR4JSo7LP8SgTytf8+nt+XfaDoMAmHnnKZPIjWnCJ&#10;aaV/ZkKpQekjKmUymaJSghJfB9arBqSLffbtjmHBRacpJdYh1pugwCaCUieTIRpw&#10;98lkNii/3uD9CEudWHpBgfVq7vuxud9n/2VEFICbXfnN2gkK8DcjIyjAvycogKAA&#10;ggIICoCgAIICCAogKACCAggKICgAggIICiAogKAACAogKMCrmf1M2dkPqY7zOaqP&#10;z5ZMzafYAisrx+ejSNv7//mgNBeqp4jVM04FBdZt0XnGjwZlOig5F6sc9HOK802T&#10;xyVYvRKR6b6P/eaZxkuDMk0mOSblQiUk7zEKnSIophRY9yPPOe79Yx4mznOTyjAT&#10;kxRVOuYfsI/nqRKT2RPEgFVMKPWw9NKAEpXLvagMCy54iUedOpkMuwXv9gIvrx0q&#10;6qPP3fdPZ6OQqzQdQxh7OTRdTGB7URmvppP0VFAiKt3VVNL5qzFsJihtWNz4AAAA&#10;AAD/i5/gocQLvlySewAAAABJRU5ErkJggg==" height="48" preserveAspectRatio="none"/>
    </g>
    <g fill="white" stroke-width="2" stroke-miterlimit="1.45" transform="matrix(1,0,0,1,50,265)" stroke-linecap="butt" stroke="white">
      <path d="M2.8581 -249.4104 L354.018 -249.4104 L354.018 -211.0104 L2.8581 -211.0104 Z" clip-path="url(#clipPath2)" stroke="none"/>
      <path fill="none" d="M2.8581 -249.4104 L354.018 -249.4104 L354.018 -211.0104 L2.8581 -211.0104 Z" clip-path="url(#clipPath2)" stroke="rgb(153,51,204)"/>
    </g>
    <g font-size="20" stroke-linecap="butt" transform="matrix(1,0,0,1,50,265)" fill="rgb(153,51,204)" font-family="'Courier New'" stroke="rgb(153,51,204)" font-weight="bold" stroke-miterlimit="1.45">
      <text x="88.4234" xml:space="preserve" y="-224.8882" clip-path="url(#clipPath2)" stroke="none">AtThermalSensor</text>
    </g>
    <g transform="matrix(1.375,0,0,1.375,41.1081,42.2396)" image-rendering="optimizeQuality">
      <image x="0" y="0" clip-path="url(#clipPath12)" width="276" xlink:href="data:image/png;base64,iVBORw0KGgoAAAANSUhEUgAAARQAAAERCAYAAAC6vVjKAAAEHElEQVR42u3a7U7b&#10;MBiA0ToN7OP+73VA23h2eT1FXVuHjv0gOUeyXBDkRyU/el3Y7QAAAAAAAPh60oM/&#10;m7x1sBn5Yv+noKQbC9hOTKZ4ne+FpReGczyKfdnrGmKlnLOowFqvLim1mOSq7KdY&#10;0ywuHw7KUB5cA/JU9ueyj+XZY4uKtx1WP53UdayrnP23sh9mYfnLuOCqs4+Y/Cjr&#10;2ywsggLr1qaRGpGXWWSmaEP+SFBaVPYlHnVC+V5e/yyv6/4kKLCJK0+dTF6jBaeY&#10;VoZHJpQWlCGiUieTc1RqUOL7wHq1gKTYux93jAseep5SYj3FehYU2ERQ2mQyRgPu&#10;3ky6QXn/gPdPWNrEMggKrNfs3E+z8979lxFRAG525craCQrwmZERFOD/ExRAUABB&#10;AQQFQFAAQQEEBRAUAEEBBAUQFABBAQQFEBRAUAAEBRAUQFAABAUQFEBQAEEBEBRA&#10;UABBARAUQFAAQQEEBUBQAEEBBAVAUABBAQQFEBQAQQEEBRAUAEEBBAUQFEBQAAQF&#10;EBRAUAAEBRAUQFAAQQEQFEBQAEEBBMVbAAgKICiAoAAICiAogKAAggIgKICgAIIC&#10;ICiAoACCAggKgKAAggIICoCgAIICCAogKACCAggKICgAggIICiAogKAACAogKICg&#10;AAgKICiAoACCAiAogKAAggIgKICgAIICCAqAoACCAggKgKAAggIICiAoAIICCAog&#10;KICgAAgKICiAoAAICiAogKAAggIgKICgAIICICiAoACCAggKgKAAggIICoCgAIIC&#10;CAogKACCAggKICgAggIICiAogKAACAogKICgAAgKICiAoACCAiAogKAAggIgKICg&#10;AIICCAqAoACCAggKgKAAggIICiAoAIICCAogKICgAAgKICiAoAAICiAogKAAggIg&#10;KICgAIICICiAoACCAggKgKAAggIICoCgAIICCAogKACCAggKICgAggIICiAogKAA&#10;CAogKICgAAgKICiAoACCAiAogKAAggIgKICgAIICCAqAoACCAggKgKAAggIICiAo&#10;AIICCAogKICgAAgKICiAoAAICiAogKAAggIgKICgAIICICiAoACCAggKgKAAggII&#10;CoCgAIICCAogKACCAggKICgAggIICiAogKAAXJMEBXg0HpfrrrH7xHT9GbnwfsNK&#10;S/J+7nMc9dxex3o8KK0fZU2xTrFMN7Bu7ay3s98dIpYEJc9CcojlugTrN83O/GlJ&#10;VHpBuYzJa9yjjkvuU8CXD0o962+xjr2ojJ2Y5IhJfdiv+PoQvycosP6gtCnlJTpw&#10;d1LpTijFKaV0mE0mY1x3BAXWbX5DOc6mlJsTSi8K7U9FQ4nKvux1DSUyYgLbisq0&#10;W/AB7dIwpIupRFBgW1FZ9KfjR8MgKLCdmAAAAADwiX4DJmax0cZbOVoAAAAASUVO&#10;RK5CYII=" height="273" preserveAspectRatio="none"/>
    </g>
    <g fill="white" stroke-width="2" stroke-miterlimit="1.45" transform="matrix(1,0,0,1,50,265)" stroke-linecap="butt" stroke="white">
      <path d="M2.8581 -211.0104 L354.018 -211.0104 L354.018 136.9942 L2.8581 136.9942 Z" clip-path="url(#clipPath2)" stroke="none"/>
      <path fill="none" d="M2.8581 -211.0104 L354.018 -211.0104 L354.018 136.9942 L2.8581 136.9942 Z" clip-path="url(#clipPath2)" stroke="rgb(90,90,90)"/>
    </g>
    <g font-size="16" stroke-linecap="butt" transform="matrix(1,0,0,1,50,265)" fill="rgb(90,90,90)" font-family="'Courier New'" stroke="rgb(90,90,90)" font-weight="bold" stroke-miterlimit="1.45">
      <text x="23.9468" xml:space="preserve" y="-191.6901" clip-path="url(#clipPath2)" stroke="none">/* Temperature */</text>
      <text x="23.9468" xml:space="preserve" y="-173.5651" clip-path="url(#clipPath2)" stroke="none">int32 CurrentTemperatureGet() </text>
      <text x="23.9468" xml:space="preserve" y="-155.4401" clip-path="url(#clipPath2)" stroke="none">int32 MinRecordedTemperatureGet() </text>
      <text x="23.9468" xml:space="preserve" y="-137.3151" clip-path="url(#clipPath2)" stroke="none">int32 MaxRecordedTemperatureGet() </text>
      <text x="23.9468" xml:space="preserve" y="-119.1901" clip-path="url(#clipPath2)" stroke="none"> </text>
      <text x="23.9468" xml:space="preserve" y="-101.0651" clip-path="url(#clipPath2)" stroke="none">/* Over-heat set thresholds */</text>
      <text x="23.9468" xml:space="preserve" y="-82.9401" clip-path="url(#clipPath2)" stroke="none">eAtRet AlarmSetThresholdSet(</text>
      <text x="23.9468" xml:space="preserve" y="-64.8151" clip-path="url(#clipPath2)" stroke="none">    int32 celsius) </text>
      <text x="23.9468" xml:space="preserve" y="-46.6901" clip-path="url(#clipPath2)" stroke="none">int32 AlarmSetThresholdGet() </text>
      <text x="23.9468" xml:space="preserve" y="-28.5651" clip-path="url(#clipPath2)" stroke="none">int32 AlarmSetThresholdMax() </text>
      <text x="23.9468" xml:space="preserve" y="-10.4401" clip-path="url(#clipPath2)" stroke="none">int32 AlarmSetThresholdMin() </text>
      <text x="23.9468" xml:space="preserve" y="7.6849" clip-path="url(#clipPath2)" stroke="none"> </text>
      <text x="23.9468" xml:space="preserve" y="25.8099" clip-path="url(#clipPath2)" stroke="none">/* Over-heat clear thresholds */</text>
      <text x="23.9468" xml:space="preserve" y="43.9349" clip-path="url(#clipPath2)" stroke="none">eAtRet AlarmClearThresholdSet(</text>
      <text x="23.9468" xml:space="preserve" y="62.0599" clip-path="url(#clipPath2)" stroke="none">    int32 celsius) </text>
      <text x="23.9468" xml:space="preserve" y="80.1849" clip-path="url(#clipPath2)" stroke="none">int32 AlarmClearThresholdGet() </text>
      <text x="23.9468" xml:space="preserve" y="98.3099" clip-path="url(#clipPath2)" stroke="none">int32 AlarmClearThresholdMax() </text>
      <text x="23.9468" xml:space="preserve" y="116.4349" clip-path="url(#clipPath2)" stroke="none">int32 AlarmClearThresholdMin() </text>
    </g>
    <g transform="matrix(1.5938,0,0,1.5938,563.0749,2.2625)" image-rendering="optimizeQuality">
      <image x="0" y="0" clip-path="url(#clipPath13)" width="276" xlink:href="data:image/png;base64,iVBORw0KGgoAAAANSUhEUgAAARQAAAAsCAYAAACkLkcNAAACPElEQVR42u3dDW+a&#10;UBSAYa8f25r9///a1gK7R881rLGIbMsiPk9C0M6xpAlvDrhcNhsAAAAAAAAeT/lH&#10;nwXWZ/jjSJRS2ue2o8+LCzxRSEIGZZgKS5kRk23dx7arx9y2sNTXogLrn0ja1tWt&#10;r+d9NxWV/e0B5RSTfd0OsdUD7urPd37X8BT6jMlHPfff82fd4qDkhHKo+x91e6nb&#10;If+eCQXWP6FEPI51e8tzfsjIlGtRmROUuNSJ6eSl7n9GWOK9Sx5Yr7zd0edkEjHZ&#10;juLS5Z/dP6HEfZO8f3LImMSU8i3/AWCNo8n5JuwpKDlYdPVH0Yvd1NXJfsaxS943&#10;ic/u6+uIyfe8QQusczpplzslo7K7FZObQTlH6rfLn+3omx5BgXVOJ+O3/eh8L7eC&#10;IgrA1a5c2U/+HxRBAe6Jyk2CAvw1ggIICiAogKAACAogKICgAIICICiAoACCAiAo&#10;wCJ3r8ooKMBUTMqV7UuTCyzlyk2XfTqtiTB8WoUFWFFNShk+neuz1kPZzzx+W1+y&#10;LU7bb+5YIwF4SN295/ycoIxjEmtLvs8ZfYCHnU7GQfmo74/5gK8WlsVBucSkHjRC&#10;8ro5z0ARFvdfYL3a5U2c629x/ud5PzmpzAlKxOTYYlId40mCJhR4iqiMH/Q1fibP&#10;oicHniaUWqaIyCbHntd8rAawfv0oKi0oyx6WntdTpyX0Y58haQ9L96uGlRrdR4kv&#10;edq9k34UlGFRUPLgl++gPYIUnvLSZ7jyGgAAAACA/+kX/gzn9BwKFhoAAAAASUVO&#10;RK5CYII=" height="44" preserveAspectRatio="none"/>
    </g>
    <g fill="white" stroke-width="2" stroke-miterlimit="1.45" transform="matrix(1,0,0,1,50,265)" stroke-linecap="butt" stroke="white">
      <path d="M527.0124 -248.8 L934.1723 -248.8 L934.1723 -210.4 L527.0124 -210.4 Z" clip-path="url(#clipPath2)" stroke="none"/>
      <path fill="none" d="M527.0124 -248.8 L934.1723 -248.8 L934.1723 -210.4 L527.0124 -210.4 Z" clip-path="url(#clipPath2)" stroke="rgb(153,51,204)"/>
    </g>
    <g font-size="20" stroke-linecap="butt" transform="matrix(1,0,0,1,50,265)" fill="rgb(153,51,204)" font-family="'Courier New'" stroke="rgb(153,51,204)" font-weight="bold" stroke-miterlimit="1.45">
      <text x="682.5845" xml:space="preserve" y="-224.2777" clip-path="url(#clipPath2)" stroke="none">AtSensor</text>
    </g>
    <g transform="matrix(1.5938,0,0,1.5938,563.0749,40.6625)" image-rendering="optimizeQuality">
      <image x="0" y="0" clip-path="url(#clipPath14)" width="276" xlink:href="data:image/png;base64,iVBORw0KGgoAAAANSUhEUgAAARQAAAEOCAYAAABIPeiEAAAEW0lEQVR42u3aYU/a&#10;UBSAYVpgm9n//6+itN059XRWgxSY+0B5nuTuCmN3iUnfnFY3GwAAAAAAAO5P858+&#10;C6zP8M+RaJpm+lw7+7y4wAOFJFVQhnNhaS6ISRt7rm2c2U5hia9FBdY/kUyri9XH&#10;dd+di8pueUAZY7KLtc8VB27j/a3vNTyEvmJyjGv/pd7rbg5KTSj72H/Feoq1r39n&#10;QoH1TygZj9dYh7rmh4pMcyoqlwQlb3VyOnmK/XeGJV+75YH1qscdfU0mGZN2Fpeu&#10;/u76CSWfm9Tzk33FJKeUH/UfAGscTd4ewo5BqcGii7eyF9tzdye7C85u6rlJfnYX&#10;X2dMftYDWmCd08l0u9NUVLZLMVkMylukPtz+tLOf9AgKrHM6mb/sZ9d7sxQUUQBO&#10;duXEfvZ3UAQFuCYqiwQF+DaCAggKICiAoAAICiAogKAAggIgKICgAIICICiAoACC&#10;AggKgKAAggIICoCgAIICCAogKACCAggKICgAggIICiAogKAACAogKICgAAgKICiA&#10;oACCAiAogKAAggIgKICgAIICCAqAoACCAggKgKAAggIICiAoAIICCAogKICg+BYA&#10;ggIICiAoAIICCAogKICgAAgKICiAoAAICiAogKAAggIgKICgAIICICiAoACCAggK&#10;gKAAggIICoCgAIICCAogKACCAggKICgAggIICiAogKAACAogKICgAAgKICiAoACC&#10;AiAogKAAggIgKICgAIICCAqAoACCAggKICgAggIICiAoAIICCAogKICgAAgKICiA&#10;oAAICiAogKAAggIgKICgAIICICiAoACCAggKgKAAggIICoCgAIICCAogKACCAggK&#10;ICgAggIICiAogKAACAogKICgAAgKICiAoACCAiAogKAAggIgKICgAIICCAqAoACC&#10;AggKICgAggIICiAoAIICCAogKICgAAgKICiAoAAICiAogKAAggIgKICgAIICICiA&#10;oACCAggKgKAAggIICoCgAIICCAogKACCAggKICgAggIICiAogKAACAogKICgAAgK&#10;ICiAoACCAiAogKAAggIgKICgAIICCAqAoACCAggKICgAggIICiAoAIICCAogKICg&#10;AAgKICiAoAAICiAogKAAggIgKICgAIICICiAoACCAggKgKAAggIICoCgAIICCApw&#10;95pP60u7s6c0zYc9DNNKvs+wwnq8Xe/D51XX/HBzUGb/QR7S1+ri3G7pYOCu5fXd&#10;zVZ/yTW/GJSMSaw87BjrNdaL2yV4iAnl73WfQ0R2IPazYVm65Rlj0rbtsULy3Pd5&#10;3hgWQYH1RmW6vTlGRA7x+hD7a0Xl+qBMlYo9y5QHPec5EZeX2LcRlnY2GgHrnVJy&#10;gDhMk8rm/bnK1bc8431Ulml8MQxZq12sxae9wP2qIWQKR7d5f+RxrMicDtFSpWIi&#10;ia3JP9qcTPLtDEpFBVhxV2offyBTz0+m/bag1D6qajWzggGPExe/LgIAAADwDf4A&#10;rY8WwyOAU1oAAAAASUVORK5CYII=" height="270" preserveAspectRatio="none"/>
    </g>
    <g fill="white" stroke-width="2" stroke-miterlimit="1.45" transform="matrix(1,0,0,1,50,265)" stroke-linecap="butt" stroke="white">
      <path d="M527.0124 -210.4 L934.1723 -210.4 L934.1723 189.5564 L527.0124 189.5564 Z" clip-path="url(#clipPath2)" stroke="none"/>
      <path fill="none" d="M527.0124 -210.4 L934.1723 -210.4 L934.1723 189.5564 L527.0124 189.5564 Z" clip-path="url(#clipPath2)" stroke="rgb(90,90,90)"/>
    </g>
    <g font-size="16" stroke-linecap="butt" transform="matrix(1,0,0,1,50,265)" fill="rgb(90,90,90)" font-family="'Courier New'" stroke="rgb(90,90,90)" font-weight="bold" stroke-miterlimit="1.45">
      <text x="551.1452" xml:space="preserve" y="-191.0797" clip-path="url(#clipPath2)" stroke="none">/* Get current and </text>
      <text x="551.1452" xml:space="preserve" y="-172.9547" clip-path="url(#clipPath2)" stroke="none">   history alarm. */</text>
      <text x="551.1452" xml:space="preserve" y="-154.8297" clip-path="url(#clipPath2)" stroke="none">uint32 AlarmGet()</text>
      <text x="551.1452" xml:space="preserve" y="-136.7047" clip-path="url(#clipPath2)" stroke="none">uint32 AlarmHistoryGet()</text>
      <text x="551.1452" xml:space="preserve" y="-118.5797" clip-path="url(#clipPath2)" stroke="none">uint32 AlarmHistoryClear()</text>
      <text x="551.1452" xml:space="preserve" y="-100.4547" clip-path="url(#clipPath2)" stroke="none"> </text>
      <text x="551.1452" xml:space="preserve" y="-82.3297" clip-path="url(#clipPath2)" stroke="none">/* Interrupt. */</text>
      <text x="551.1452" xml:space="preserve" y="-64.2047" clip-path="url(#clipPath2)" stroke="none">eAtRet InterruptMaskSet(</text>
      <text x="551.1452" xml:space="preserve" y="-46.0797" clip-path="url(#clipPath2)" stroke="none">    uint32 alarmMask, </text>
      <text x="551.1452" xml:space="preserve" y="-27.9547" clip-path="url(#clipPath2)" stroke="none">    uint32 enableMask)</text>
      <text x="551.1452" xml:space="preserve" y="-9.8297" clip-path="url(#clipPath2)" stroke="none">uint32 InterruptMaskGet()</text>
      <text x="551.1452" xml:space="preserve" y="8.2953" clip-path="url(#clipPath2)" stroke="none">uint32 SupportedAlarms()</text>
      <text x="551.1452" xml:space="preserve" y="26.4203" clip-path="url(#clipPath2)" stroke="none"> </text>
      <text x="551.1452" xml:space="preserve" y="44.5453" clip-path="url(#clipPath2)" stroke="none">/* Event listener reported </text>
      <text x="551.1452" xml:space="preserve" y="62.6703" clip-path="url(#clipPath2)" stroke="none">   through interrupt. */</text>
      <text x="551.1452" xml:space="preserve" y="80.7953" clip-path="url(#clipPath2)" stroke="none">eAtRet EventListenerAdd(</text>
      <text x="551.1452" xml:space="preserve" y="98.9203" clip-path="url(#clipPath2)" stroke="none">    tAtSensorEventListener *listener, </text>
      <text x="551.1452" xml:space="preserve" y="117.0453" clip-path="url(#clipPath2)" stroke="none">    void *userData)</text>
      <text x="551.1452" xml:space="preserve" y="135.1703" clip-path="url(#clipPath2)" stroke="none">eAtRet EventListenerRemove(</text>
      <text x="551.1452" xml:space="preserve" y="153.2953" clip-path="url(#clipPath2)" stroke="none">    tAtSensorEventListener *listener)</text>
    </g>
    <g transform="matrix(1.8516,0,0,1.8516,1022.8177,-0.3156)" image-rendering="optimizeQuality">
      <image x="0" y="0" clip-path="url(#clipPath15)" width="275" xlink:href="data:image/png;base64,iVBORw0KGgoAAAANSUhEUgAAARMAAAApCAYAAAAWP83HAAACIElEQVR42u3djYra&#10;QBSA0Zhokfb9n7W7apLO3b3TBvEvYaFtcg4MY626IOzHZGTHpgEAAAAAAODftZv1&#10;4MJbBts0Fo/+fz8jIrs6LwkR8P/14+r2mEEZF8Vk96kto4u53NVmSMQEthGToTRk&#10;iLmMPhco49yY1JDsyzi0bXso93WToADrjsmYIbmUcc77+1uXPPsXLm+6DMmxzMfy&#10;Gt8mQQHWHZM+Q3Iq460GZjJmr0xiRRIh+ZHzoQwxgZXKz1rqZc25jJ+xQinjEuPW&#10;c57GJFYgsV9S5liRHIdh+B63yywmsP6YRDzeMyp1EdEuicnvoMRj48UiJHGpU0bn&#10;LYdVi5i0uWfyMCSvxiR2YD4+vYkXixVJhERMYL1yf3WXQal7pA8/yXWpAtxtymS+&#10;dVtMgNlBae5FREyALyUmgJgAYgKICYCYAGICiAkgJgBfGpN6/GvMjoIFZsWkhmMa&#10;EoBb9jMeO07PgfTWwer1+fse4+4f+L0Uk/gz5PHTUFYlNSKXXNEM3mtYtXr2a5/j&#10;YVCerUzqk+O4tjhMNs6B7PKHtJPHAOszNn/Ofz3n7aFZ+lUXGZJLWZmcJudAxvNs&#10;oMD6Y9JnSN5z7pfGpO6TxIGyb3n71PiqC9japU5dofT3VifP9kxqmeo/P/ZL8izI&#10;ncsc2MTqpO6X1j3Tm7/zr6wu6teCXkfEygS2EZNxEpU6L4rJ9WNFBLYZFVciAAAA&#10;AAB/wy8GEAzjx+Lz6wAAAABJRU5ErkJggg==" height="41" preserveAspectRatio="none"/>
    </g>
    <g fill="white" stroke-width="2" stroke-miterlimit="1.45" transform="matrix(1,0,0,1,50,265)" stroke-linecap="butt" stroke="white">
      <path d="M989.3333 -248.8 L1462.8995 -248.8 L1462.8995 -210.4 L989.3333 -210.4 Z" clip-path="url(#clipPath2)" stroke="none"/>
      <path fill="none" d="M989.3333 -248.8 L1462.8995 -248.8 L1462.8995 -210.4 L989.3333 -210.4 Z" clip-path="url(#clipPath2)" stroke="rgb(153,51,204)"/>
    </g>
    <g font-size="20" stroke-linecap="butt" transform="matrix(1,0,0,1,50,265)" fill="rgb(153,51,204)" font-family="'Courier New'" stroke="rgb(153,51,204)" font-weight="bold" stroke-miterlimit="1.45">
      <text x="1118.0989" xml:space="preserve" y="-224.2777" clip-path="url(#clipPath2)" stroke="none">AtSerdesController</text>
    </g>
    <g transform="matrix(1.8516,0,0,1.8516,1022.8177,38.0844)" image-rendering="optimizeQuality">
      <image x="0" y="0" clip-path="url(#clipPath16)" width="275" xlink:href="data:image/png;base64,iVBORw0KGgoAAAANSUhEUgAAARMAAABPCAYAAADIkiGAAAACaElEQVR42u3Z4W6i&#10;QBSAUQHdmN33f9a1Vpm9V4cucdUC6Y8tnpPcDLWWJiZ+GWCzAQAAAAAA4P/VzHpz&#10;8JHBayrh2e+3MyLSDOuSEAHfrx83x6UGpSyKSXPVxnS5xkttDYmYwGvEpI+G9LnG&#10;nOsGpcyNyRCSbcyubdtdvNaNggKsOyalhuQU815fP9+75NlOuLzpakj2se7jHD9G&#10;QQHWHZNzDckx5jAEZjSzdya5I8mQ/KrrLkZMYKXqs5bhsuY95nfuUGJOOff+5tOY&#10;5A4k75fEmjuSfd/3P/M4VjGB9cck4/FWozJsItolMfkISr43T5YhyUudmM5HDquW&#10;MWnrPZOnIZkak7wDc3l6kyfLHUmGRExgver91aYGZbhH+vRJrksV4GFTRuu9YzEB&#10;Zgdl8ygiYgJ8KTEBxAQQE0BMAMQEEBNATAAxARATQEwAMQHEBEBMADEBxARATAAx&#10;AcQEEBMAMQHEBBATQEwAxAQQE0BMADEBEBNATAAxARATQEwAMQHEBEBMADEBxAQQ&#10;EwAxAcQEEBNATADEBBATQEwAxAQQE0BMgLXaPvtl0zQfM36tlOKTA6bH5Eap+jjO&#10;aXx8sGrDd73UWR6T3IHcBORc5zT1HwDfOibD930clsU7k1JPkic8xnT1505M4CVi&#10;kt/793r8MCifxeQSktiZXEIS66G+ln/n5i28RkwyJIe6Lo9JvcS5nCyPY95iclfi&#10;ngmsW7kJynF0yVNmxaRcH9sMlziHukMZQiImsP6YjINy2vy9X/qPKUFomuuz4TZi&#10;0o5CIiaw/piMdyjjtSyJyfi9AgLCAgAAAMBEfwA7RA4gSBj1OAAAAABJRU5ErkJg&#10;gg==" height="79" preserveAspectRatio="none"/>
    </g>
    <g fill="white" stroke-width="2" stroke-miterlimit="1.45" transform="matrix(1,0,0,1,50,265)" stroke-linecap="butt" stroke="white">
      <path d="M989.3333 -210.4 L1462.8995 -210.4 L1462.8995 -99.625 L989.3333 -99.625 Z" clip-path="url(#clipPath2)" stroke="none"/>
      <path fill="none" d="M989.3333 -210.4 L1462.8995 -210.4 L1462.8995 -99.625 L989.3333 -99.625 Z" clip-path="url(#clipPath2)" stroke="rgb(90,90,90)"/>
    </g>
    <g font-size="16" stroke-linecap="butt" transform="matrix(1,0,0,1,50,265)" fill="rgb(90,90,90)" font-family="'Courier New'" stroke="rgb(90,90,90)" font-weight="bold" stroke-miterlimit="1.45">
      <text x="1017.0759" xml:space="preserve" y="-191.0797" clip-path="url(#clipPath2)" stroke="none">eAtSerdesEqualizerMode equalizerMode</text>
      <text x="1017.0759" xml:space="preserve" y="-172.9547" clip-path="url(#clipPath2)" stroke="none">eAtSerdesMode mode</text>
      <text x="1017.0759" xml:space="preserve" y="-154.8297" clip-path="url(#clipPath2)" stroke="none">eBool enabled</text>
      <text x="1017.0759" xml:space="preserve" y="-136.7047" clip-path="url(#clipPath2)" stroke="none">eAtSerdesTimingMode timingMode</text>
      <text x="1017.0759" xml:space="preserve" y="-118.5797" clip-path="url(#clipPath2)" stroke="none">eBool powerDown</text>
    </g>
    <g transform="matrix(4.8711,0,0,4.8711,992.6224,118.6641)" image-rendering="optimizeQuality">
      <image x="0" y="0" clip-path="url(#clipPath17)" width="125" xlink:href="data:image/png;base64,iVBORw0KGgoAAAANSUhEUgAAAH0AAAEUCAYAAAAGDDkDAAAC3ElEQVR42u3Xi07C&#10;MBSAYTqn8fL+76qwro7kNGnwBg6hku9PTqbEzWQfHWWzkSRJkvQ/Sn/897ps5ZyI&#10;6WDUJ3hp4L98A4xHgg/L3MVxAN8t+LxMjuOX8OMJ4PcxI/juwOeY3TJTHPNvV3pF&#10;32M/LvPUwEPvBz0H9tsyr83Kz799vLfoL3G8j9d1/eYA34ZJ/X1au9L3j/eHAH+O&#10;n6H3g74LoxyrfWg23WXNRm6MFf4Qc+d+d1FuVvjYbLY3a3bv7Ve2oVn50PuorubD&#10;b1fpu89r3c73888GuqBDF3RBF3RBF3RBF3RBF3RBF3RBF3RBF3RBhy7ogi7ogi7o&#10;gi7ogi7ogi7ogi7ogi7ogg5d0AVd0AVd0AVd0AVd0AVd0AVd0AVd0AUduqALuqAL&#10;uqALuqALuqALuqALuqALuqALOnS3ALqgC7qgC7qgC7qgC7qgC7qgC7qgC7qgCzp0&#10;QRd0QRd0QRd0QRd0QRd0QRd0QRd0QRd06IIu6IIu6IIu6IIu6IIu6IIu6IIu6IIu&#10;6NAFXdAFXdAFXdAFXdAFXdAFXdAFXdAFXdChC7qgC7qgC7qgC7qgC7qgC7qgC7qg&#10;C7qgQ3cLoAu6oAu6oAu6oAu6oAu6oAu6oAu6oAu6oEMXdEEXdEEXdEEXdEEXdEEX&#10;dEEXdEEXdEGHLuiCLuiCLuiCLuiCLuiCLuiCLuiCLuiCDl3QBV3QBV3QBV3QBV3Q&#10;BV3QBV3QBV3QBR26oAu6oAu6oAu6oAu6oAu6oAu6oAu6oAs6dLcAuqALum6i0S34&#10;v6WUPrxWSjkbeomZY7Jb3k25calOq9HrhfYXn5bZ7d9k8U/UB/oUkxv81eg5sN9i&#10;H5DtB65fPMrnAN/G/Ag/HgFeL1rBpzgPeif2zaJ8jWNei54PHukVP7nf19/LNQuz&#10;Om3PgV5iddfjYJV3h364yf4WPZ1w8bq604nn6jKP+PbjuJwDfe05uvwbQJIkSbfW&#10;OyL9g9xRTdPYAAAAAElFTkSuQmCC" height="276" preserveAspectRatio="none"/>
    </g>
    <g fill="white" stroke-width="2" stroke-miterlimit="1.45" transform="matrix(1,0,0,1,50,265)" stroke-linecap="butt" stroke="white">
      <path d="M989.3333 -99.625 L1502.2329 -99.625 L1502.2329 1147.3635 L989.3333 1147.3635 Z" clip-path="url(#clipPath2)" stroke="none"/>
      <path fill="none" d="M989.3333 -99.625 L1502.2329 -99.625 L1502.2329 1147.3635 L989.3333 1147.3635 Z" clip-path="url(#clipPath2)" stroke="rgb(90,90,90)"/>
    </g>
    <g font-size="16" stroke-linecap="butt" transform="matrix(1,0,0,1,50,265)" fill="rgb(90,90,90)" font-family="'Courier New'" stroke="rgb(90,90,90)" font-weight="bold" stroke-miterlimit="1.45">
      <text x="1019.2141" xml:space="preserve" y="-80.3047" clip-path="url(#clipPath2)" stroke="none">/* Read-only attributes */</text>
      <text x="1019.2141" xml:space="preserve" y="-62.1797" clip-path="url(#clipPath2)" stroke="none">eBool IsControllable()</text>
      <text x="1019.2141" xml:space="preserve" y="-44.0547" clip-path="url(#clipPath2)" stroke="none">uint32 IdGet()</text>
      <text x="1019.2141" xml:space="preserve" y="-25.9297" clip-path="url(#clipPath2)" stroke="none"> </text>
      <text x="1019.2141" xml:space="preserve" y="-7.8047" clip-path="url(#clipPath2)" stroke="none">/* Initializing and reseting */</text>
      <text x="1019.2141" xml:space="preserve" y="10.3203" clip-path="url(#clipPath2)" stroke="none">eAtRet Init()</text>
      <text x="1019.2141" xml:space="preserve" y="28.4453" clip-path="url(#clipPath2)" stroke="none">eAtRet Reset()</text>
      <text x="1019.2141" xml:space="preserve" y="46.5703" clip-path="url(#clipPath2)" stroke="none"> </text>
      <text x="1019.2141" xml:space="preserve" y="64.6953" clip-path="url(#clipPath2)" stroke="none">/* PMA Analog Control */</text>
      <text x="1019.2141" xml:space="preserve" y="82.8203" clip-path="url(#clipPath2)" stroke="none">eAtRet PhysicalParamSet(</text>
      <text x="1019.2141" xml:space="preserve" y="100.9453" clip-path="url(#clipPath2)" stroke="none">    eAtSerdesParam param, </text>
      <text x="1019.2141" xml:space="preserve" y="119.0703" clip-path="url(#clipPath2)" stroke="none">    uint32 value)</text>
      <text x="1019.2141" xml:space="preserve" y="137.1953" clip-path="url(#clipPath2)" stroke="none">uint32 PhysicalParamGet(</text>
      <text x="1019.2141" xml:space="preserve" y="155.3203" clip-path="url(#clipPath2)" stroke="none">    eAtSerdesParam param)</text>
      <text x="1019.2141" xml:space="preserve" y="173.4453" clip-path="url(#clipPath2)" stroke="none">eBool PhysicalParamIsSupported(</text>
      <text x="1019.2141" xml:space="preserve" y="191.5703" clip-path="url(#clipPath2)" stroke="none">    eAtSerdesParam param)</text>
      <text x="1019.2141" xml:space="preserve" y="209.6953" clip-path="url(#clipPath2)" stroke="none"> </text>
      <text x="1019.2141" xml:space="preserve" y="227.8203" clip-path="url(#clipPath2)" stroke="none">/* Loopback */</text>
      <text x="1019.2141" xml:space="preserve" y="245.9453" clip-path="url(#clipPath2)" stroke="none">eAtRet LoopbackEnable(</text>
      <text x="1019.2141" xml:space="preserve" y="264.0703" clip-path="url(#clipPath2)" stroke="none">    eAtLoopbackMode mode, </text>
      <text x="1019.2141" xml:space="preserve" y="282.1953" clip-path="url(#clipPath2)" stroke="none">    eBool enable)</text>
      <text x="1019.2141" xml:space="preserve" y="300.3203" clip-path="url(#clipPath2)" stroke="none">eBool LoopbackIsEnabled(</text>
      <text x="1019.2141" xml:space="preserve" y="318.4453" clip-path="url(#clipPath2)" stroke="none">    eAtLoopbackMode mode)</text>
      <text x="1019.2141" xml:space="preserve" y="336.5703" clip-path="url(#clipPath2)" stroke="none"> </text>
      <text x="1019.2141" xml:space="preserve" y="354.6953" clip-path="url(#clipPath2)" stroke="none">/* Alarms */</text>
      <text x="1019.2141" xml:space="preserve" y="372.8203" clip-path="url(#clipPath2)" stroke="none">uint32 AlarmGet()</text>
      <text x="1019.2141" xml:space="preserve" y="390.9453" clip-path="url(#clipPath2)" stroke="none">uint32 AlarmHistoryGet()</text>
      <text x="1019.2141" xml:space="preserve" y="409.0703" clip-path="url(#clipPath2)" stroke="none">uint32 AlarmHistoryClear()</text>
      <text x="1019.2141" xml:space="preserve" y="427.1953" clip-path="url(#clipPath2)" stroke="none"> </text>
      <text x="1019.2141" xml:space="preserve" y="445.3203" clip-path="url(#clipPath2)" stroke="none">/* Status */</text>
      <text x="1019.2141" xml:space="preserve" y="463.4453" clip-path="url(#clipPath2)" stroke="none">eBool PllIsLocked()</text>
      <text x="1019.2141" xml:space="preserve" y="481.5703" clip-path="url(#clipPath2)" stroke="none">eAtSerdesLinkStatus LinkStatus()</text>
      <text x="1019.2141" xml:space="preserve" y="499.6953" clip-path="url(#clipPath2)" stroke="none"> </text>
      <text x="1019.2141" xml:space="preserve" y="517.8203" clip-path="url(#clipPath2)" stroke="none">/* Interrupt mask. */</text>
      <text x="1019.2141" xml:space="preserve" y="535.9453" clip-path="url(#clipPath2)" stroke="none">eAtRet InterruptMaskSet(</text>
      <text x="1019.2141" xml:space="preserve" y="554.0703" clip-path="url(#clipPath2)" stroke="none">    uint32 alarmMask, </text>
      <text x="1019.2141" xml:space="preserve" y="572.1953" clip-path="url(#clipPath2)" stroke="none">    uint32 enableMask)</text>
      <text x="1019.2141" xml:space="preserve" y="590.3203" clip-path="url(#clipPath2)" stroke="none">uint32 InterruptMaskGet()</text>
      <text x="1019.2141" xml:space="preserve" y="608.4453" clip-path="url(#clipPath2)" stroke="none">uint32 SupportedInterruptMask()</text>
      <text x="1019.2141" xml:space="preserve" y="626.5703" clip-path="url(#clipPath2)" stroke="none"> </text>
      <text x="1019.2141" xml:space="preserve" y="644.6953" clip-path="url(#clipPath2)" stroke="none">/* Listeners */</text>
      <text x="1019.2141" xml:space="preserve" y="662.8203" clip-path="url(#clipPath2)" stroke="none">eAtRet ListenerAdd(</text>
      <text x="1019.2141" xml:space="preserve" y="680.9453" clip-path="url(#clipPath2)" stroke="none">    void *listener, </text>
      <text x="1019.2141" xml:space="preserve" y="699.0703" clip-path="url(#clipPath2)" stroke="none">    const tAtSerdesControllerListener *callback)</text>
      <text x="1019.2141" xml:space="preserve" y="717.1953" clip-path="url(#clipPath2)" stroke="none">eAtRet ListenerRemove(</text>
      <text x="1019.2141" xml:space="preserve" y="735.3203" clip-path="url(#clipPath2)" stroke="none">    void *listener, </text>
      <text x="1019.2141" xml:space="preserve" y="753.4453" clip-path="url(#clipPath2)" stroke="none">    const tAtSerdesControllerListener *callback)</text>
      <text x="1019.2141" xml:space="preserve" y="771.5703" clip-path="url(#clipPath2)" stroke="none"> </text>
      <text x="1019.2141" xml:space="preserve" y="789.6953" clip-path="url(#clipPath2)" stroke="none">/* Capability */</text>
      <text x="1019.2141" xml:space="preserve" y="807.8203" clip-path="url(#clipPath2)" stroke="none">eBool CanControlTimingMode()</text>
      <text x="1019.2141" xml:space="preserve" y="825.9453" clip-path="url(#clipPath2)" stroke="none">eBool EqualizerModeIsSupported(</text>
      <text x="1019.2141" xml:space="preserve" y="844.0703" clip-path="url(#clipPath2)" stroke="none">    eAtSerdesEqualizerMode mode)</text>
      <text x="1019.2141" xml:space="preserve" y="862.1953" clip-path="url(#clipPath2)" stroke="none">eBool EqualizerCanControl()</text>
      <text x="1019.2141" xml:space="preserve" y="880.3203" clip-path="url(#clipPath2)" stroke="none">eBool PowerCanControl()</text>
      <text x="1019.2141" xml:space="preserve" y="898.4453" clip-path="url(#clipPath2)" stroke="none">eBool CanLoopback(</text>
      <text x="1019.2141" xml:space="preserve" y="916.5703" clip-path="url(#clipPath2)" stroke="none">    eAtLoopbackMode loopbackMode, </text>
      <text x="1019.2141" xml:space="preserve" y="934.6953" clip-path="url(#clipPath2)" stroke="none">    eBool enable)</text>
      <text x="1019.2141" xml:space="preserve" y="952.8203" clip-path="url(#clipPath2)" stroke="none">eBool ModeIsSupported(</text>
      <text x="1019.2141" xml:space="preserve" y="970.9453" clip-path="url(#clipPath2)" stroke="none">    eAtSerdesMode mode)</text>
      <text x="1019.2141" xml:space="preserve" y="989.0703" clip-path="url(#clipPath2)" stroke="none"> </text>
      <text x="1019.2141" xml:space="preserve" y="1007.1953" clip-path="url(#clipPath2)" stroke="none">/* Associations */</text>
      <text x="1019.2141" xml:space="preserve" y="1025.3203" clip-path="url(#clipPath2)" stroke="none">AtChannel PhysicalPortGet()</text>
      <text x="1019.2141" xml:space="preserve" y="1043.4453" clip-path="url(#clipPath2)" stroke="none">AtPrbsEngine PrbsEngine()</text>
      <text x="1019.2141" xml:space="preserve" y="1061.5703" clip-path="url(#clipPath2)" stroke="none">AtMdio Mdio()</text>
      <text x="1019.2141" xml:space="preserve" y="1079.6953" clip-path="url(#clipPath2)" stroke="none">AtDrp Drp()</text>
      <text x="1019.2141" xml:space="preserve" y="1097.8203" clip-path="url(#clipPath2)" stroke="none"> </text>
      <text x="1019.2141" xml:space="preserve" y="1115.9453" clip-path="url(#clipPath2)" stroke="none">/* Debug */</text>
      <text x="1019.2141" xml:space="preserve" y="1134.0703" clip-path="url(#clipPath2)" stroke="none">void Debug()</text>
    </g>
    <g transform="matrix(1,0,0,1,603.0124,1169.7237)" image-rendering="optimizeQuality">
      <image x="0" y="0" clip-path="url(#clipPath18)" width="241" xlink:href="data:image/png;base64,iVBORw0KGgoAAAANSUhEUgAAAPEAAAA7CAYAAACquGzbAAAB1UlEQVR42u3dbU+r&#10;MBiA4XWiTv//fz063iyep0mzOIWN+sFcV9KAk2Gy5LYFPuxwAAAAAACA35Y2Hpc2&#10;vg/Ybr6yvTni5ZhjjFQNoG3A08X2S93KgJfjHqohYmgXcQl3zGOI16+G3K0IeIn2&#10;MY/n2HbxOtAm4hLwuRrzLRGXkJdjnvJ4SSmdYr+b59nHDTvKfZUZd8x99Xn7L341&#10;xuvTPTPxU/4DL3n7mscp3mdJDfv7XELn3t6XmTcbYiYe9rgmLkvqU+yLGNpE3Md+&#10;X12+plsjvpyRS8wihjbK/aYhmjv+1Fq39sx5Wq8fL3nMBDuL+0yb+3KXGf7I1A2I&#10;GBAxIGIQMSBiQMSAiEHEgIgBEQMiBhEDIgZEDIgYRAyIGBAxIGIQMSBiQMQgYh8B&#10;iBgQMSBiEDEgYkDEwDbdhmPniwHsb3Nn3cqTTjHGw/9vMPcl49DGWI3S3XxPxOW/&#10;wXLCPo9zHg9xYhFDm4iH6G2In7+dlbsNAb/HNfQUIYsY9ldWvOdorg75ppm4PmGK&#10;/beIGGhzTTxVK9/zPRGXmXiogu5jNnZXG9pFXEIeqpl4uvaGNUviYxx3rPYtpeF3&#10;Qv7x5tbaGNMXxwsZ2gR8ue+RLgAAAAB/zweFZocjlNQOIgAAAABJRU5ErkJggg==" height="59" preserveAspectRatio="none"/>
    </g>
    <g fill="white" stroke-width="2" stroke-miterlimit="1.45" transform="matrix(1,0,0,1,50,265)" stroke-linecap="butt" stroke="white">
      <path d="M561.0124 912.7238 L781.0317 912.7238 L781.0317 951.1237 L561.0124 951.1237 Z" clip-path="url(#clipPath2)" stroke="none"/>
      <path fill="none" d="M561.0124 912.7238 L781.0317 912.7238 L781.0317 951.1237 L561.0124 951.1237 Z" clip-path="url(#clipPath2)" stroke="rgb(153,51,204)"/>
    </g>
    <g font-size="20" stroke-linecap="butt" transform="matrix(1,0,0,1,50,265)" fill="rgb(153,51,204)" font-family="'Courier New'" stroke="rgb(153,51,204)" font-weight="bold" stroke-miterlimit="1.45">
      <text x="599.0103" xml:space="preserve" y="937.246" clip-path="url(#clipPath2)" stroke="none">AtPrbsEngine</text>
    </g>
    <g transform="matrix(1,0,0,1,603.0124,1218.1237)" image-rendering="optimizeQuality">
      <image x="0" y="0" clip-path="url(#clipPath19)" width="241" xlink:href="data:image/png;base64,iVBORw0KGgoAAAANSUhEUgAAAPEAAAA7CAYAAACquGzbAAAB1UlEQVR42u3dbU+r&#10;MBiA4XWiTv//fz063iyep0mzOIWN+sFcV9KAk2Gy5LYFPuxwAAAAAACA35Y2Hpc2&#10;vg/Ybr6yvTni5ZhjjFQNoG3A08X2S93KgJfjHqohYmgXcQl3zGOI16+G3K0IeIn2&#10;MY/n2HbxOtAm4hLwuRrzLRGXkJdjnvJ4SSmdYr+b59nHDTvKfZUZd8x99Xn7L341&#10;xuvTPTPxU/4DL3n7mscp3mdJDfv7XELn3t6XmTcbYiYe9rgmLkvqU+yLGNpE3Md+&#10;X12+plsjvpyRS8wihjbK/aYhmjv+1Fq39sx5Wq8fL3nMBDuL+0yb+3KXGf7I1A2I&#10;GBAxIGIQMSBiQMSAiEHEgIgBEQMiBhEDIgZEDIgYRAyIGBAxIGIQMSBiQMQgYh8B&#10;iBgQMSBiEDEgYkDEwDbdhmPniwHsb3Nn3cqTTjHGw/9vMPcl49DGWI3S3XxPxOW/&#10;wXLCPo9zHg9xYhFDm4iH6G2In7+dlbsNAb/HNfQUIYsY9ldWvOdorg75ppm4PmGK&#10;/beIGGhzTTxVK9/zPRGXmXiogu5jNnZXG9pFXEIeqpl4uvaGNUviYxx3rPYtpeF3&#10;Qv7x5tbaGNMXxwsZ2gR8ue+RLgAAAAB/zweFZocjlNQOIgAAAABJRU5ErkJggg==" height="59" preserveAspectRatio="none"/>
    </g>
    <g fill="white" stroke-width="2" stroke-miterlimit="1.45" transform="matrix(1,0,0,1,50,265)" stroke-linecap="butt" stroke="white">
      <path d="M561.0124 961.1237 L781.0317 961.1237 L781.0317 999.5237 L561.0124 999.5237 Z" clip-path="url(#clipPath2)" stroke="none"/>
      <path fill="none" d="M561.0124 961.1237 L781.0317 961.1237 L781.0317 999.5237 L561.0124 999.5237 Z" clip-path="url(#clipPath2)" stroke="rgb(153,51,204)"/>
    </g>
    <g font-size="20" stroke-linecap="butt" transform="matrix(1,0,0,1,50,265)" fill="rgb(153,51,204)" font-family="'Courier New'" stroke="rgb(153,51,204)" font-weight="bold" stroke-miterlimit="1.45">
      <text x="617.0132" xml:space="preserve" y="985.646" clip-path="url(#clipPath2)" stroke="none">AtChannel</text>
    </g>
    <g transform="matrix(1,0,0,1,603.0124,1266.5237)" image-rendering="optimizeQuality">
      <image x="0" y="0" clip-path="url(#clipPath20)" width="241" xlink:href="data:image/png;base64,iVBORw0KGgoAAAANSUhEUgAAAPEAAAA7CAYAAACquGzbAAAB1UlEQVR42u3dbU+r&#10;MBiA4XWiTv//fz063iyep0mzOIWN+sFcV9KAk2Gy5LYFPuxwAAAAAACA35Y2Hpc2&#10;vg/Ybr6yvTni5ZhjjFQNoG3A08X2S93KgJfjHqohYmgXcQl3zGOI16+G3K0IeIn2&#10;MY/n2HbxOtAm4hLwuRrzLRGXkJdjnvJ4SSmdYr+b59nHDTvKfZUZd8x99Xn7L341&#10;xuvTPTPxU/4DL3n7mscp3mdJDfv7XELn3t6XmTcbYiYe9rgmLkvqU+yLGNpE3Md+&#10;X12+plsjvpyRS8wihjbK/aYhmjv+1Fq39sx5Wq8fL3nMBDuL+0yb+3KXGf7I1A2I&#10;GBAxIGIQMSBiQMSAiEHEgIgBEQMiBhEDIgZEDIgYRAyIGBAxIGIQMSBiQMQgYh8B&#10;iBgQMSBiEDEgYkDEwDbdhmPniwHsb3Nn3cqTTjHGw/9vMPcl49DGWI3S3XxPxOW/&#10;wXLCPo9zHg9xYhFDm4iH6G2In7+dlbsNAb/HNfQUIYsY9ldWvOdorg75ppm4PmGK&#10;/beIGGhzTTxVK9/zPRGXmXiogu5jNnZXG9pFXEIeqpl4uvaGNUviYxx3rPYtpeF3&#10;Qv7x5tbaGNMXxwsZ2gR8ue+RLgAAAAB/zweFZocjlNQOIgAAAABJRU5ErkJggg==" height="59" preserveAspectRatio="none"/>
    </g>
    <g fill="white" stroke-width="2" stroke-miterlimit="1.45" transform="matrix(1,0,0,1,50,265)" stroke-linecap="butt" stroke="white">
      <path d="M561.0124 1009.5237 L781.0317 1009.5237 L781.0317 1047.9237 L561.0124 1047.9237 Z" clip-path="url(#clipPath2)" stroke="none"/>
      <path fill="none" d="M561.0124 1009.5237 L781.0317 1009.5237 L781.0317 1047.9237 L561.0124 1047.9237 Z" clip-path="url(#clipPath2)" stroke="rgb(153,51,204)"/>
    </g>
    <g font-size="20" stroke-linecap="butt" transform="matrix(1,0,0,1,50,265)" fill="rgb(153,51,204)" font-family="'Courier New'" stroke="rgb(153,51,204)" font-weight="bold" stroke-miterlimit="1.45">
      <text x="635.0162" xml:space="preserve" y="1034.046" clip-path="url(#clipPath2)" stroke="none">AtMdio</text>
    </g>
    <g transform="matrix(1,0,0,1,603.0124,1319.3912)" image-rendering="optimizeQuality">
      <image x="0" y="0" clip-path="url(#clipPath21)" width="241" xlink:href="data:image/png;base64,iVBORw0KGgoAAAANSUhEUgAAAPEAAAA7CAYAAACquGzbAAAB1UlEQVR42u3dbU+r&#10;MBiA4XWiTv//fz063iyep0mzOIWN+sFcV9KAk2Gy5LYFPuxwAAAAAACA35Y2Hpc2&#10;vg/Ybr6yvTni5ZhjjFQNoG3A08X2S93KgJfjHqohYmgXcQl3zGOI16+G3K0IeIn2&#10;MY/n2HbxOtAm4hLwuRrzLRGXkJdjnvJ4SSmdYr+b59nHDTvKfZUZd8x99Xn7L341&#10;xuvTPTPxU/4DL3n7mscp3mdJDfv7XELn3t6XmTcbYiYe9rgmLkvqU+yLGNpE3Md+&#10;X12+plsjvpyRS8wihjbK/aYhmjv+1Fq39sx5Wq8fL3nMBDuL+0yb+3KXGf7I1A2I&#10;GBAxIGIQMSBiQMSAiEHEgIgBEQMiBhEDIgZEDIgYRAyIGBAxIGIQMSBiQMQgYh8B&#10;iBgQMSBiEDEgYkDEwDbdhmPniwHsb3Nn3cqTTjHGw/9vMPcl49DGWI3S3XxPxOW/&#10;wXLCPo9zHg9xYhFDm4iH6G2In7+dlbsNAb/HNfQUIYsY9ldWvOdorg75ppm4PmGK&#10;/beIGGhzTTxVK9/zPRGXmXiogu5jNnZXG9pFXEIeqpl4uvaGNUviYxx3rPYtpeF3&#10;Qv7x5tbaGNMXxwsZ2gR8ue+RLgAAAAB/zweFZocjlNQOIgAAAABJRU5ErkJggg==" height="59" preserveAspectRatio="none"/>
    </g>
    <g fill="white" stroke-width="2" stroke-miterlimit="1.45" transform="matrix(1,0,0,1,50,265)" stroke-linecap="butt" stroke="white">
      <path d="M561.0124 1062.3912 L781.0317 1062.3912 L781.0317 1100.7913 L561.0124 1100.7913 Z" clip-path="url(#clipPath2)" stroke="none"/>
      <path fill="none" d="M561.0124 1062.3912 L781.0317 1062.3912 L781.0317 1100.7913 L561.0124 1100.7913 Z" clip-path="url(#clipPath2)" stroke="rgb(153,51,204)"/>
    </g>
    <g font-size="20" stroke-linecap="butt" transform="matrix(1,0,0,1,50,265)" fill="rgb(153,51,204)" font-family="'Courier New'" stroke="rgb(153,51,204)" font-weight="bold" stroke-miterlimit="1.45">
      <text x="641.0172" xml:space="preserve" y="1086.9135" clip-path="url(#clipPath2)" stroke="none">AtDrp</text>
    </g>
    <g transform="matrix(1,0,0,1,683.6374,722.9883)" image-rendering="optimizeQuality">
      <image x="0" y="0" clip-path="url(#clipPath22)" width="198" xlink:href="data:image/png;base64,iVBORw0KGgoAAAANSUhEUgAAAMYAAAA7CAYAAAAgl/WaAAAB6UlEQVR42u3d7W6b&#10;MBiAUZOyLt393+uaj+IZzdbesbQFNHX1co5kBUWUHxVPDESKUwIAAACAjzZs3G/Y&#10;+HfwmeRXXneFMe9zqGMIA3qNYlq8/mFcGcW830MYwqDHMFoML2Vc6/s34xhXRDGH&#10;8KWMr/V1rO9Db2FMNYhz+HDPW8Noccz7PJbxNAzDsW6POWf/avq4kR6GFGaKczl3&#10;v4fZ4mXrpVScMR7LwZ/K67cyjvXvXE7R42zxXM7l0kZezhy77zHa5dSxbguD3sK4&#10;1O1z/cA/7A1jOXO0QIRBj2Hk9OtB0uGtc3hcfeSc46Naj2zpp4qf525Ov3/l8CZP&#10;l7i3mWMVYXBvQeQ1gQgDhAHCAGGAMEAYIAwQBggDhAHCAGGAMEAYgDBAGCAMEAYI&#10;A4QBwgBhgDBAGCAMEAYIA/5fftQZQgwpbfiFfmFwD95dvnhp3HjwOKCnMOKqrflv&#10;hNEOFpeBtXAMvYXRzt8pjLw3jFbZfMB5/bK2dtkkDDoM41LHNYSRt4axjOJU70mm&#10;Gocw6Elc4/tUz+lpTxgpTD9t2dd5+7mGAb3NGu1W4BRmjt0zxjVEcqmzhqdZ9HoD&#10;3uK41u2bYay5HGorXR7ShlUv4RPH8e4N+NoT/NYXJOKgtyiW2752AAAAgH/lBztl&#10;ki8uSVnXAAAAAElFTkSuQmCC" height="59" preserveAspectRatio="none"/>
    </g>
    <g fill="white" stroke-width="2" stroke-miterlimit="1.45" transform="matrix(1,0,0,1,50,265)" stroke-linecap="butt" stroke="white">
      <path d="M641.6374 465.9883 L819.5473 465.9883 L819.5473 504.3883 L641.6374 504.3883 Z" clip-path="url(#clipPath2)" stroke="none"/>
      <path fill="none" d="M641.6374 465.9883 L819.5473 465.9883 L819.5473 504.3883 L641.6374 504.3883 Z" clip-path="url(#clipPath2)" stroke="rgb(153,51,204)"/>
    </g>
    <g font-size="20" stroke-linecap="butt" transform="matrix(1,0,0,1,50,265)" fill="rgb(153,51,204)" font-family="'Courier New'" stroke="rgb(153,51,204)" font-weight="bold" stroke-miterlimit="1.45">
      <text x="682.5845" xml:space="preserve" y="490.5106" clip-path="url(#clipPath2)" stroke="none">AtObject</text>
    </g>
    <g transform="matrix(1,0,0,1,364.2297,408.1564)" image-rendering="optimizeQuality">
      <image x="0" y="0" clip-path="url(#clipPath23)" width="198" xlink:href="data:image/png;base64,iVBORw0KGgoAAAANSUhEUgAAAMYAAAA7CAYAAAAgl/WaAAAB6UlEQVR42u3d7W6b&#10;MBiAUZOyLt393+uaj+IZzdbesbQFNHX1co5kBUWUHxVPDESKUwIAAACAjzZs3G/Y&#10;+HfwmeRXXneFMe9zqGMIA3qNYlq8/mFcGcW830MYwqDHMFoML2Vc6/s34xhXRDGH&#10;8KWMr/V1rO9Db2FMNYhz+HDPW8Noccz7PJbxNAzDsW6POWf/avq4kR6GFGaKczl3&#10;v4fZ4mXrpVScMR7LwZ/K67cyjvXvXE7R42zxXM7l0kZezhy77zHa5dSxbguD3sK4&#10;1O1z/cA/7A1jOXO0QIRBj2Hk9OtB0uGtc3hcfeSc46Naj2zpp4qf525Ov3/l8CZP&#10;l7i3mWMVYXBvQeQ1gQgDhAHCAGGAMEAYIAwQBggDhAHCAGGAMEAYgDBAGCAMEAYI&#10;A4QBwgBhgDBAGCAMEAYIA/5fftQZQgwpbfiFfmFwD95dvnhp3HjwOKCnMOKqrflv&#10;hNEOFpeBtXAMvYXRzt8pjLw3jFbZfMB5/bK2dtkkDDoM41LHNYSRt4axjOJU70mm&#10;Gocw6Elc4/tUz+lpTxgpTD9t2dd5+7mGAb3NGu1W4BRmjt0zxjVEcqmzhqdZ9HoD&#10;3uK41u2bYay5HGorXR7ShlUv4RPH8e4N+NoT/NYXJOKgtyiW2752AAAAgH/lBztl&#10;ki8uSVnXAAAAAElFTkSuQmCC" height="59" preserveAspectRatio="none"/>
    </g>
    <g fill="white" stroke-width="2" stroke-miterlimit="1.45" transform="matrix(1,0,0,1,50,265)" stroke-linecap="butt" stroke="white">
      <path d="M322.2297 151.1564 L500.1397 151.1564 L500.1397 189.5564 L322.2297 189.5564 Z" clip-path="url(#clipPath2)" stroke="none"/>
      <path fill="none" d="M322.2297 151.1564 L500.1397 151.1564 L500.1397 189.5564 L322.2297 189.5564 Z" clip-path="url(#clipPath2)" stroke="rgb(153,51,204)"/>
    </g>
    <g font-size="20" stroke-linecap="butt" transform="matrix(1,0,0,1,50,265)" fill="rgb(153,51,204)" font-family="'Courier New'" stroke="rgb(153,51,204)" font-weight="bold" stroke-miterlimit="1.45">
      <text x="363.1769" xml:space="preserve" y="175.6787" clip-path="url(#clipPath2)" stroke="none">AtObject</text>
    </g>
    <g stroke-linecap="butt" transform="matrix(1,0,0,1,50,265)" stroke-miterlimit="1.45">
      <path fill="none" d="M527.0057 321.1564 L399.1443 321.1564" clip-path="url(#clipPath2)"/>
    </g>
    <g stroke-linecap="butt" transform="matrix(1,0,0,1,50,265)" stroke-miterlimit="1.45">
      <path d="M391.1443 321.1564 L403.1443 326.1564 L400.1443 321.1564 L403.1443 316.1564 Z" clip-path="url(#clipPath2)" stroke="none"/>
      <rect x="438.7236" y="312.09" clip-path="url(#clipPath2)" fill="white" width="40.75" height="18.1328" stroke="none"/>
      <text x="440.7235" xml:space="preserve" y="325.6916" font-family="sans-serif" clip-path="url(#clipPath2)" stroke="none">device</text>
      <path fill="none" d="M398.207 277.1564 L519.0523 277.1564" clip-path="url(#clipPath2)"/>
      <path fill="white" d="M391.207 277.1564 L398.207 272.1564 L405.207 277.1564 L398.207 282.1564 Z" clip-path="url(#clipPath2)" stroke="none"/>
      <path fill="none" d="M391.207 277.1564 L398.207 272.1564 L405.207 277.1564 L398.207 282.1564 Z" clip-path="url(#clipPath2)"/>
      <path d="M527.0523 277.1564 L515.0523 272.1564 L518.0523 277.1564 L515.0523 282.1564 Z" clip-path="url(#clipPath2)" stroke="none"/>
      <text x="415.0067" xml:space="preserve" y="292.758" font-family="sans-serif" clip-path="url(#clipPath2)" stroke="none">serdesManager</text>
      <path fill="none" d="M119.6667 485.1198 L119.6667 549.0972" clip-path="url(#clipPath2)"/>
      <path fill="white" d="M119.6667 478.1198 L124.6667 485.1198 L119.6667 492.1198 L114.6667 485.1198 Z" clip-path="url(#clipPath2)" stroke="none"/>
      <path fill="none" d="M119.6667 478.1198 L124.6667 485.1198 L119.6667 492.1198 L114.6667 485.1198 Z" clip-path="url(#clipPath2)"/>
      <path d="M119.6667 557.0972 L124.6667 545.0972 L119.6667 548.0972 L114.6667 545.0972 Z" clip-path="url(#clipPath2)" stroke="none"/>
      <rect x="43.3932" y="508.5464" clip-path="url(#clipPath2)" fill="white" width="92.5469" height="18.1328" stroke="none"/>
      <text x="45.3932" xml:space="preserve" y="522.1479" font-family="sans-serif" clip-path="url(#clipPath2)" stroke="none">semControllers</text>
      <path fill="none" d="M178.4381 557.1227 L178.4381 486.1346" clip-path="url(#clipPath2)"/>
      <path d="M178.4381 478.1346 L173.4381 490.1346 L178.4381 487.1346 L183.4381 490.1346 Z" clip-path="url(#clipPath2)" stroke="none"/>
      <rect x="158.0631" y="512.7822" clip-path="url(#clipPath2)" fill="white" width="40.75" height="18.1328" stroke="none"/>
      <text x="160.0631" xml:space="preserve" y="526.3838" font-family="sans-serif" clip-path="url(#clipPath2)" stroke="none">device</text>
      <path fill="none" d="M478.8288 711.6215 L553.0458 711.6215" clip-path="url(#clipPath2)"/>
      <path fill="white" d="M471.8288 711.6215 L478.8288 706.6215 L485.8288 711.6215 L478.8288 716.6215 Z" clip-path="url(#clipPath2)" stroke="none"/>
      <path fill="none" d="M471.8288 711.6215 L478.8288 706.6215 L485.8288 711.6215 L478.8288 716.6215 Z" clip-path="url(#clipPath2)"/>
      <path d="M561.0458 711.6215 L549.0458 706.6215 L552.0458 711.6215 L549.0458 716.6215 Z" clip-path="url(#clipPath2)" stroke="none"/>
      <rect x="502.6956" y="702.555" clip-path="url(#clipPath2)" fill="white" width="27.4727" height="18.1328" stroke="none"/>
      <text x="504.6956" xml:space="preserve" y="716.1566" font-family="sans-serif" clip-path="url(#clipPath2)" stroke="none">uart</text>
      <path fill="none" d="M178.4381 212.5351 L178.4381 145.0166" clip-path="url(#clipPath2)"/>
      <path fill="white" d="M178.4381 219.5351 L173.4381 212.5351 L178.4381 205.5351 L183.4381 212.5351 Z" clip-path="url(#clipPath2)" stroke="none"/>
      <path fill="none" d="M178.4381 219.5351 L173.4381 212.5351 L178.4381 205.5351 L183.4381 212.5351 Z" clip-path="url(#clipPath2)"/>
      <path d="M178.4381 137.0166 L173.4381 149.0166 L178.4381 146.0166 L183.4381 149.0166 Z" clip-path="url(#clipPath2)" stroke="none"/>
      <rect x="134.526" y="167.4294" clip-path="url(#clipPath2)" fill="white" width="87.8242" height="18.1328" stroke="none"/>
      <text x="136.526" xml:space="preserve" y="181.031" font-family="sans-serif" clip-path="url(#clipPath2)" stroke="none">thermalSensor</text>
      <path fill="none" d="M353.9857 -230.0163 L511.9802 -229.8417" clip-path="url(#clipPath2)"/>
      <path fill="white" d="M526.9802 -229.8251 L510.9868 -235.8428 L510.9735 -223.8428 Z" clip-path="url(#clipPath2)" stroke="none"/>
      <path fill="none" d="M526.9802 -229.8251 L510.9868 -235.8428 L510.9735 -223.8428 Z" clip-path="url(#clipPath2)"/>
      <path fill="none" d="M730.5923 397.522 L730.5923 427.4915 L981.3512 427.4915" clip-path="url(#clipPath2)"/>
      <path fill="white" d="M730.5923 390.522 L735.5923 397.522 L730.5923 404.522 L725.5923 397.522 Z" clip-path="url(#clipPath2)" stroke="none"/>
      <path fill="none" d="M730.5923 390.522 L735.5923 397.522 L730.5923 404.522 L725.5923 397.522 Z" clip-path="url(#clipPath2)"/>
      <path d="M989.3512 427.4915 L977.3512 422.4915 L980.3512 427.4915 L977.3512 432.4915 Z" clip-path="url(#clipPath2)" stroke="none"/>
      <rect x="819.1627" y="418.4251" clip-path="url(#clipPath2)" fill="white" width="106.6094" height="18.1328" stroke="none"/>
      <text x="821.1627" xml:space="preserve" y="432.0266" font-family="sans-serif" clip-path="url(#clipPath2)" stroke="none">serdesControllers</text>
      <path fill="none" d="M989.3086 931.9238 L789.0159 931.9238" clip-path="url(#clipPath2)"/>
      <path d="M781.0159 931.9238 L793.0159 936.9238 L790.0159 931.9238 L793.0159 926.9238 Z" clip-path="url(#clipPath2)" stroke="none"/>
      <rect x="850.5985" y="922.8573" clip-path="url(#clipPath2)" fill="white" width="69.168" height="18.1328" stroke="none"/>
      <text x="852.5985" xml:space="preserve" y="936.4589" font-family="sans-serif" clip-path="url(#clipPath2)" stroke="none">prbsEngine</text>
      <path fill="none" d="M989.3086 980.3237 L789.0159 980.3237" clip-path="url(#clipPath2)"/>
      <path d="M781.0159 980.3237 L793.0159 985.3237 L790.0159 980.3237 L793.0159 975.3237 Z" clip-path="url(#clipPath2)" stroke="none"/>
      <rect x="847.9325" y="971.2573" clip-path="url(#clipPath2)" fill="white" width="74.5" height="18.1328" stroke="none"/>
      <text x="849.9325" xml:space="preserve" y="984.8589" font-family="sans-serif" clip-path="url(#clipPath2)" stroke="none">physicalPort</text>
      <path fill="none" d="M989.3086 1028.7238 L789.0159 1028.7238" clip-path="url(#clipPath2)"/>
      <path d="M781.0159 1028.7238 L793.0159 1033.7238 L790.0159 1028.7238 L793.0159 1023.7238 Z" clip-path="url(#clipPath2)" stroke="none"/>
      <rect x="868.3847" y="1019.6573" clip-path="url(#clipPath2)" fill="white" width="33.5957" height="18.1328" stroke="none"/>
      <text x="870.3846" xml:space="preserve" y="1033.2589" font-family="sans-serif" clip-path="url(#clipPath2)" stroke="none">mdio</text>
      <path fill="none" d="M989.3086 1081.5912 L789.0159 1081.5912" clip-path="url(#clipPath2)"/>
      <path d="M781.0159 1081.5912 L793.0159 1086.5912 L790.0159 1081.5912 L793.0159 1076.5912 Z" clip-path="url(#clipPath2)" stroke="none"/>
      <rect x="873.1747" y="1072.5248" clip-path="url(#clipPath2)" fill="white" width="24.0156" height="18.1328" stroke="none"/>
      <text x="875.1747" xml:space="preserve" y="1086.1263" font-family="sans-serif" clip-path="url(#clipPath2)" stroke="none">drp</text>
      <path fill="none" d="M989.3512 485.1883 L834.5723 485.1883" clip-path="url(#clipPath2)"/>
      <path fill="white" d="M819.5723 485.1883 L835.5723 491.1883 L835.5723 479.1883 Z" clip-path="url(#clipPath2)" stroke="none"/>
      <path fill="none" d="M819.5723 485.1883 L835.5723 491.1883 L835.5723 479.1883 Z" clip-path="url(#clipPath2)"/>
      <path fill="none" d="M730.5923 557.1304 L730.5923 519.3688" clip-path="url(#clipPath2)"/>
      <path fill="white" d="M730.5923 504.3688 L724.5923 520.3688 L736.5923 520.3688 Z" clip-path="url(#clipPath2)" stroke="none"/>
      <path fill="none" d="M730.5923 504.3688 L724.5923 520.3688 L736.5923 520.3688 Z" clip-path="url(#clipPath2)"/>
      <path fill="none" d="M433.5715 557.1407 L433.5715 485.1883 L626.6529 485.1883" clip-path="url(#clipPath2)"/>
      <path fill="white" d="M641.6529 485.1883 L625.6529 479.1883 L625.6529 491.1883 Z" clip-path="url(#clipPath2)" stroke="none"/>
      <path fill="none" d="M641.6529 485.1883 L625.6529 479.1883 L625.6529 491.1883 Z" clip-path="url(#clipPath2)"/>
      <path fill="none" d="M527.0246 170.3564 L515.1292 170.3564" clip-path="url(#clipPath2)"/>
      <path fill="white" d="M500.1292 170.3564 L516.1292 176.3564 L516.1292 164.3564 Z" clip-path="url(#clipPath2)" stroke="none"/>
      <path fill="none" d="M500.1292 170.3564 L516.1292 176.3564 L516.1292 164.3564 Z" clip-path="url(#clipPath2)"/>
      <path fill="none" d="M730.5923 257.9398 L730.5923 223.7565 L411.1847 223.7565 L411.1847 204.5732" clip-path="url(#clipPath2)"/>
      <path fill="white" d="M411.1847 189.5732 L405.1847 205.5732 L417.1847 205.5732 Z" clip-path="url(#clipPath2)" stroke="none"/>
      <path fill="none" d="M411.1847 189.5732 L405.1847 205.5732 L417.1847 205.5732 Z" clip-path="url(#clipPath2)"/>
    </g>
  </g>
</svg>
