<?xml version="1.0" encoding="UTF-8"?><svg xmlns="http://www.w3.org/2000/svg" xmlns:xlink="http://www.w3.org/1999/xlink" fill-opacity="1" color-rendering="auto" color-interpolation="auto" stroke="black" text-rendering="auto" stroke-linecap="square" width="1012" stroke-miterlimit="10" stroke-opacity="1" shape-rendering="auto" fill="black" stroke-dasharray="none" font-weight="normal" stroke-width="1" height="1301" font-family="'Dialog'" font-style="normal" stroke-linejoin="miter" font-size="12" stroke-dashoffset="0" image-rendering="auto">
  <!--Generated by ySVG 2.5-->
  <defs id="genericDefs"/>
  <g>
    <defs id="defs1">
      <clipPath clipPathUnits="userSpaceOnUse" id="clipPath1">
        <path d="M0 0 L1012 0 L1012 1301 L0 1301 L0 0 Z"/>
      </clipPath>
      <clipPath clipPathUnits="userSpaceOnUse" id="clipPath2">
        <path d="M533 -7 L1545 -7 L1545 1294 L533 1294 L533 -7 Z"/>
      </clipPath>
      <clipPath clipPathUnits="userSpaceOnUse" id="clipPath3">
        <path d="M-0.0939 -94.3628 L594.108 -94.3628 L594.108 669.5272 L-0.0939 669.5272 L-0.0939 -94.3628 Z"/>
      </clipPath>
      <clipPath clipPathUnits="userSpaceOnUse" id="clipPath4">
        <path d="M-0.0939 -116.9096 L594.108 -116.9096 L594.108 646.9803 L-0.0939 646.9803 L-0.0939 -116.9096 Z"/>
      </clipPath>
      <clipPath clipPathUnits="userSpaceOnUse" id="clipPath5">
        <path d="M-281.2931 -108.4852 L273.465 -108.4852 L273.465 604.6968 L-281.2931 604.6968 L-281.2931 -108.4852 Z"/>
      </clipPath>
      <clipPath clipPathUnits="userSpaceOnUse" id="clipPath6">
        <path d="M-281.2931 -242.4895 L273.465 -242.4895 L273.465 470.6925 L-281.2931 470.6925 L-281.2931 -242.4895 Z"/>
      </clipPath>
      <clipPath clipPathUnits="userSpaceOnUse" id="clipPath7">
        <path d="M-281.2931 -87.435 L273.465 -87.435 L273.465 625.7469 L-281.2931 625.7469 L-281.2931 -87.435 Z"/>
      </clipPath>
      <clipPath clipPathUnits="userSpaceOnUse" id="clipPath8">
        <path d="M-78.5789 -6.3387 L853.3348 -6.3387 L853.3348 1191.7045 L-78.5789 1191.7045 L-78.5789 -6.3387 Z"/>
      </clipPath>
      <clipPath clipPathUnits="userSpaceOnUse" id="clipPath9">
        <path d="M-78.5789 -609.0007 L853.3348 -609.0007 L853.3348 589.0424 L-78.5789 589.0424 L-78.5789 -609.0007 Z"/>
      </clipPath>
      <clipPath clipPathUnits="userSpaceOnUse" id="clipPath10">
        <path d="M-78.5789 -41.6999 L853.3348 -41.6999 L853.3348 1156.3433 L-78.5789 1156.3433 L-78.5789 -41.6999 Z"/>
      </clipPath>
      <clipPath clipPathUnits="userSpaceOnUse" id="clipPath11">
        <path d="M-78.5789 -644.3619 L853.3348 -644.3619 L853.3348 553.6813 L-78.5789 553.6813 L-78.5789 -644.3619 Z"/>
      </clipPath>
      <clipPath clipPathUnits="userSpaceOnUse" id="clipPath12">
        <path d="M-514.9208 -699.826 L348.6526 -699.826 L348.6526 410.3606 L-514.9208 410.3606 L-514.9208 -699.826 Z"/>
      </clipPath>
      <clipPath clipPathUnits="userSpaceOnUse" id="clipPath13">
        <path d="M-379.7927 -550.2055 L261.4747 -550.2055 L261.4747 274.1905 L-379.7927 274.1905 L-379.7927 -550.2055 Z"/>
      </clipPath>
    </defs>
    <g text-rendering="optimizeQuality" shape-rendering="geometricPrecision" transform="matrix(1.7031,0,0,1.7031,0.1599,160.7116)" image-rendering="optimizeQuality">
      <image x="0" y="0" clip-path="url(#clipPath3)" width="276" xlink:href="data:image/png;base64,iVBORw0KGgoAAAANSUhEUgAAARQAAAAqCAYAAAByd6QQAAABsElEQVR42u3d3UrD&#13;&#10;MBiA4XSrP+j9X6vYrc4OvuDnwVyzeaDp80BwyjZB6EvSSVIKAAAAAAAA/8/Q8Lyh&#13;&#10;8TVAH07p6+meoAxp7GIMogKbC8lHGhejMq4Iyi6edx77FBWgfzUi8zKOMS5GZVwx&#13;&#10;Ozk/53EZT8t4iO93/s6wiRnKR0RkWsZ7WvY0B6VEOPYRlJdlPEdU9mYpsInZyRwx&#13;&#10;eUuBmW9Z8uTlzmPE5DUej4ICmwjKIa73Uzyefrr2W+6h1GVPXfoICvRtjtVIiZBc&#13;&#10;vYc6rnjTIS199uXrBq2gQN+GmJms/kBmvOEX5AH0HZSm69ynNcCvERRAUABBAQQF&#13;&#10;QFAAQQEEBRAUAEEBBAUQFABBAQQF+Gdaty/4cT9JoCvN1/vY8KZ592s730P/5rLy&#13;&#10;+Iy1QakxOb/xIcYufiYo0H9QjnHdH1Ng7gpKjUnd+bruMyko0Ld8hMZUrpzJcy0o&#13;&#10;+UyO95iZnB8/WPLAZoIypwZM12Ypa4NSN6udyteRpEDf8r3TQ1r63HwUaV3y1PWU&#13;&#10;s41he1E5le83aC8GZU0YhvR1aHgd0EdQclj8ywgAAAAAwF/xCQardRUAq33ZAAAA&#13;&#10;AElFTkSuQmCC" height="42" preserveAspectRatio="none"/>
      <path fill="white" d="M548.1912 168.7428 L984.1497 168.7428 L984.1497 207.1428 L548.1912 207.1428 Z" clip-path="url(#clipPath2)" transform="matrix(0.5872,0,0,0.5872,-313.048,-90.2527)" image-rendering="auto" stroke="none"/>
    </g>
    <g stroke-linecap="butt" transform="matrix(1,0,0,1,-533,7)" fill="rgb(153,51,204)" text-rendering="optimizeQuality" shape-rendering="geometricPrecision" stroke="rgb(153,51,204)" stroke-width="2" stroke-miterlimit="1.45">
      <path fill="none" d="M548.1912 168.7428 L984.1497 168.7428 L984.1497 207.1428 L548.1912 207.1428 Z" clip-path="url(#clipPath2)"/>
    </g>
    <g font-size="20" stroke-linecap="butt" transform="matrix(1,0,0,1,-533,7)" fill="rgb(153,51,204)" text-rendering="optimizeQuality" font-family="'Courier New'" shape-rendering="geometricPrecision" stroke="rgb(153,51,204)" font-weight="bold" stroke-miterlimit="1.45">
      <text x="652.1519" xml:space="preserve" y="193.2651" clip-path="url(#clipPath2)" stroke="none">AtEyeScanController</text>
    </g>
    <g text-rendering="optimizeQuality" shape-rendering="geometricPrecision" transform="matrix(1.7031,0,0,1.7031,0.1599,199.1116)" image-rendering="optimizeQuality">
      <image x="0" y="0" clip-path="url(#clipPath4)" width="276" xlink:href="data:image/png;base64,iVBORw0KGgoAAAANSUhEUgAAARQAAAD1CAYAAACRHwrqAAADiElEQVR42u3ZiWqD&#13;&#10;QBRA0XHpQvv/31piotbAkwyBJGpCoc458GgCxoLgZUZTAgAAAAAA4P+pVhxXrfwN&#13;&#10;sA9j9nd8JihVNnVMJSpQXEiGbG5GpV0QlDqOO0+TRQXYvzki/TSnmJtRaResTs7H&#13;&#10;vE/zMc1bfK9dZyhihTJERLppDtm2Z3VQUoSjiaB8TfMZUWmsUqCI1UkfMfnJAtNv&#13;&#10;2fLk2533iMl3fG4FBYoIyjHu9zE+d/fu/TXPUOZtz7z1ERTYtz52IylC8vAZarvg&#13;&#10;pFW29WnS5QGtoMC+VbEyWfxCpt3wD/IB9h2UVfe5tzXAywgKICiAoACCAiAogKAA&#13;&#10;ggIICoCgAIICCAqAoACCAggKICgAggIICiAoAIICCAogKICgAAgKICiAoAAICiAo&#13;&#10;gKAAggIgKICgAIICICiAoACCAggKgKAAggIICoCgAIICCAogKACCAggKICgAggII&#13;&#10;CiAogKAACAogKICgAILiEgCCAggKICgAggIICiAogKAACAogKICgAAgKICiAoACC&#13;&#10;AiAogKAAggIgKICgAIICCAqAoACCAggKgKAAggIICiAoAIICCAogKACCAggKICiA&#13;&#10;oAAICiAogKAACAogKICgAIICICiAoACCAiAogKAAggIICoCgAIICCAogKACCAggK&#13;&#10;ICgAggIICiAogKAACAogKICgAAgKICiAoACCAiAogKAAggIgKICgAIICCAqAoACC&#13;&#10;AggKgKAAggIICiAoAIICCAogKACCAggKICiAoAAICiAogKAACAogKICgAIICICiA&#13;&#10;oACCAiAogKAAggIICoCgAIICCAogKACCAggKICgAggIICiAogKAACAogKICgAAgK&#13;&#10;ICiAoACCAiAogKAAggIgKICgAIICCAqAoACCAggKgKAAggIICiAoAIICCAogKACC&#13;&#10;AggKICiAoAAICiAogKAACAogKICgAIICICiAoACCAiAogKAAggIICoCgAIICCAog&#13;&#10;KACCAggKICgA97Urjh2zGaapXD7YteHqvn9JUOaA9NOcYpKgQBFBOcW9P2SB2RyU&#13;&#10;MTvpcZouQtK71lBMULq4//tHUWkXrkzOJztETM6fGysUKCIofQTlEPf+5qDkhTrE&#13;&#10;92P8xsNc2L/xapXSRWA2r1DGdHlmMsQJ61idWKHA/oMyRkTyZ6g3g/IoClU2dRYT&#13;&#10;oKyozKuV4ZmgXB8nJlBuWFJa+PoYAAAAAIA/8At8ZHSkFzTVzAAAAABJRU5ErkJg&#13;&#10;gg==" height="245" preserveAspectRatio="none"/>
      <path fill="white" d="M548.1912 207.1428 L984.1497 207.1428 L984.1497 590.5961 L548.1912 590.5961 Z" clip-path="url(#clipPath2)" transform="matrix(0.5872,0,0,0.5872,-313.048,-112.7995)" image-rendering="auto" stroke="none"/>
    </g>
    <g stroke-linecap="butt" transform="matrix(1,0,0,1,-533,7)" fill="rgb(90,90,90)" text-rendering="optimizeQuality" shape-rendering="geometricPrecision" stroke="rgb(90,90,90)" stroke-width="2" stroke-miterlimit="1.45">
      <path fill="none" d="M548.1912 207.1428 L984.1497 207.1428 L984.1497 590.5961 L548.1912 590.5961 Z" clip-path="url(#clipPath2)"/>
    </g>
    <g font-size="16" stroke-linecap="butt" transform="matrix(1,0,0,1,-533,7)" fill="rgb(90,90,90)" text-rendering="optimizeQuality" font-family="'Courier New'" shape-rendering="geometricPrecision" stroke="rgb(90,90,90)" font-weight="bold" stroke-miterlimit="1.45">
      <text x="573.8895" xml:space="preserve" y="226.4632" clip-path="url(#clipPath2)" stroke="none">eAtRet Init()</text>
      <text x="573.8895" xml:space="preserve" y="244.5882" clip-path="url(#clipPath2)" stroke="none"> </text>
      <text x="573.8895" xml:space="preserve" y="262.7132" clip-path="url(#clipPath2)" stroke="none">/* Physical port */</text>
      <text x="573.8895" xml:space="preserve" y="280.8382" clip-path="url(#clipPath2)" stroke="none">AtChannel PhysicalPort()</text>
      <text x="573.8895" xml:space="preserve" y="298.9632" clip-path="url(#clipPath2)" stroke="none"> </text>
      <text x="573.8895" xml:space="preserve" y="317.0882" clip-path="url(#clipPath2)" stroke="none">/* Access lanes */</text>
      <text x="573.8895" xml:space="preserve" y="335.2132" clip-path="url(#clipPath2)" stroke="none">uint8 NumLanes()</text>
      <text x="573.8895" xml:space="preserve" y="353.3382" clip-path="url(#clipPath2)" stroke="none">AtEyeScanLane LaneGet(uint8 laneId)</text>
      <text x="573.8895" xml:space="preserve" y="371.4632" clip-path="url(#clipPath2)" stroke="none"> </text>
      <text x="573.8895" xml:space="preserve" y="389.5882" clip-path="url(#clipPath2)" stroke="none">/* Equalizer mode */</text>
      <text x="573.8895" xml:space="preserve" y="407.7132" clip-path="url(#clipPath2)" stroke="none">eAtEyeScanEqualizerMode EqualizerModeGet()</text>
      <text x="573.8895" xml:space="preserve" y="425.8382" clip-path="url(#clipPath2)" stroke="none">eAtRet EqualizerModeSet(</text>
      <text x="573.8895" xml:space="preserve" y="443.9632" clip-path="url(#clipPath2)" stroke="none">    eAtEyeScanEqualizerMode mode)</text>
      <text x="573.8895" xml:space="preserve" y="462.0882" clip-path="url(#clipPath2)" stroke="none"> </text>
      <text x="573.8895" xml:space="preserve" y="480.2132" clip-path="url(#clipPath2)" stroke="none">/* Start eyescan */</text>
      <text x="573.8895" xml:space="preserve" y="498.3382" clip-path="url(#clipPath2)" stroke="none">eAtRet Scan()</text>
      <text x="573.8895" xml:space="preserve" y="516.4631" clip-path="url(#clipPath2)" stroke="none">eBool Finished()</text>
      <text x="573.8895" xml:space="preserve" y="534.5881" clip-path="url(#clipPath2)" stroke="none"> </text>
      <text x="573.8895" xml:space="preserve" y="552.7131" clip-path="url(#clipPath2)" stroke="none">/* Debugging */</text>
      <text x="573.8895" xml:space="preserve" y="570.8381" clip-path="url(#clipPath2)" stroke="none">eAtRet Debug()</text>
    </g>
    <g text-rendering="optimizeQuality" shape-rendering="geometricPrecision" transform="matrix(1.8242,0,0,1.8242,513.1401,197.9007)" image-rendering="optimizeQuality">
      <image x="0" y="0" clip-path="url(#clipPath5)" width="276" xlink:href="data:image/png;base64,iVBORw0KGgoAAAANSUhEUgAAARQAAACaCAYAAABovbdlAAACmUlEQVR42u3ZbWuC&#13;&#10;UBiA4Sy3tf3//9rypabwHHaQYmobrON1wYMi1ofg3BxttwMAAAAAAOD5VAvvqxZ+&#13;&#10;Dnhu1zvH1UEZ79nHVNkA24nJZXK8qZ4Zk/G+QzaCAtsISopIP0wX1+9GpZ4RkzEg&#13;&#10;L8O8xbGO60D5QUkxaYY5T0Kzaocy3vM6zPswxziv/dZQvBSTdpjTJDCLH3nyHUoK&#13;&#10;ykdEpfbYA8VLjznniEkbU60JSh6VOnvsOca5oED5QWnjvN19v+5YHZTpTiWFRVCg&#13;&#10;fOldaRfrf//Tul/yLqS6MUC5Fq91/9YAv76lARAUQFAAQQEQFEBQAEEBBAVAUABB&#13;&#10;AQQFQFAAQQEEBRAUAEEBBAUQFABBAQQFEBRAUAAEBRAUQFAABAUQFEBQAEEBEBRA&#13;&#10;UABBARAUQFAAQQEEBUBQAEEBBAVAUABBAQQFEBQAQQEEBRAUQFAABAUQFEBQAAQF&#13;&#10;EBRAUABBARAUQFAAQQEQFEBQAEEBBAVAUABBAQQFQFAAQQEEBRAUAEEBBAUQFABB&#13;&#10;AQQFEBRAUAAEBRAUQFAABAUQFEBQAEEBEBRAUABBARAUQFAAQQEEBUBQAEEBBAVA&#13;&#10;UABBAQQFEBQAQQEEBRAUQFAABAUQFEBQAAQFEBRAUABBARAUQFAAQQEQFEBQAEEB&#13;&#10;BAVAUABBAQQFQFAAQQEEBRAUAEEBBAUQFABBAf5IPfO+a8wlph+m8vNB0S7ZpAY8&#13;&#10;HJQUki6mjWuCAuUHpY1132dhWR2UPCbjF5+zzwkKlB+ULtZ9Mycq9YKYnOLaeH4Q&#13;&#10;FNhEUPpY859x7NcGJUWlz3YmXXzGy1wo33RT0TwSlPRlea2aiIndCWwrKn02d4My&#13;&#10;JwxVzD47B7YVlRSW66NBWXMvUGZYAAAAAAD4L74AlLpz3/iso50AAAAASUVORK5C&#13;&#10;YII=" height="154" preserveAspectRatio="none"/>
      <path fill="white" d="M1062.3823 207.1428 L1529.3408 207.1428 L1529.3408 451.5961 L1062.3823 451.5961 Z" clip-path="url(#clipPath2)" transform="matrix(0.5482,0,0,0.5482,-573.4729,-104.6479)" image-rendering="auto" stroke="none"/>
    </g>
    <g stroke-linecap="butt" transform="matrix(1,0,0,1,-533,7)" fill="rgb(90,90,90)" text-rendering="optimizeQuality" shape-rendering="geometricPrecision" stroke="rgb(90,90,90)" stroke-width="2" stroke-miterlimit="1.45">
      <path fill="none" d="M1062.3823 207.1428 L1529.3408 207.1428 L1529.3408 451.5961 L1062.3823 451.5961 Z" clip-path="url(#clipPath2)"/>
    </g>
    <g font-size="16" stroke-linecap="butt" transform="matrix(1,0,0,1,-533,7)" fill="rgb(90,90,90)" text-rendering="optimizeQuality" font-family="'Courier New'" shape-rendering="geometricPrecision" stroke="rgb(90,90,90)" font-weight="bold" stroke-miterlimit="1.45">
      <text x="1089.7657" xml:space="preserve" y="226.4632" clip-path="url(#clipPath2)" stroke="none">/* Read-only attributes */</text>
      <text x="1089.7657" xml:space="preserve" y="244.5882" clip-path="url(#clipPath2)" stroke="none">uint8 id</text>
      <text x="1089.7657" xml:space="preserve" y="262.7132" clip-path="url(#clipPath2)" stroke="none">AtEyeScanController controller</text>
      <text x="1089.7657" xml:space="preserve" y="280.8382" clip-path="url(#clipPath2)" stroke="none">uint16 dataWidth</text>
      <text x="1089.7657" xml:space="preserve" y="298.9632" clip-path="url(#clipPath2)" stroke="none">uint16 maxHorizontalOffset</text>
      <text x="1089.7657" xml:space="preserve" y="317.0882" clip-path="url(#clipPath2)" stroke="none">float peedInGbps</text>
      <text x="1089.7657" xml:space="preserve" y="335.2132" clip-path="url(#clipPath2)" stroke="none"> </text>
      <text x="1089.7657" xml:space="preserve" y="353.3382" clip-path="url(#clipPath2)" stroke="none">/* Read/write attributes */</text>
      <text x="1089.7657" xml:space="preserve" y="371.4632" clip-path="url(#clipPath2)" stroke="none">eBool enabled</text>
      <text x="1089.7657" xml:space="preserve" y="389.5882" clip-path="url(#clipPath2)" stroke="none">uint8 horizontalStepSize</text>
      <text x="1089.7657" xml:space="preserve" y="407.7132" clip-path="url(#clipPath2)" stroke="none">uint8 verticalStepSize</text>
      <text x="1089.7657" xml:space="preserve" y="425.8382" clip-path="url(#clipPath2)" stroke="none">uint8 maxPrescale</text>
      <text x="1089.7657" xml:space="preserve" y="443.9632" clip-path="url(#clipPath2)" stroke="none"> </text>
    </g>
    <g text-rendering="optimizeQuality" shape-rendering="geometricPrecision" transform="matrix(1.8242,0,0,1.8242,513.1401,442.3539)" image-rendering="optimizeQuality">
      <image x="0" y="0" clip-path="url(#clipPath6)" width="276" xlink:href="data:image/png;base64,iVBORw0KGgoAAAANSUhEUgAAARQAAAC7CAYAAACkTWH2AAAC9ElEQVR42u3Z4WqD&#13;&#10;MBSAUdO6rdv7v+tote0UbliQjjZuMBrPgYtuWH8U/Ehs1wEAAAAAAPB8UuV1qfJz&#13;&#10;wHO7/nBcHZT5ml1MKgbYTkwui+NN/YMxma/bFyMosI2g5Iicpxnj/z9GpX8gJnNA&#13;&#10;XqZ5i2Mf/wfaD0qOyWma4yI0q1Yo8zWv07xPc4jz3ncNzcsxGab5XASmestTrlBy&#13;&#10;UD4iKr1tDzQvb3OOEZMhJq0JShmVvtj2HOJcUKD9oAxxPnTfrztWB2W5UslhERRo&#13;&#10;X35XOsbzv7v33Ne8C0k3BmhX9bPu1xrgz5c0AIICCAogKACCAggKICiAoAAICiAo&#13;&#10;gKAACAogKICgAIICICiAoACCAiAogKAAggIICoCgAIICCAqAoACCAggKICgAggII&#13;&#10;CiAoAIICCAogKICgAAgKICiAoAAICiAogKAAggIgKICgAIICCAqAoACCAggKgKAA&#13;&#10;ggIICiAoAIICCAogKACCAggKICiAoAAICiAogKAACAogKICgAIICICiAoACCAiAo&#13;&#10;gKAAggIICoCgAIICCAqAoACCAggKICgAggIICiAoAIICCAogKICgAAgKICiAoAAI&#13;&#10;CiAogKAAggIgKICgAIICCAqAoACCAggKgKAAggIICiAoAIICCAogKACCAggKICiA&#13;&#10;oAAICiAogKAACAogKICgAIICICiAoACCAiAogKAAggIICoCgAIICCAqAoACCAggK&#13;&#10;ICgAggIICiAoAIICCAogKICgAAgKICiAoACC4isABAUQFEBQAAQFEBRAUABBARAU&#13;&#10;QFAAQQEQFEBQgOfSV15/LQZoW/Xz3lfc9BJzjpVN8n1D084x+dm/G5d7Qck3mG86&#13;&#10;THOaZh83FxRoPyhjPPdj/P3roOSYHGNlclmxVQKeT96RnOL5H4uVSnVQrosbpjg/&#13;&#10;2vLAZoJyKXYnpyIqq4JyjRt0xY13nV+HYAvKVx7jI9uee6uMFLMrJlmdwGaC0hXb&#13;&#10;nHOxc1kVlGVYaj4DtBOV5REAAAAAgP/2BfpIdDgXkfQBAAAAAElFTkSuQmCC" height="187" preserveAspectRatio="none"/>
      <path fill="white" d="M1062.3823 451.5961 L1529.3408 451.5961 L1529.3408 757.0494 L1062.3823 757.0494 Z" clip-path="url(#clipPath2)" transform="matrix(0.5482,0,0,0.5482,-573.4729,-238.6522)" image-rendering="auto" stroke="none"/>
    </g>
    <g stroke-linecap="butt" transform="matrix(1,0,0,1,-533,7)" fill="rgb(90,90,90)" text-rendering="optimizeQuality" shape-rendering="geometricPrecision" stroke="rgb(90,90,90)" stroke-width="2" stroke-miterlimit="1.45">
      <path fill="none" d="M1062.3823 451.5961 L1529.3408 451.5961 L1529.3408 757.0494 L1062.3823 757.0494 Z" clip-path="url(#clipPath2)"/>
    </g>
    <g font-size="16" stroke-linecap="butt" transform="matrix(1,0,0,1,-533,7)" fill="rgb(90,90,90)" text-rendering="optimizeQuality" font-family="'Courier New'" shape-rendering="geometricPrecision" stroke="rgb(90,90,90)" font-weight="bold" stroke-miterlimit="1.45">
      <text x="1089.7657" xml:space="preserve" y="470.9164" clip-path="url(#clipPath2)" stroke="none">/* Measured info */</text>
      <text x="1089.7657" xml:space="preserve" y="489.0414" clip-path="url(#clipPath2)" stroke="none">uint32 MeasuredWidth()</text>
      <text x="1089.7657" xml:space="preserve" y="507.1664" clip-path="url(#clipPath2)" stroke="none">uint32 MeasuredSwing()</text>
      <text x="1089.7657" xml:space="preserve" y="525.2914" clip-path="url(#clipPath2)" stroke="none">uint32 MeasuredSwingInMilliVolt()</text>
      <text x="1089.7657" xml:space="preserve" y="543.4164" clip-path="url(#clipPath2)" stroke="none">uint32 NumHorizontalTaps()</text>
      <text x="1089.7657" xml:space="preserve" y="561.5414" clip-path="url(#clipPath2)" stroke="none">uint32 ElapsedTimeMs()</text>
      <text x="1089.7657" xml:space="preserve" y="579.6664" clip-path="url(#clipPath2)" stroke="none"> </text>
      <text x="1089.7657" xml:space="preserve" y="597.7914" clip-path="url(#clipPath2)" stroke="none">/* Listener */</text>
      <text x="1089.7657" xml:space="preserve" y="615.9164" clip-path="url(#clipPath2)" stroke="none">eAtRet ListenerAdd(</text>
      <text x="1089.7657" xml:space="preserve" y="634.0414" clip-path="url(#clipPath2)" stroke="none">    const tAtEyeScanLaneListener *listener)</text>
      <text x="1089.7657" xml:space="preserve" y="652.1664" clip-path="url(#clipPath2)" stroke="none">void ListenerRemove(</text>
      <text x="1089.7657" xml:space="preserve" y="670.2914" clip-path="url(#clipPath2)" stroke="none">    const tAtEyeScanLaneListener *listener)</text>
      <text x="1089.7657" xml:space="preserve" y="688.4164" clip-path="url(#clipPath2)" stroke="none"> </text>
      <text x="1089.7657" xml:space="preserve" y="706.5414" clip-path="url(#clipPath2)" stroke="none">/* Util */</text>
      <text x="1089.7657" xml:space="preserve" y="724.6664" clip-path="url(#clipPath2)" stroke="none">int32 VerticalOffsetToMillivolt(</text>
      <text x="1089.7657" xml:space="preserve" y="742.7914" clip-path="url(#clipPath2)" stroke="none">    int32 verticalOffset)</text>
    </g>
    <g text-rendering="optimizeQuality" shape-rendering="geometricPrecision" transform="matrix(1.8242,0,0,1.8242,513.1401,159.5007)" image-rendering="optimizeQuality">
      <image x="0" y="0" clip-path="url(#clipPath7)" width="276" xlink:href="data:image/png;base64,iVBORw0KGgoAAAANSUhEUgAAARQAAAApCAYAAAD049a+AAABnklEQVR42u3df0uD&#13;&#10;QBzAYS2r1ft/r7W5tRS+xw7R+YMidj4PHBOxfwb34TR2VhUAAAAAAACPp155Xb3y&#13;&#10;74DHdp343ByU/pqnGHU2gP3E5HvwOapZGJP+uudsCArsIygpIpdunOP8ZFSaBTHp&#13;&#10;A/LSjbf4bOI8UH5QUkxO3TgOQrNphdJf89qN924c4rjxXUPxUkzabnwOArP6lidf&#13;&#10;oaSgfERUGrc9ULx0m3OMmLQx6i1ByaPSZLc9hzgWFCg/KG0ct9XtccfmoAxXKiks&#13;&#10;ggLlS89KzzH/n+bm/ZpnIfXIAMq1eq77bw3w60saAEEBBAUQFABBAQQFEBRAUAAE&#13;&#10;BRAUQFAABAX4W0t/bZzvLZmGXxtD2fL5Prnt49qg5Nu+5RvVCgqULc33NPdnozIX&#13;&#10;lDwm/Y5Nx+q2zyxQ/golbQHZxvHm12gMY/IV59PuTUDZrjHf0/xvs5XK5hVKKlRV&#13;&#10;LdxXEigmKOl25xTjblDmojD2oq/8DYJA2UEZvujrcu+2Z82rSGsrE9htVPLXkG5e&#13;&#10;oUxdKyqwn6CMHQMAAAAA8N9+ABBYcRgTorqAAAAAAElFTkSuQmCC" height="41" preserveAspectRatio="none"/>
      <path fill="white" d="M1062.3823 168.7428 L1529.3408 168.7428 L1529.3408 207.1428 L1062.3823 207.1428 Z" clip-path="url(#clipPath2)" transform="matrix(0.5482,0,0,0.5482,-573.4729,-83.5978)" image-rendering="auto" stroke="none"/>
    </g>
    <g stroke-linecap="butt" transform="matrix(1,0,0,1,-533,7)" fill="rgb(153,51,204)" text-rendering="optimizeQuality" shape-rendering="geometricPrecision" stroke="rgb(153,51,204)" stroke-width="2" stroke-miterlimit="1.45">
      <path fill="none" d="M1062.3823 168.7428 L1529.3408 168.7428 L1529.3408 207.1428 L1062.3823 207.1428 Z" clip-path="url(#clipPath2)"/>
    </g>
    <g font-size="20" stroke-linecap="butt" transform="matrix(1,0,0,1,-533,7)" fill="rgb(153,51,204)" text-rendering="optimizeQuality" font-family="'Courier New'" shape-rendering="geometricPrecision" stroke="rgb(153,51,204)" font-weight="bold" stroke-miterlimit="1.45">
      <text x="1217.8489" xml:space="preserve" y="193.2651" clip-path="url(#clipPath2)" stroke="none">AtEyeScanLane</text>
    </g>
    <g text-rendering="optimizeQuality" shape-rendering="geometricPrecision" transform="matrix(1.0859,0,0,1.0859,85.3318,6.8835)" image-rendering="optimizeQuality">
      <image x="0" y="0" clip-path="url(#clipPath8)" width="276" xlink:href="data:image/png;base64,iVBORw0KGgoAAAANSUhEUgAAARQAAAA3CAYAAADNP7VVAAABy0lEQVR42u3d7U7C&#13;&#10;MBSA4Q6mGL3/e+VjG454FioK2wgaXZ8naUSC+0GyN6fFhJQAAAAAAPg11Q+/HliG&#13;&#10;46MCUWVLVKDMmBy/efxFPSEmq4slKFBeULpY7a2JpZ4wmazjdU/xWFSgrJi0sZp4&#13;&#10;rr0nKCnicXrNpl8v/XrOogIsXxch2fdrl215vt36jE0oQ1BOMXmLn8OkApQxnRz6&#13;&#10;tY3nmmximb3lWUU8niMmr/G49l5DMUHZxe/76MHVI4+ph7JDVDaxTChQTlCOMaXU&#13;&#10;aeQMdcqkkX/Ss07nQ1pg+UFJ6fOHMTc/kHG4CjyMoACCAggKICgAggIICiAogKAA&#13;&#10;CAogKICgAAgKICiAoACCAiAogKAAggIgKICgAIICCAqAoACCAggKgKAAggL8C/d8&#13;&#10;6fkxnb9EGViu2fd6PeOiXb/a7CewfPl9PxqYsaAMFzhd8BCr6tfa+wxFaOK+b6ID&#13;&#10;N6NSz4jJLn2cuTSCAsVseU6TyT7u/0MWlbsmlC4Cso3JpI2YOMyFcrY8hywqTbb9&#13;&#10;mT2hdNk2p8umFEGBMiaUYZeSb326a39QjVywiniss8mk8j5DcVNKfjh7dUKZEofq&#13;&#10;YgHlTiv+bQQAAAAA4K94B48ocDQaekxvAAAAAElFTkSuQmCC" height="55" preserveAspectRatio="none"/>
      <path fill="white" d="M627.1912 8.7428 L905.1497 8.7428 L905.1497 47.1428 L627.1912 47.1428 Z" clip-path="url(#clipPath2)" transform="matrix(0.9209,0,0,0.9209,-569.399,0.1073)" image-rendering="auto" stroke="none"/>
    </g>
    <g stroke-linecap="butt" transform="matrix(1,0,0,1,-533,7)" fill="rgb(153,51,204)" text-rendering="optimizeQuality" shape-rendering="geometricPrecision" stroke="rgb(153,51,204)" stroke-width="2" stroke-miterlimit="1.45">
      <path fill="none" d="M627.1912 8.7428 L905.1497 8.7428 L905.1497 47.1428 L627.1912 47.1428 Z" clip-path="url(#clipPath2)"/>
    </g>
    <g font-size="20" stroke-linecap="butt" transform="matrix(1,0,0,1,-533,7)" fill="rgb(153,51,204)" text-rendering="optimizeQuality" font-family="'Courier New'" shape-rendering="geometricPrecision" stroke="rgb(153,51,204)" font-weight="bold" stroke-miterlimit="1.45">
      <text x="712.1616" xml:space="preserve" y="33.2651" clip-path="url(#clipPath2)" stroke="none">AtSdhLine</text>
    </g>
    <g text-rendering="optimizeQuality" shape-rendering="geometricPrecision" transform="matrix(1.0859,0,0,1.0859,85.3318,661.3367)" image-rendering="optimizeQuality">
      <image x="0" y="0" clip-path="url(#clipPath9)" width="276" xlink:href="data:image/png;base64,iVBORw0KGgoAAAANSUhEUgAAARQAAAA3CAYAAADNP7VVAAABy0lEQVR42u3d7U7C&#13;&#10;MBSA4Q6mGL3/e+VjG454FioK2wgaXZ8naUSC+0GyN6fFhJQAAAAAAPg11Q+/HliG&#13;&#10;46MCUWVLVKDMmBy/efxFPSEmq4slKFBeULpY7a2JpZ4wmazjdU/xWFSgrJi0sZp4&#13;&#10;rr0nKCnicXrNpl8v/XrOogIsXxch2fdrl215vt36jE0oQ1BOMXmLn8OkApQxnRz6&#13;&#10;tY3nmmximb3lWUU8niMmr/G49l5DMUHZxe/76MHVI4+ph7JDVDaxTChQTlCOMaXU&#13;&#10;aeQMdcqkkX/Ss07nQ1pg+UFJ6fOHMTc/kHG4CjyMoACCAggKICgAggIICiAogKAA&#13;&#10;CAogKICgAAgKICiAoACCAiAogKAAggIgKICgAIICCAqAoACCAggKgKAAggL8C/d8&#13;&#10;6fkxnb9EGViu2fd6PeOiXb/a7CewfPl9PxqYsaAMFzhd8BCr6tfa+wxFaOK+b6ID&#13;&#10;N6NSz4jJLn2cuTSCAsVseU6TyT7u/0MWlbsmlC4Cso3JpI2YOMyFcrY8hywqTbb9&#13;&#10;mT2hdNk2p8umFEGBMiaUYZeSb326a39QjVywiniss8mk8j5DcVNKfjh7dUKZEofq&#13;&#10;YgHlTiv+bQQAAAAA4K94B48ocDQaekxvAAAAAElFTkSuQmCC" height="55" preserveAspectRatio="none"/>
      <path fill="white" d="M627.1912 663.1961 L905.1497 663.1961 L905.1497 701.5961 L627.1912 701.5961 Z" clip-path="url(#clipPath2)" transform="matrix(0.9209,0,0,0.9209,-569.399,-602.5547)" image-rendering="auto" stroke="none"/>
    </g>
    <g stroke-linecap="butt" transform="matrix(1,0,0,1,-533,7)" fill="rgb(153,51,204)" text-rendering="optimizeQuality" shape-rendering="geometricPrecision" stroke="rgb(153,51,204)" stroke-width="2" stroke-miterlimit="1.45">
      <path fill="none" d="M627.1912 663.1961 L905.1497 663.1961 L905.1497 701.5961 L627.1912 701.5961 Z" clip-path="url(#clipPath2)"/>
    </g>
    <g font-size="20" stroke-linecap="butt" transform="matrix(1,0,0,1,-533,7)" fill="rgb(153,51,204)" text-rendering="optimizeQuality" font-family="'Courier New'" shape-rendering="geometricPrecision" stroke="rgb(153,51,204)" font-weight="bold" stroke-miterlimit="1.45">
      <text x="712.1616" xml:space="preserve" y="687.7184" clip-path="url(#clipPath2)" stroke="none">AtEthPort</text>
    </g>
    <g text-rendering="optimizeQuality" shape-rendering="geometricPrecision" transform="matrix(1.0859,0,0,1.0859,85.3318,45.2835)" image-rendering="optimizeQuality">
      <image x="0" y="0" clip-path="url(#clipPath10)" width="276" xlink:href="data:image/png;base64,iVBORw0KGgoAAAANSUhEUgAAARQAAABHCAYAAADGHbiUAAAB5klEQVR42u3Z7U6D&#13;&#10;MBSAYdjQGb3/e90HMCE5jXXOrZvTGPo8yYkbQX4s4U0pTQMAAAAAwJ9pf/l8YBmO&#13;&#10;jwpEm42oQJ0xOZ75/EVXEJPVyQgK1BeUMWa4tGLpClYm6zjvKT6LCtQVkyGmj2PD&#13;&#10;PUFpIh7zOZtpXqZ5zqICLN8YIdlPs8seec4++lxboaSgzDF5i79ppQLUsTo5TLON&#13;&#10;Y322Yrn5kWcV8XiOmLzG585vDdUEZRff99GDb7c8SjdlU1Q2MVYoUE9QjrFK6Zor&#13;&#10;e6glK438Tc+6+dikBZYflKb5/DLm4gsZm6vAwwgKICiAoACCAiAogKAAggIICoCg&#13;&#10;AIICCAqAoACCAggKICgAggIICiAoAIICCAogKICgAAgKICiAoAAICiAogKAAggIg&#13;&#10;KICgAIICICiAoACCAggKgKAAggIICoCgAIICCAogKAA36G4493gywLLdfL93hRcd&#13;&#10;Y4aY1m8NVQRlyO798VpcuoILposdptnH8cFvDdUEZb7v+5KodIUxmS+4jZXJfGF7&#13;&#10;L1CH/P4/xPcfBWUOyC6OHeJ/BAXqWKGkBuyjA/2lVcq1R54xIpJKtYuY2EOBuh57&#13;&#10;0rZHCspdK5QUkvS3zQaoIyj5i5mLeyilYcgjIiZQX1TyuAAAAAAA8B+8A1KCdjM0&#13;&#10;G6pNAAAAAElFTkSuQmCC" height="71" preserveAspectRatio="none"/>
      <path fill="white" d="M627.1912 47.1428 L905.1497 47.1428 L905.1497 102.5961 L627.1912 102.5961 Z" clip-path="url(#clipPath2)" transform="matrix(0.9209,0,0,0.9209,-569.399,-35.2538)" image-rendering="auto" stroke="none"/>
    </g>
    <g stroke-linecap="butt" transform="matrix(1,0,0,1,-533,7)" fill="rgb(90,90,90)" text-rendering="optimizeQuality" shape-rendering="geometricPrecision" stroke="rgb(90,90,90)" stroke-width="2" stroke-miterlimit="1.45">
      <path fill="none" d="M627.1912 47.1428 L905.1497 47.1428 L905.1497 102.5961 L627.1912 102.5961 Z" clip-path="url(#clipPath2)"/>
    </g>
    <g font-size="16" stroke-linecap="butt" transform="matrix(1,0,0,1,-533,7)" fill="rgb(90,90,90)" text-rendering="optimizeQuality" font-family="'Courier New'" shape-rendering="geometricPrecision" stroke="rgb(90,90,90)" font-weight="bold" stroke-miterlimit="1.45">
      <text x="644.3007" xml:space="preserve" y="66.4632" clip-path="url(#clipPath2)" stroke="none">AtEyeScanController </text>
      <text x="644.3007" xml:space="preserve" y="84.5882" clip-path="url(#clipPath2)" stroke="none">    EyeScanControllerGet()</text>
    </g>
    <g text-rendering="optimizeQuality" shape-rendering="geometricPrecision" transform="matrix(1.0859,0,0,1.0859,85.3318,699.7367)" image-rendering="optimizeQuality">
      <image x="0" y="0" clip-path="url(#clipPath11)" width="276" xlink:href="data:image/png;base64,iVBORw0KGgoAAAANSUhEUgAAARQAAABHCAYAAADGHbiUAAAB5klEQVR42u3Z7U6D&#13;&#10;MBSAYdjQGb3/e90HMCE5jXXOrZvTGPo8yYkbQX4s4U0pTQMAAAAAwJ9pf/l8YBmO&#13;&#10;jwpEm42oQJ0xOZ75/EVXEJPVyQgK1BeUMWa4tGLpClYm6zjvKT6LCtQVkyGmj2PD&#13;&#10;PUFpIh7zOZtpXqZ5zqICLN8YIdlPs8seec4++lxboaSgzDF5i79ppQLUsTo5TLON&#13;&#10;Y322Yrn5kWcV8XiOmLzG585vDdUEZRff99GDb7c8SjdlU1Q2MVYoUE9QjrFK6Zor&#13;&#10;e6glK438Tc+6+dikBZYflKb5/DLm4gsZm6vAwwgKICiAoACCAiAogKAAggIICoCg&#13;&#10;AIICCAqAoACCAggKICgAggIICiAoAIICCAogKICgAAgKICiAoAAICiAogKAAggIg&#13;&#10;KICgAIICICiAoACCAggKgKAAggIICoCgAIICCAogKAA36G4493gywLLdfL93hRcd&#13;&#10;Y4aY1m8NVQRlyO798VpcuoILposdptnH8cFvDdUEZb7v+5KodIUxmS+4jZXJfGF7&#13;&#10;L1CH/P4/xPcfBWUOyC6OHeJ/BAXqWKGkBuyjA/2lVcq1R54xIpJKtYuY2EOBuh57&#13;&#10;0rZHCspdK5QUkvS3zQaoIyj5i5mLeyilYcgjIiZQX1TyuAAAAAAA8B+8A1KCdjM0&#13;&#10;G6pNAAAAAElFTkSuQmCC" height="71" preserveAspectRatio="none"/>
      <path fill="white" d="M627.1912 701.5961 L905.1497 701.5961 L905.1497 757.0494 L627.1912 757.0494 Z" clip-path="url(#clipPath2)" transform="matrix(0.9209,0,0,0.9209,-569.399,-637.9158)" image-rendering="auto" stroke="none"/>
    </g>
    <g stroke-linecap="butt" transform="matrix(1,0,0,1,-533,7)" fill="rgb(90,90,90)" text-rendering="optimizeQuality" shape-rendering="geometricPrecision" stroke="rgb(90,90,90)" stroke-width="2" stroke-miterlimit="1.45">
      <path fill="none" d="M627.1912 701.5961 L905.1497 701.5961 L905.1497 757.0494 L627.1912 757.0494 Z" clip-path="url(#clipPath2)"/>
    </g>
    <g font-size="16" stroke-linecap="butt" transform="matrix(1,0,0,1,-533,7)" fill="rgb(90,90,90)" text-rendering="optimizeQuality" font-family="'Courier New'" shape-rendering="geometricPrecision" stroke="rgb(90,90,90)" font-weight="bold" stroke-miterlimit="1.45">
      <text x="644.3007" xml:space="preserve" y="720.9164" clip-path="url(#clipPath2)" stroke="none">AtEyeScanController </text>
      <text x="644.3007" xml:space="preserve" y="739.0414" clip-path="url(#clipPath2)" stroke="none">    EyeScanControllerGet()</text>
    </g>
    <g text-rendering="optimizeQuality" shape-rendering="geometricPrecision" transform="matrix(1.1719,0,0,1.1719,603.4228,820.1087)" image-rendering="optimizeQuality">
      <image x="0" y="0" clip-path="url(#clipPath12)" width="276" xlink:href="data:image/png;base64,iVBORw0KGgoAAAANSUhEUgAAARQAAABBCAYAAAAQRFuJAAABzklEQVR42u3Z62rC&#13;&#10;QBCA0Y1Ja2nf/11ra5ImMIuLoEmtvWXPgUFLQ34E/BjXlAAAAAAA+DHNN18P/H/j&#13;&#10;PQPRFCMqUGdMxmJuDsr8/93ZCArUFZR5hmn6eL0YlW7FZtLGdQ/xXlSgnpgMMcdp&#13;&#10;3uP1YlS6hRvu4pr9NE/TPBZRAbYflD5CcohF4upXn6UNJQdljslLvOZNBdi2vJkc&#13;&#10;ogVDsaEMtwaljc1kjslzvO88a9i8vJ3s4n0Oy8Ujj6UwnEdlH2NDgTqCkmPSpRXH&#13;&#10;HWs2jfKXnjadDmmBbWviq83qH2McrgJ3IyiAoACCAggKgKAAggIICiAoAIICCAog&#13;&#10;KACCAggKICiAoAAICiAogKAACAogKICgAIICICiAoACCAiAogKAAggIICoCgAIIC&#13;&#10;CAqAoACCAggKICgAggL8mm7ldeM0QzG9RwebV37mx5gvBWUsAjLPe2w1g2cNVQRl&#13;&#10;/swf4/O/GJW1QZlveJimjb9bzxqqCcpbEZbhWlS6G2LSCQpUE5RjBOU1onK3oIxx&#13;&#10;411ymAs1GNPpuCNvKf21oDQLN8zxaCM+YgL1RSUvFn1aOEtpVtywiYg0xQD1RWVM&#13;&#10;Cwezn4mDkEDdUQEAAAAA4C/5AEAMcFakDKr7AAAAAElFTkSuQmCC" height="65" preserveAspectRatio="none"/>
      <path fill="white" d="M1146.1415 822.8274 L1445.5815 822.8274 L1445.5815 875.0743 L1146.1415 875.0743 Z" clip-path="url(#clipPath2)" transform="matrix(0.8533,0,0,0.8533,-969.7474,-693.8527)" image-rendering="auto" stroke="none"/>
    </g>
    <g stroke-linecap="butt" transform="matrix(1,0,0,1,-533,7)" fill="rgb(102,153,0)" text-rendering="optimizeQuality" shape-rendering="geometricPrecision" stroke="rgb(102,153,0)" stroke-width="2" stroke-miterlimit="1.45">
      <path fill="none" d="M1146.1415 822.8274 L1445.5815 822.8274 L1445.5815 875.0743 L1146.1415 875.0743 Z" clip-path="url(#clipPath2)"/>
    </g>
    <g font-size="20" stroke-linecap="butt" transform="matrix(1,0,0,1,-533,7)" fill="rgb(102,153,0)" text-rendering="optimizeQuality" font-family="'Courier New'" shape-rendering="geometricPrecision" stroke="rgb(102,153,0)" font-weight="bold" stroke-miterlimit="1.45">
      <text x="1163.8401" xml:space="preserve" y="842.945" clip-path="url(#clipPath2)" stroke="none">tAtEyeScanLaneListener</text>
      <text x="1217.8489" xml:space="preserve" y="865.6013" clip-path="url(#clipPath2)" stroke="none">&lt;&lt;interface&gt;&gt;</text>
    </g>
    <g text-rendering="optimizeQuality" shape-rendering="geometricPrecision" transform="matrix(1.5781,0,0,1.5781,599.3603,868.2931)" image-rendering="optimizeQuality">
      <image x="0" y="0" clip-path="url(#clipPath13)" width="210" xlink:href="data:image/png;base64,iVBORw0KGgoAAAANSUhEUgAAANIAAAEUCAYAAABeX2hfAAADdklEQVR42u3Y0U6r&#13;&#10;QBRA0Q6MXqP//61W2oKQHJKJ1gLW3OiwVjIpTVseCDtnyuEAAAAAAPwuacP30sbf&#13;&#10;wF83FK/DPSGlYjWxkpjYSUB9HPfF8VV5RUhNfG9abRET1BzSHNA51uFWTHnFNJq+&#13;&#10;8ziuf+N6iPeNa03lIU3RnMbVjettaYu3NJGamEJTSM/jeoqYWlOJis2TaIroNeK5&#13;&#10;3LrnlyZSU0ykKaKXOM5CovJpNIV0jOMuhsf5J/4jzdu7eYsnJGoOqYvXVTuwvOLE&#13;&#10;qdjitcWDByFRc0j94fMDtnRPSNceQHgETq1SxLTp/vb0DT5PpM2fCQl+gJBASCAk&#13;&#10;EBIgJBASCAmEBAgJhARCAiEBQgIhgZBASICQQEggJBASICQQEggJhAQICYQEQgKE&#13;&#10;BEICIYGQACGBkEBIICRASCAkEBIICRASCAmEBEIChARCAiGBkAAhgZBASCAkQEgg&#13;&#10;JBASICQQEggJhAQICYQEQgIhAUICIYGQQEiAkEBIICQQEiAkEBIICYQECAmEBEIC&#13;&#10;IbkEICQQEggJEBIICYQEQgKEBEICIYGQACGBkEBIICRASCAkEBIICRASCAmEBEIC&#13;&#10;hARCAiEBQgIhgZBASICQQEggJBASICQQEggJhAQICYQEQgIhAUICIYGQQEiAkEBI&#13;&#10;ICQQEiAkEBIICRASCAmEBEIChARCAiGBkAAhgZBASCAkQEggJBASCAkQEggJhARC&#13;&#10;AoQEQgIhgZAAIYGQQEiAkEBIICQQEiAkEBIICYQECAmEBEICIQFCAiGBkEBIgJBA&#13;&#10;SCAkEBIgJBASCAkQEggJhARCAoQEQgIhgZAAIYGQQEggJEBIICQQEggJEBIICYQE&#13;&#10;QgKEBEICIYGQACGBkEBIgJBASCAkEBIgJBASCAmEBAgJhARCAiEBQgIhgZBASICQ&#13;&#10;QEggJBASICQQEggJhAQICYQEQgKEBEICIYGQACGBkEBIICRASCAk+C3SVx/kO088&#13;&#10;uLbsIZSl+z1vCKaPdYlJllx3KjQU9/l8zy8OjLzhpOdxnSKiQUhUHtIp1mVNTGtD&#13;&#10;miLqxnWM99n1pmLzPf+2Nqa8ENFQRPQaJ3sYV+taU3lIl4joWMT07YlUljnECdvY&#13;&#10;1tnaUevWrhwipxgk8/+lb02k/kNUnQcN7Cim8gHbzYm0Joh0ZcHeptNw6z/S1ihE&#13;&#10;xN5CAgAAAPj/3gEhCn7TEMn3vwAAAABJRU5ErkJggg==" height="276" preserveAspectRatio="none"/>
      <path fill="white" d="M1146.1415 875.0743 L1445.5815 875.0743 L1445.5815 1278.6995 L1146.1415 1278.6995 Z" clip-path="url(#clipPath2)" transform="matrix(0.6337,0,0,0.6337,-717.5352,-545.7699)" image-rendering="auto" stroke="none"/>
    </g>
    <g stroke-linecap="butt" transform="matrix(1,0,0,1,-533,7)" fill="rgb(90,90,90)" text-rendering="optimizeQuality" shape-rendering="geometricPrecision" stroke="rgb(90,90,90)" stroke-width="2" stroke-miterlimit="1.45">
      <path fill="none" d="M1146.1415 875.0743 L1445.5815 875.0743 L1445.5815 1278.6995 L1146.1415 1278.6995 Z" clip-path="url(#clipPath2)"/>
    </g>
    <g font-size="16" stroke-linecap="butt" transform="matrix(1,0,0,1,-533,7)" fill="rgb(90,90,90)" text-rendering="optimizeQuality" font-family="'Courier New'" shape-rendering="geometricPrecision" stroke="rgb(90,90,90)" font-weight="bold" stroke-miterlimit="1.45">
      <text x="1164.4188" xml:space="preserve" y="894.3947" clip-path="url(#clipPath2)" stroke="none">void EyeScanWillStart(</text>
      <text x="1164.4188" xml:space="preserve" y="912.5197" clip-path="url(#clipPath2)" stroke="none">   AtEyeScanLane lane)</text>
      <text x="1164.4188" xml:space="preserve" y="930.6447" clip-path="url(#clipPath2)" stroke="none"> </text>
      <text x="1164.4188" xml:space="preserve" y="948.7697" clip-path="url(#clipPath2)" stroke="none">void EyeScanWillScanRow(</text>
      <text x="1164.4188" xml:space="preserve" y="966.8947" clip-path="url(#clipPath2)" stroke="none">    AtEyeScanLane lane, </text>
      <text x="1164.4188" xml:space="preserve" y="985.0197" clip-path="url(#clipPath2)" stroke="none">    int32 verticalOffset)</text>
      <text x="1164.4188" xml:space="preserve" y="1003.1447" clip-path="url(#clipPath2)" stroke="none"> </text>
      <text x="1164.4188" xml:space="preserve" y="1021.2697" clip-path="url(#clipPath2)" stroke="none">void EyeScanDidScanRow(</text>
      <text x="1164.4188" xml:space="preserve" y="1039.3947" clip-path="url(#clipPath2)" stroke="none">    AtEyeScanLane lane, </text>
      <text x="1164.4188" xml:space="preserve" y="1057.5197" clip-path="url(#clipPath2)" stroke="none">    int32 verticalOffset)</text>
      <text x="1164.4188" xml:space="preserve" y="1075.6447" clip-path="url(#clipPath2)" stroke="none"> </text>
      <text x="1164.4188" xml:space="preserve" y="1093.7697" clip-path="url(#clipPath2)" stroke="none">void EyeScanDidScanPixel(</text>
      <text x="1164.4188" xml:space="preserve" y="1111.8947" clip-path="url(#clipPath2)" stroke="none">    AtEyeScanLane lane,</text>
      <text x="1164.4188" xml:space="preserve" y="1130.0197" clip-path="url(#clipPath2)" stroke="none">    int32 verticalOffset, </text>
      <text x="1164.4188" xml:space="preserve" y="1148.1447" clip-path="url(#clipPath2)" stroke="none">    int32 horizontalOffset,</text>
      <text x="1164.4188" xml:space="preserve" y="1166.2697" clip-path="url(#clipPath2)" stroke="none">    uint32 numErrors, </text>
      <text x="1164.4188" xml:space="preserve" y="1184.3947" clip-path="url(#clipPath2)" stroke="none">    uint32 maxNumErrors, </text>
      <text x="1164.4188" xml:space="preserve" y="1202.5197" clip-path="url(#clipPath2)" stroke="none">    float ber)    </text>
      <text x="1164.4188" xml:space="preserve" y="1220.6447" clip-path="url(#clipPath2)" stroke="none"> </text>
      <text x="1164.4188" xml:space="preserve" y="1238.7697" clip-path="url(#clipPath2)" stroke="none">void EyeScanDidFinish(</text>
      <text x="1164.4188" xml:space="preserve" y="1256.8947" clip-path="url(#clipPath2)" stroke="none">    AtEyeScanLane lane)</text>
    </g>
    <g text-rendering="optimizeQuality" stroke-miterlimit="1.45" shape-rendering="geometricPrecision" transform="matrix(1,0,0,1,-533,7)" stroke-linecap="butt">
      <path fill="none" d="M991.1701 187.9428 L1054.3594 187.9428" clip-path="url(#clipPath2)"/>
    </g>
    <g stroke-linecap="butt" transform="matrix(1,0,0,1,-533,7)" fill="white" text-rendering="optimizeQuality" shape-rendering="geometricPrecision" stroke="white" stroke-miterlimit="1.45">
      <path d="M984.1701 187.9428 L991.1701 182.9428 L998.1701 187.9428 L991.1701 192.9428 Z" clip-path="url(#clipPath2)" stroke="none"/>
      <path fill="none" d="M984.1701 187.9428 L991.1701 182.9428 L998.1701 187.9428 L991.1701 192.9428 Z" clip-path="url(#clipPath2)" stroke="black"/>
      <path fill="black" d="M1062.3594 187.9428 L1050.3594 182.9428 L1053.3594 187.9428 L1050.3594 192.9428 Z" clip-path="url(#clipPath2)" stroke="none"/>
      <rect x="1006.9222" width="32.6875" height="18.7012" y="178.5923" clip-path="url(#clipPath2)" stroke="none"/>
      <text x="1008.9222" y="192.6567" clip-path="url(#clipPath2)" fill="black" font-family="sans-serif" stroke="none" xml:space="preserve">lanes</text>
      <path fill="none" d="M766.1704 663.2302 L766.1704 598.6165" clip-path="url(#clipPath2)" stroke="black"/>
      <path fill="black" d="M766.1704 590.6165 L761.1704 602.6165 L766.1704 599.6165 L771.1704 602.6165 Z" clip-path="url(#clipPath2)" stroke="none"/>
      <rect x="715.813" width="100.7148" height="18.7012" y="617.5455" clip-path="url(#clipPath2)" stroke="none"/>
      <text x="717.813" y="631.61" clip-path="url(#clipPath2)" fill="black" font-family="sans-serif" stroke="none" xml:space="preserve">eyescanController</text>
      <path fill="none" d="M766.1704 102.5972 L766.1704 160.7317" clip-path="url(#clipPath2)" stroke="black"/>
      <path fill="black" d="M766.1704 168.7317 L771.1704 156.7317 L766.1704 159.7317 L761.1704 156.7317 Z" clip-path="url(#clipPath2)" stroke="none"/>
      <rect x="715.813" width="100.7148" height="18.7012" y="126.3189" clip-path="url(#clipPath2)" stroke="none"/>
      <text x="717.813" y="140.3833" clip-path="url(#clipPath2)" fill="black" font-family="sans-serif" stroke="none" xml:space="preserve">eyescanController</text>
      <path fill="none" d="M1295.8616 757.066 L1295.8616 814.7942" clip-path="url(#clipPath2)" stroke="black"/>
      <path fill="black" d="M1295.8616 822.7942 L1300.8616 810.7942 L1295.8616 813.7942 L1290.8616 810.7942 Z" clip-path="url(#clipPath2)" stroke="none"/>
      <rect x="1271.5198" width="48.6836" height="18.7012" y="780.5878" clip-path="url(#clipPath2)" stroke="none"/>
      <text x="1273.5198" y="794.6523" clip-path="url(#clipPath2)" fill="black" font-family="sans-serif" stroke="none" xml:space="preserve">listeners</text>
    </g>
  </g>
</svg>
