<?xml version="1.0" encoding="UTF-8"?>
<svg xmlns="http://www.w3.org/2000/svg" xmlns:xlink="http://www.w3.org/1999/xlink" fill-opacity="1" color-rendering="auto" color-interpolation="auto" stroke="black" text-rendering="auto" stroke-linecap="square" width="584" stroke-miterlimit="10" stroke-opacity="1" shape-rendering="auto" fill="black" stroke-dasharray="none" font-weight="normal" stroke-width="1" height="615" font-family="'Dialog'" font-style="normal" stroke-linejoin="miter" font-size="12" stroke-dashoffset="0" image-rendering="auto">
  <!--Generated by ySVG-->
  <defs id="genericDefs"/>
  <g>
    <defs id="defs1">
      <clipPath clipPathUnits="userSpaceOnUse" id="clipPath1">
        <path d="M0 0 L584 0 L584 615 L0 615 L0 0 Z"/>
      </clipPath>
      <clipPath clipPathUnits="userSpaceOnUse" id="clipPath2">
        <path d="M425 109 L1009 109 L1009 724 L425 724 L425 109 Z"/>
      </clipPath>
      <clipPath clipPathUnits="userSpaceOnUse" id="clipPath3">
        <path d="M-0.3666 -0.2187 L343.3208 -0.2187 L343.3208 361.7123 L-0.3666 361.7123 L-0.3666 -0.2187 Z"/>
      </clipPath>
      <clipPath clipPathUnits="userSpaceOnUse" id="clipPath4">
        <path d="M-0.3666 -22.8173 L343.3208 -22.8173 L343.3208 339.1137 L-0.3666 339.1137 L-0.3666 -22.8173 Z"/>
      </clipPath>
      <clipPath clipPathUnits="userSpaceOnUse" id="clipPath5">
        <path d="M-57.0616 -259.5159 L456.6979 -259.5159 L456.6979 281.515 L-57.0616 281.515 L-57.0616 -259.5159 Z"/>
      </clipPath>
      <clipPath clipPathUnits="userSpaceOnUse" id="clipPath6">
        <path d="M-57.0616 -353.9984 L456.6979 -353.9984 L456.6979 187.0326 L-57.0616 187.0326 L-57.0616 -353.9984 Z"/>
      </clipPath>
      <clipPath clipPathUnits="userSpaceOnUse" id="clipPath7">
        <path d="M-422.2301 -483.7275 L161.7699 -483.7275 L161.7699 131.2724 L-422.2301 131.2724 L-422.2301 -483.7275 Z"/>
      </clipPath>
      <clipPath clipPathUnits="userSpaceOnUse" id="clipPath8">
        <path d="M-57.0616 -293.2973 L456.6979 -293.2973 L456.6979 247.7336 L-57.0616 247.7336 L-57.0616 -293.2973 Z"/>
      </clipPath>
    </defs>
    <g fill="white" transform="translate(-425,-109)" stroke="white">
      <rect x="425" width="584" height="615" y="109" clip-path="url(#clipPath2)" stroke="none"/>
    </g>
    <g transform="matrix(1.6992,0,0,1.6992,0.6229,0.3716)" image-rendering="optimizeQuality">
      <image x="0" y="0" clip-path="url(#clipPath3)" width="276" xlink:href="data:image/png;base64,iVBORw0KGgoAAAANSUhEUgAAARQAAAAqCAYAAAByd6QQAAABqklEQVR42u3djUrD&#13;&#10;MBSA0barTvT931W3tdrALWZj9k9Blp4DFx1sFYR+JAppVQEAAAAAAPB46hXvq1d+&#13;&#10;BijDZ0yVfb2rXRiSNE1MLSqwq5Ck6WMmo7IkKE28L80hiwqwj6B0w1xiuq1BGVci&#13;&#10;6T3PwxyHeYrXjd817CIoKSDnYT7urFpWr1CaWJWkoLwO8xJROVilwC5WJ5eISZ1t&#13;&#10;e/otQcm3O88Rk7f4vhUUKD4ofaxOmgjLKabesuW5F5VjtvURFCh/u9PE1/xvqNXW&#13;&#10;oORROcS0Viiwi6CM25wxJrP3fLvyh9Q3A5Rr9X3uvzXAnxEUQFAAQQEEBUBQAEEB&#13;&#10;BAUQFABBAQQFEBQAQQEEBXgw7YbP/HieJFCMTfd5u+LC6aCVrro+Th8o1+09PxuY&#13;&#10;uaDcHqM/ni9phQLlG0+8P2dh+dWDvvKYpJOvD3HRyYNqgSK2PH127y+KSrvggl1c&#13;&#10;sKmuz5cE9rHlSQuI94hLv3WFkheqjten6vuwWisUKHuFkj+b5xSrlMkVylwU8mca&#13;&#10;548hFRPY19anW7LlWRIGJ92DqEw+ghQAAAAAgH/wBes7dS+/2re3AAAAAElFTkSu&#13;&#10;QmCC" height="42" preserveAspectRatio="none"/>
    </g>
    <g fill="white" stroke-width="2" stroke-miterlimit="1.45" transform="matrix(1,0,0,1,-425,-109)" stroke-linecap="butt" stroke="white">
      <path d="M440.6151 124.3638 L874.7661 124.3638 L874.7661 162.7638 L440.6151 162.7638 Z" clip-path="url(#clipPath2)" stroke="none"/>
      <path fill="none" d="M440.6151 124.3638 L874.7661 124.3638 L874.7661 162.7638 L440.6151 162.7638 Z" clip-path="url(#clipPath2)" stroke="rgb(153,51,204)"/>
    </g>
    <g font-size="20" stroke-linecap="butt" transform="matrix(1,0,0,1,-425,-109)" fill="rgb(153,51,204)" font-family="'Courier New'" stroke="rgb(153,51,204)" font-weight="bold" stroke-miterlimit="1.45">
      <text x="591.6798" xml:space="preserve" y="148.886" clip-path="url(#clipPath2)" stroke="none">AtBerModule</text>
    </g>
    <g transform="matrix(1.6992,0,0,1.6992,0.6229,38.7716)" image-rendering="optimizeQuality">
      <image x="0" y="0" clip-path="url(#clipPath4)" width="276" xlink:href="data:image/png;base64,iVBORw0KGgoAAAANSUhEUgAAARQAAACZCAYAAADuKcXLAAACfElEQVR42u3ZcWuC&#13;&#10;QBjAYU9dje37f9dValN4hSMi0/XHOp8HXqxhDgR/3FVVAQAAAAAA8H7SivPSys8A&#13;&#10;ZbjGVNnxrvbJkExTxyRRgV2FZJoh5mFUnglKHedN02RRAfYRlH6cLqbfGpR5JTKd&#13;&#10;cxjnOM5HvK/da9hFUKaAXMY53Vm1rF6h1LEqmYLyNc5nRKWxSoFdrE66iEnKtj3D&#13;&#10;lqDk251DxOQ7XreCAsUHZYjVSR1hOcekLVuee1E5ZlsfQYHytzt1HPPvUKutQcmj&#13;&#10;0sS0Viiwi6DM25w5JovPfLvyn6SbAcq1+jn3aw3wMoICCAogKICgAAgKICiAoACC&#13;&#10;AiAogKAAggIgKICgAIICCAqAoACCAggKgKAAggIICiAoAIICCAogKACCAggKICiA&#13;&#10;oAAICiAogKAACAogKICgAIICICiAoACCAiAogKAAggIICoCgAIICCAqAoACCAggK&#13;&#10;ICgAggIICiAogKC4BYCgAIICCAqAoACCAggKICgAggIICiAoAIICCAogKICgAAgK&#13;&#10;ICiAoAAICiAogKAAggIgKICgAIICICiAoACCAggKgKAAggIICoCgAIICCAogKACC&#13;&#10;AggKICgAggIICvB/tU+ed40ZskluHxQrf97n5/8lQZkv3I/TxVSCAsUHJX/m87hs&#13;&#10;Dkp+0XN2fut+Q/HyZ//y16DkK5PpYj/x9+l1415D8YYIyimi0i1FpV1xwTwmtS0P&#13;&#10;FL/lmRcVl2jA4iplKQopAtJEfMQE9heVeevTxwxbgzKfU98cgf2tVK7Vwi8+a+KQ&#13;&#10;Nn4OeN+YPHoPAAAAAAAAAAAAAAAAAAAAAAAAAAAAAAAAAAAAAAAAAAAAAAAAwH79&#13;&#10;AhlhctWLJqR5AAAAAElFTkSuQmCC" height="153" preserveAspectRatio="none"/>
    </g>
    <g fill="white" stroke-width="2" stroke-miterlimit="1.45" transform="matrix(1,0,0,1,-425,-109)" stroke-linecap="butt" stroke="white">
      <path d="M440.6151 162.7638 L874.7661 162.7638 L874.7661 337.7638 L440.6151 337.7638 Z" clip-path="url(#clipPath2)" stroke="none"/>
      <path fill="none" d="M440.6151 162.7638 L874.7661 162.7638 L874.7661 337.7638 L440.6151 337.7638 Z" clip-path="url(#clipPath2)" stroke="rgb(90,90,90)"/>
    </g>
    <g font-size="16" stroke-linecap="butt" transform="matrix(1,0,0,1,-425,-109)" fill="rgb(90,90,90)" font-family="'Courier New'" stroke="rgb(90,90,90)" font-weight="bold" stroke-miterlimit="1.45">
      <text x="466.2151" xml:space="preserve" y="182.0841" clip-path="url(#clipPath2)" stroke="none">void PeriodicProcess(uint32 periodInMs)</text>
      <text x="466.2151" xml:space="preserve" y="200.2091" clip-path="url(#clipPath2)" stroke="none"> </text>
      <text x="466.2151" xml:space="preserve" y="218.3341" clip-path="url(#clipPath2)" stroke="none">/* Manage BER controller */</text>
      <text x="466.2151" xml:space="preserve" y="236.4591" clip-path="url(#clipPath2)" stroke="none">AtBerController SdhLineBerControlerCreate(</text>
      <text x="466.2151" xml:space="preserve" y="254.5841" clip-path="url(#clipPath2)" stroke="none">    AtChannel line)</text>
      <text x="466.2151" xml:space="preserve" y="272.7091" clip-path="url(#clipPath2)" stroke="none">AtBerController SdhPathBerControlerCreate(</text>
      <text x="466.2151" xml:space="preserve" y="290.8341" clip-path="url(#clipPath2)" stroke="none">    AtChannel path)</text>
      <text x="466.2151" xml:space="preserve" y="308.9591" clip-path="url(#clipPath2)" stroke="none">void ControllerDelete(</text>
      <text x="466.2151" xml:space="preserve" y="327.0841" clip-path="url(#clipPath2)" stroke="none">    AtBerController controller)</text>
      <text x="466.2151" xml:space="preserve" y="345.2091" clip-path="url(#clipPath2)" stroke="none"> </text>
      <text x="466.2151" xml:space="preserve" y="363.3341" clip-path="url(#clipPath2)" stroke="none"> </text>
      <text x="466.2151" xml:space="preserve" y="381.4591" clip-path="url(#clipPath2)" stroke="none"> </text>
    </g>
    <g transform="matrix(1.1367,0,0,1.1367,64.8629,294.9966)" image-rendering="optimizeQuality">
      <image x="0" y="0" clip-path="url(#clipPath5)" width="276" xlink:href="data:image/png;base64,iVBORw0KGgoAAAANSUhEUgAAARQAAAA2CAYAAAAGY2bwAAABvUlEQVR42u3d22rC&#13;&#10;QBRA0dxaS/v//1qrMU3gDA4BmyHVFpO1YFDbOA9CNsfkwaoCAAAAAODP1A8+Hnh+&#13;&#10;wz0DUWdLVGCfMRmytToo0/+b2RIU2FdQLrN1MypdwWTSxnEv8VxUYF8x6cd1Htcp&#13;&#10;/n4zKt3Chk0ccxjX27hes6gA25ZiMoXkcxaZVRNKCsoUk494TJMKsP3p5JzFJE0q&#13;&#10;9ZoJJQWljclkisl7PO983rD5oKTppI7HY7VwyWMpDPOoHGKZUGAfE0oTU0lXFVw/&#13;&#10;LZk08js9bXW9SAtsf0JJ53zRzRgXV4G7ERRAUABBAQQFQFAAQQEEBRAUAEEBBAUQ&#13;&#10;FABBAQQFEBRAUAAEBRAUQFAABAUQFEBQAEEBEBRAUABBARAU4JFKf6N4qK4/npwW&#13;&#10;sF35+Z7O/7sEJW16jtWUbg48dVD67LzP47I6KHlMvuL46XXr84bN67Nz//TboKQx&#13;&#10;Z9rwGBEZ4j2uvcD2XbLz/yubVIa1Qck3HGLTVlBgF195UgNO0YDFKaVe2LSJ1WWT&#13;&#10;SVPwPmA7UUlfffpYl7VBqbKApEcxgX1OKkO1cMenNA71yvcBzx2Tn14DAAAAAPCf&#13;&#10;vgGbi3NEk7k2fwAAAABJRU5ErkJggg==" height="54" preserveAspectRatio="none"/>
    </g>
    <g fill="white" stroke-width="2" stroke-miterlimit="1.45" transform="matrix(1,0,0,1,-425,-109)" stroke-linecap="butt" stroke="white">
      <path d="M499.2301 413.3638 L789.3811 413.3638 L789.3811 451.7638 L499.2301 451.7638 Z" clip-path="url(#clipPath2)" stroke="none"/>
      <path fill="none" d="M499.2301 413.3638 L789.3811 413.3638 L789.3811 451.7638 L499.2301 451.7638 Z" clip-path="url(#clipPath2)" stroke="rgb(153,51,204)"/>
    </g>
    <g font-size="20" stroke-linecap="butt" transform="matrix(1,0,0,1,-425,-109)" fill="rgb(153,51,204)" font-family="'Courier New'" stroke="rgb(153,51,204)" font-weight="bold" stroke-miterlimit="1.45">
      <text x="554.291" xml:space="preserve" y="437.886" clip-path="url(#clipPath2)" stroke="none">AtBerController</text>
    </g>
    <g transform="matrix(1.1367,0,0,1.1367,64.8629,402.3966)" image-rendering="optimizeQuality">
      <image x="0" y="0" clip-path="url(#clipPath6)" width="276" xlink:href="data:image/png;base64,iVBORw0KGgoAAAANSUhEUgAAARQAAAC6CAYAAABvEbJTAAAC6UlEQVR42u3a4Wqj&#13;&#10;QBSAUSe629J9/3dNNmqq7B12EIpTaQMdz4FLQpv6Q/Djatp1AAAAAAA8TfrmzwM/&#13;&#10;3+MrA5GKERU4Z0wexRwOyvr7y2YEBc4VlHkzH0ZlqNhM+vjcr3gvKnCumEzLjMvc&#13;&#10;4+cfRmXYOeAlPvOyzOsyv4uoAG3LMVlDct1E5tCGkoOyxuRPvOZNBWh/OxmLmORN&#13;&#10;JR3ZUHJQ+thM1pi8xfvB+Ybmg5K3kxSvt27nkcdeGLZReYmxocA5NpRLbCVDV/H8&#13;&#10;tGbTKL/p6bv/D2mB9jeUfM1XfRnj4SrwZQQFEBRAUABBARAUQFAAQQEEBUBQAEEB&#13;&#10;BAVAUABBAQQFEBQAQQEEBRAUAEEBBAUQFEBQAAQFEBRAUAAEBRAUQFAAQQEQFEBQ&#13;&#10;AEEBEBRAUABBAQQFQFAAQQEEBUBQAEEBBAUQFABBAQQFEBQAQQEEBRAUQFAABAUQ&#13;&#10;FEBQAEFxCgBBAQQFEBQAQQEEBRAUQFAABAUQFEBQAAQFEBRAUABBARAUQFAAQQEQ&#13;&#10;FEBQAEEBBAVAUABBAQQFQFAAQQEEBRAUAEEBBAUQFABBAQQFEBRAUAAEBRAUQFAA&#13;&#10;BAUQFEBQAEEBEBRAUABBARAUQFAAQQEEBUBQAEEBBAUQFABBAQQFEBQAQQEEBRAU&#13;&#10;QFAABAUQFEBQAAQFEBRAUABBARAUQFAAQQEQFEBQAEEBBAVAUABBAQQFQFAAQQEE&#13;&#10;BRAUAEEBBAUQFABBAQQFEBRAUAAEBRAUQFAABAUQFEBQAEEBEBRAUABBARAUQFAA&#13;&#10;QQEEBUBQgKcaDvzNIwZo16HrfPjEgedlpuIVaFt5zc81gdkLSo7JetB7TFqmd66h&#13;&#10;eeV1P9VEZfhETG7dv2cuo6DAKW555rjeb7VR2dtQ8gGvsZlMERMPc+E8tzx/owFj&#13;&#10;/OzwhjIXtzlzsaUICrS/oeQZIyr3vQ0l7Rw0RTz6YjNJzjWc7tZnqrnlqYlD2gxw&#13;&#10;3m3Fv4wAAAAAAAA05x1tfXM3H/wEXgAAAABJRU5ErkJggg==" height="186" preserveAspectRatio="none"/>
    </g>
    <g fill="white" stroke-width="2" stroke-miterlimit="1.45" transform="matrix(1,0,0,1,-425,-109)" stroke-linecap="butt" stroke="white">
      <path d="M499.2301 520.7638 L789.3811 520.7638 L789.3811 708.7638 L499.2301 708.7638 Z" clip-path="url(#clipPath2)" stroke="none"/>
      <path fill="none" d="M499.2301 520.7638 L789.3811 520.7638 L789.3811 708.7638 L499.2301 708.7638 Z" clip-path="url(#clipPath2)" stroke="rgb(90,90,90)"/>
    </g>
    <g font-size="16" stroke-linecap="butt" transform="matrix(1,0,0,1,-425,-109)" fill="rgb(90,90,90)" font-family="'Courier New'" stroke="rgb(90,90,90)" font-weight="bold" stroke-miterlimit="1.45">
      <text x="517.0024" xml:space="preserve" y="540.0841" clip-path="url(#clipPath2)" stroke="none">eAtRet Init()</text>
      <text x="517.0024" xml:space="preserve" y="558.2091" clip-path="url(#clipPath2)" stroke="none">uint32 IdGet()</text>
      <text x="517.0024" xml:space="preserve" y="576.3341" clip-path="url(#clipPath2)" stroke="none">AtChannel MonitoredChannel()</text>
      <text x="517.0024" xml:space="preserve" y="594.4591" clip-path="url(#clipPath2)" stroke="none">AtModule ModuleGet()</text>
      <text x="517.0024" xml:space="preserve" y="612.5841" clip-path="url(#clipPath2)" stroke="none"> </text>
      <text x="517.0024" xml:space="preserve" y="630.7091" clip-path="url(#clipPath2)" stroke="none">eAtBerRate SfThresholdGet()</text>
      <text x="517.0024" xml:space="preserve" y="648.8341" clip-path="url(#clipPath2)" stroke="none">eAtBerRate CurBerGet()</text>
      <text x="517.0024" xml:space="preserve" y="666.9591" clip-path="url(#clipPath2)" stroke="none">eBool IsSd()</text>
      <text x="517.0024" xml:space="preserve" y="685.0841" clip-path="url(#clipPath2)" stroke="none">eBool IsSf()</text>
    </g>
    <g transform="matrix(1,0,0,1,422.2301,483.7275)" image-rendering="optimizeQuality">
      <image x="0" y="0" clip-path="url(#clipPath7)" width="159" xlink:href="data:image/png;base64,iVBORw0KGgoAAAANSUhEUgAAAJ8AAAA7CAYAAABlllgYAAABnklEQVR42u3da2vC&#13;&#10;MBiA0ahVdvn/v3VeWp1lb6ALrY06ceA5EDov9IM8JNMPSUoAAAAPsnjQe3ltp78K&#13;&#10;alEMmAtvOG6Or399eR6ruC4FyEx4xxhdXCcDbCrDW8doBMjMbNeex2Hw2mSANfH1&#13;&#10;0b2dx/sgQPFRyrNdH97XSJRXxZeK+D7juo7noVxu+1lvG4+7eNzdu+xuIryP+Ft8&#13;&#10;jMWXl9t9RHjxX7S5mS8H2MSMt4mx8nlTxNdFL4fa7wZNxY0XgwjzTCg+yvhSBLhM&#13;&#10;lT/LWT55GvEhPsQH4kN8ID7EB+JDfCA+xAfiQ3wgPsQH4kN8iA/Eh/hAfIgPxIf4&#13;&#10;QHyID8SH+EB8iA/Exz9Sszlk3tA5b/jc+dgYaSS3cUwVZ3DUxHdKvzd3bmO2FCBl&#13;&#10;J3lP5rwJ+GyATWV4/U136Wer0/7mtsVlKr5dXGcDnJv58g3zzuJtcg4H0630we0j&#13;&#10;wDaeu3nmy8vtNm7UxKwnPsbiy2dxHIrZ7+Zltx2EWL3TOC+59JZfTC8uu9ecOunM&#13;&#10;Na6N8K5TJ+99P68ZHwAAwHN9A0kzeB8uTh2vAAAAAElFTkSuQmCC" height="59" preserveAspectRatio="none"/>
    </g>
    <g fill="white" stroke-width="2" stroke-miterlimit="1.45" transform="matrix(1,0,0,1,-425,-109)" stroke-linecap="butt" stroke="white">
      <path d="M855.2301 600.7275 L993.3811 600.7275 L993.3811 639.1276 L855.2301 639.1276 Z" clip-path="url(#clipPath2)" stroke="none"/>
      <path fill="none" d="M855.2301 600.7275 L993.3811 600.7275 L993.3811 639.1276 L855.2301 639.1276 Z" clip-path="url(#clipPath2)" stroke="rgb(153,51,204)"/>
    </g>
    <g font-size="20" stroke-linecap="butt" transform="matrix(1,0,0,1,-425,-109)" fill="rgb(153,51,204)" font-family="'Courier New'" stroke="rgb(153,51,204)" font-weight="bold" stroke-miterlimit="1.45">
      <text x="876.2978" xml:space="preserve" y="625.2498" clip-path="url(#clipPath2)" stroke="none">AtObject</text>
    </g>
    <g transform="matrix(1.1367,0,0,1.1367,64.8629,333.3966)" image-rendering="optimizeQuality">
      <image x="0" y="0" clip-path="url(#clipPath8)" width="276" xlink:href="data:image/png;base64,iVBORw0KGgoAAAANSUhEUgAAARQAAABRCAYAAAATklkSAAAB9klEQVR42u3ZfUuD&#13;&#10;UBTAYd9qUd//u7Y2NYVz6SIsL7aK6fPAYVs5/xj448xVFQAAAAAAf6b+5eOBxzfe&#13;&#10;MxB1NqICx4zJmM3moMz/bxYjKHCsoAyLuRmVrmAzaeO4p3guKnCsmPTTXKe5xN9v&#13;&#10;RqVbOWETx5ymeZnmOYsKsG8pJnNI3heR2bShpKDMMXmLx7SpAPvfTq5ZTNKmUm/Z&#13;&#10;UFJQ2thM5pi8xvPO5w27D0raTup4PFcrtzzWwrCMyinGhgLH2FCa2Eq6quD+acmm&#13;&#10;kf/S01ZfN2mB/W8o6Zov+jHGzVXgbgQFEBRAUABBARAUQFAAQQEEBUBQAEEBBAVA&#13;&#10;UABBAQQFEBQAQQEEBRAUAEEBBAUQFEBQAAQFEBRAUAAEBRAUQFAAQQEQFEBQAEEB&#13;&#10;EBRAUABBAQQFQFAAQQEEBUBQAEEBBAUQFABBAQQFEBQAQQEEBRAUQFAABAUQFEBQ&#13;&#10;gMPrCo8bY4ZsgP3Kr/d0/d8lKOmk15im9OTAQwelz677PC6bg5LH5COOn1+3Pm/Y&#13;&#10;vT679i8/DUpac+YTniMiY7zHvRfYvyG7/j+yTWXcGpT8hGOctBUUOMRXntSASzRg&#13;&#10;dUupV07axHTZZtIUvA/YT1TSV58+ZtgalCoLSHoUEzjmpjJWK7/4lMah3vg+4LFj&#13;&#10;8t1rAAAAAAD+0yedAnN6Bz6aXQAAAABJRU5ErkJggg==" height="81" preserveAspectRatio="none"/>
    </g>
    <g fill="white" stroke-width="2" stroke-miterlimit="1.45" transform="matrix(1,0,0,1,-425,-109)" stroke-linecap="butt" stroke="white">
      <path d="M499.2301 451.7638 L789.3811 451.7638 L789.3811 520.7638 L499.2301 520.7638 Z" clip-path="url(#clipPath2)" stroke="none"/>
      <path fill="none" d="M499.2301 451.7638 L789.3811 451.7638 L789.3811 520.7638 L499.2301 520.7638 Z" clip-path="url(#clipPath2)" stroke="rgb(90,90,90)"/>
    </g>
    <g font-size="16" stroke-linecap="butt" transform="matrix(1,0,0,1,-425,-109)" fill="rgb(90,90,90)" font-family="'Courier New'" stroke="rgb(90,90,90)" font-weight="bold" stroke-miterlimit="1.45">
      <text x="517.0024" xml:space="preserve" y="471.0841" clip-path="url(#clipPath2)" stroke="none">eBool enabled</text>
      <text x="517.0024" xml:space="preserve" y="489.2091" clip-path="url(#clipPath2)" stroke="none">eAtBerRate sdThreshold</text>
      <text x="517.0024" xml:space="preserve" y="507.3341" clip-path="url(#clipPath2)" stroke="none">eAtBerRate sfThreshold</text>
    </g>
    <g stroke-linecap="butt" transform="matrix(1,0,0,1,-425,-109)" stroke-miterlimit="1.45">
      <path fill="none" d="M722.4981 344.7506 L722.4981 405.3511" clip-path="url(#clipPath2)"/>
    </g>
    <g fill="white" stroke-miterlimit="1.45" transform="matrix(1,0,0,1,-425,-109)" stroke-linecap="butt" stroke="white">
      <path d="M722.4981 337.7506 L727.4981 344.7506 L722.4981 351.7506 L717.4981 344.7506 Z" clip-path="url(#clipPath2)" stroke="none"/>
      <path fill="none" d="M722.4981 337.7506 L727.4981 344.7506 L722.4981 351.7506 L717.4981 344.7506 Z" clip-path="url(#clipPath2)" stroke="black"/>
      <path fill="black" d="M722.4981 413.3511 L727.4981 401.3511 L722.4981 404.3511 L717.4981 401.3511 Z" clip-path="url(#clipPath2)" stroke="none"/>
      <rect x="692.8213" width="59.3535" height="18.7012" y="366.2132" clip-path="url(#clipPath2)" stroke="none"/>
      <text x="694.8214" y="380.2776" clip-path="url(#clipPath2)" fill="black" font-family="sans-serif" stroke="none" xml:space="preserve">controllers</text>
      <path fill="none" d="M552 413.3729 L552 345.7308" clip-path="url(#clipPath2)" stroke="black"/>
      <path fill="black" d="M552 337.7308 L547 349.7308 L552 346.7308 L557 349.7308 Z" clip-path="url(#clipPath2)" stroke="none"/>
      <rect x="530.3213" width="43.3574" height="18.7012" y="366.2132" clip-path="url(#clipPath2)" stroke="none"/>
      <text x="532.3213" y="380.2776" clip-path="url(#clipPath2)" fill="black" font-family="sans-serif" stroke="none" xml:space="preserve">module</text>
      <path fill="none" d="M789.3543 619.9276 L840.2155 619.9276" clip-path="url(#clipPath2)" stroke="black"/>
      <path d="M855.2155 619.9276 L839.2155 613.9276 L839.2155 625.9276 Z" clip-path="url(#clipPath2)" stroke="none"/>
      <path fill="none" d="M855.2155 619.9276 L839.2155 613.9276 L839.2155 625.9276 Z" clip-path="url(#clipPath2)" stroke="black"/>
    </g>
  </g>
</svg>
