<?xml version="1.0" encoding="UTF-8"?><svg xmlns="http://www.w3.org/2000/svg" xmlns:xlink="http://www.w3.org/1999/xlink" fill-opacity="1" color-rendering="auto" color-interpolation="auto" text-rendering="auto" stroke="black" stroke-linecap="square" width="1442" stroke-miterlimit="10" shape-rendering="auto" stroke-opacity="1" fill="black" stroke-dasharray="none" font-weight="normal" stroke-width="1" height="1358" font-family="'Dialog'" font-style="normal" stroke-linejoin="miter" font-size="12px" stroke-dashoffset="0" image-rendering="auto">
  <!--Generated by ySVG 2.5-->
  <defs id="genericDefs"/>
  <g>
    <defs id="defs1">
      <clipPath clipPathUnits="userSpaceOnUse" id="clipPath1">
        <path d="M0 0 L1442 0 L1442 1358 L0 1358 L0 0 Z"/>
      </clipPath>
      <clipPath clipPathUnits="userSpaceOnUse" id="clipPath2">
        <path d="M-842 -716 L600 -716 L600 642 L-842 642 L-842 -716 Z"/>
      </clipPath>
      <clipPath clipPathUnits="userSpaceOnUse" id="clipPath3">
        <path d="M-387.6624 -2.7653 L640.6161 -2.7653 L640.6161 965.6135 L-387.6624 965.6135 L-387.6624 -2.7653 Z"/>
      </clipPath>
      <clipPath clipPathUnits="userSpaceOnUse" id="clipPath4">
        <path d="M-0.7266 -153.3945 L876.119 -153.3945 L876.119 672.3727 L-0.7266 672.3727 L-0.7266 -153.3945 Z"/>
      </clipPath>
      <clipPath clipPathUnits="userSpaceOnUse" id="clipPath5">
        <path d="M-199.7889 -58.5248 L377.9138 -58.5248 L377.9138 485.5253 L-199.7889 485.5253 L-199.7889 -58.5248 Z"/>
      </clipPath>
      <clipPath clipPathUnits="userSpaceOnUse" id="clipPath6">
        <path d="M-303.9464 -62.5492 L560.5782 -62.5492 L560.5782 751.6147 L-303.9464 751.6147 L-303.9464 -62.5492 Z"/>
      </clipPath>
      <clipPath clipPathUnits="userSpaceOnUse" id="clipPath7">
        <path d="M-0.7522 -123.2863 L878.1812 -123.2863 L878.1812 704.447 L-0.7522 704.447 L-0.7522 -123.2863 Z"/>
      </clipPath>
      <clipPath clipPathUnits="userSpaceOnUse" id="clipPath8">
        <path d="M-472.6737 -95.6759 L217.33 -95.6759 L217.33 554.1335 L-472.6737 554.1335 L-472.6737 -95.6759 Z"/>
      </clipPath>
      <clipPath clipPathUnits="userSpaceOnUse" id="clipPath9">
        <path d="M-285.0392 -527.7247 L540.8043 -527.7247 L540.8043 250.0113 L-285.0392 250.0113 L-285.0392 -527.7247 Z"/>
      </clipPath>
      <clipPath clipPathUnits="userSpaceOnUse" id="clipPath10">
        <path d="M-287.0327 -502.5093 L544.3907 -502.5093 L544.3907 280.4817 L-287.0327 280.4817 L-287.0327 -502.5093 Z"/>
      </clipPath>
      <clipPath clipPathUnits="userSpaceOnUse" id="clipPath11">
        <path d="M-603.374 -93.8664 L273.4717 -93.8664 L273.4717 731.9008 L-603.374 731.9008 L-603.374 -93.8664 Z"/>
      </clipPath>
      <clipPath clipPathUnits="userSpaceOnUse" id="clipPath12">
        <path d="M-45.3858 -623.8555 L982.8928 -623.8555 L982.8928 344.5233 L-45.3858 344.5233 L-45.3858 -623.8555 Z"/>
      </clipPath>
    </defs>
    <g fill="white" text-rendering="geometricPrecision" shape-rendering="geometricPrecision" transform="translate(842,716)" stroke="white">
      <rect x="-842" width="1442" height="1358" y="-716" clip-path="url(#clipPath2)" stroke="none"/>
    </g>
    <g text-rendering="geometricPrecision" shape-rendering="geometricPrecision" transform="matrix(1.4023,0,0,1.4023,543.636,3.8779)" image-rendering="optimizeQuality">
      <image x="0" y="0" clip-path="url(#clipPath3)" width="276" xlink:href="data:image/png;base64,iVBORw0KGgoAAAANSUhEUgAAARQAAAA4CAYAAAA8aQeAAAACaklEQVR4Xu3Y205U&#13;&#10;URCE4WaQg5wCI4oIQREBASNqFAUPhEPUwPu/j1XpTMKNF7OnSciav5LvcvdcrUr3&#13;&#10;RBBCCCGEEEIIIYQQQgh50JkAMDbKMxjck0kAY8dv30YumEGRPJJpmZXHMgegaX7n&#13;&#10;5jc/I1OR5dK5VAZl4kEevCjL0pdVAM17IiuyFFkyXio6l4o/8mbiMnGRrMmmvJLX&#13;&#10;AJq3LVuyHrlIzEcuGL3oEH/kRvJm4jLx8AM5lk8Amue3fiS7shG5WPgE8pYydPyR&#13;&#10;P/YQbyaH8lnO5BeA5n2XE3kfuVD4DPLp48tl6LhQfO70I88ct5XL5FJ+A2jelfyM&#13;&#10;XCT2Ii+VhRixUPzHjO8pr0BuLf/QLYCm3cgfuZCv8laeB4UCoAMKBUAZCgVAGQoF&#13;&#10;QBkKBUAZCgVAGQoFQBkKBUAZCgVAGQoFQBkKBUAZCgVAGQoFQBkKBUAZCgVAGQoF&#13;&#10;QBkKBUAZCgVAGQoFQBkKBUAZCgVAGQoFQBkKBUAZCgVAGQoFQBkKBUAZCgVAGQoF&#13;&#10;QBkKBUCZey2UbfkgP+RK/gJomsvkOnKJ+CL7shYjFsqsrMiWvItsKv/AJYCmeTM5&#13;&#10;lzP5KG/kqcxHx0LpyYwsyQvZk+PItjoF0LRvchJZJoeRS0U/8mrxsjF0XChTkY3k&#13;&#10;s2dTdiJvKf8AgLb5re/Ky8hzx8uFlwx3w9CZiGwiD/Dd5HZ6JuuyAaB5fusuktXI&#13;&#10;MvFfID533A2dMiiV6chVx9vKYuRwAG3zW/cyMRe5WLhMOm0nd+NS8RAXiwf6DAIw&#13;&#10;Pvzu/f47byb/iwcCGC+EEEIIIYQQQgghhBBCHmL+AR1M6k3niH+xAAAAAElFTkSu&#13;&#10;QmCC" height="56" preserveAspectRatio="none"/>
      <path fill="white" d="M-286.3405 -700.0987 L72.0238 -700.0987 L72.0238 -650.0642 L-286.3405 -650.0642 Z" clip-path="url(#clipPath2)" transform="matrix(0.7131,0,0,0.7131,212.761,507.8085)" stroke="none" image-rendering="auto"/>
    </g>
    <g stroke-linecap="butt" transform="matrix(1,0,0,1,842,716)" fill="rgb(153,51,204)" text-rendering="geometricPrecision" shape-rendering="geometricPrecision" stroke="rgb(153,51,204)" stroke-width="2" stroke-miterlimit="1.45">
      <path fill="none" d="M-286.3405 -700.0987 L72.0238 -700.0987 L72.0238 -650.0642 L-286.3405 -650.0642 Z" clip-path="url(#clipPath2)"/>
    </g>
    <g stroke-linecap="butt" font-size="20px" transform="matrix(1,0,0,1,842,716)" fill="rgb(153,51,204)" text-rendering="geometricPrecision" font-family="'Courier New'" shape-rendering="geometricPrecision" stroke="rgb(153,51,204)" font-weight="bold" stroke-miterlimit="1.45">
      <text x="-161.1672" xml:space="preserve" y="-669.7592" clip-path="url(#clipPath2)" stroke="none">AtChannel</text>
    </g>
    <g text-rendering="geometricPrecision" shape-rendering="geometricPrecision" transform="matrix(1.6445,0,0,1.6445,1.195,252.2621)" image-rendering="optimizeQuality">
      <image x="0" y="0" clip-path="url(#clipPath4)" width="276" xlink:href="data:image/png;base64,iVBORw0KGgoAAAANSUhEUgAAARQAAADlCAYAAACSyQhxAAAEwUlEQVR4Xu3Y2Y5V&#13;&#10;VRhG0Y2AaKQVEYNIpwmKIIpeIGCwwQZ9//dx/dlW4nXVjDGH8SXjsnZdrZm1zraZ&#13;&#10;mZmZmZmZmZmZmZnZ4e7U8tY/TgNvjDnzc/6THYVkPnx2Obe8s7wLHLQ553Pe317O&#13;&#10;bFFY5iPzsfn4+eXScmV5Hzhoc87nvF/Y9sDMhWJ6cOxNjeZmMjG5uFxbbiy3ljvA&#13;&#10;QZtzfnP5cNvDMlGZy8Wp7ZibP5wqvbd8sNxe7i8Pl8fL18BBmvP9aPliubtc3/ab&#13;&#10;yjx/jh2Uud7MG2rqNDeTicmT5enyYvkBOEhzvp8t3y0Plk+Wy9v+Wjn2s2f+cD4w&#13;&#10;b6m5/kyxvl9+XH5dfgMO0pzvn5fn235jubdc3fZnz4mDMj/Q3Nn2D0+5Xi2vlz+B&#13;&#10;gzTne8LycttvKZ9t+88eeVDmOjT1mn/6F3CQ5nz/vu2vEUEBTkRQgIygABlBATKC&#13;&#10;AmQEBcgICpARFCAjKEBGUICMoAAZQQEyggJkBAXICAqQERQgIyhARlCAjKAAGUEB&#13;&#10;MoICZAQFyAgKkBEUICMoQEZQgIygABlBATKCAmQEBcgICpARFCAjKEBGUICMoAAZ&#13;&#10;QQEyggJkBAXICAqQERQgIyhARlCAjKAAGUEBMoICZAQFyAgKkBEUICMoQEZQgIyg&#13;&#10;ABlBATKCAmQEBcgICpARFCAjKEBGUICMoAAZQQEyggJkBAXICAqQERQgIyhARlCA&#13;&#10;jKAAGUEBMoICZAQFyAgKkBEUICMoQEZQgIygABlBATKCAmQEBcgICpARFCAjKEBG&#13;&#10;UICMoAAZQQEyggJkBAXICAqQERQgIyhARlCAjKAAGUEBMoICZAQFyAgKkBEUICMo&#13;&#10;QEZQgIygABlBATKCAmQEBcgICpARFCAjKEBGUICMoAAZQQEyggJkBAXICAqQERQg&#13;&#10;IyhARlCAjKAAGUEBMoICZAQFyAgKkBEUICMoQEZQgIygABlBATKCAmQEBcgICpAR&#13;&#10;FCAjKEBGUICMoAAZQQEyggJkBAXICAqQERQgIyhARlCAjKAAGUEBMoICZAQFyAgK&#13;&#10;kBEUICMoQEZQgIygABlBATKCAmQEBcgICpARFCAjKEBGUICMoAAZQQEyggJkBAXI&#13;&#10;CAqQERQgIyhARlCAjKAAGUEBMoICZAQFyAgKkBEUICMoQEZQgIygABlBATKCAmQE&#13;&#10;BcgICpARFCAjKEBGUICMoAAZQQEyggJkBAXICAqQERQgIyhARlCAjKAAGUEBMoIC&#13;&#10;ZAQFyAgKkBEUICMoQEZQgIygABlBATKCAmQEBcgICpARFCAjKEDmPwnK4+XF8svy&#13;&#10;x/IaOEhzvufi8HL5dvl0C4NyZbm1PFyebnu1Xm37PwQOz5zvn5bn2/4yubtc3YKg&#13;&#10;nFsuLTeW+8uTbY/K3FTm+QMcnjnfz7b9ufPltl8o5mIxF4xjB+XUcnY5v1xbbi+f&#13;&#10;L4+2vVrfAAdpzvdXy4Pl3vLRcmF5e9u7cKzNH57e9ipd3PaofLztYZkrEHC45pzf&#13;&#10;XK4vl7f9uXNmO0FQZnO9mY9MVOamMs+fK9v+Q+28qYDDM+d7TEjmZjIxmdfKsZ87&#13;&#10;R5sazUfmpjIfnN9UJi7A4ZvzPs+cuVRMB050O/n35kNHcQHeHEdn38zMzMzMzMzM&#13;&#10;zMz+b/sbATCJ1w5K3zEAAAAASUVORK5CYII=" height="229" preserveAspectRatio="none"/>
      <path fill="white" d="M-826.3597 -449.2926 L-407.9657 -449.2926 L-407.9657 -105.3861 L-826.3597 -105.3861 Z" clip-path="url(#clipPath2)" transform="matrix(0.6081,0,0,0.6081,511.2734,281.9879)" stroke="none" image-rendering="auto"/>
    </g>
    <g stroke-linecap="butt" transform="matrix(1,0,0,1,842,716)" fill="rgb(90,90,90)" text-rendering="geometricPrecision" shape-rendering="geometricPrecision" stroke="rgb(90,90,90)" stroke-width="2" stroke-miterlimit="1.45">
      <path fill="none" d="M-826.3597 -449.2926 L-407.9657 -449.2926 L-407.9657 -105.3861 L-826.3597 -105.3861 Z" clip-path="url(#clipPath2)"/>
    </g>
    <g stroke-linecap="butt" font-size="16px" transform="matrix(1,0,0,1,842,716)" fill="rgb(90,90,90)" text-rendering="geometricPrecision" font-family="'Courier New'" shape-rendering="geometricPrecision" stroke="rgb(90,90,90)" font-weight="bold" stroke-miterlimit="1.45">
      <text x="-801.6162" xml:space="preserve" y="-429.9723" clip-path="url(#clipPath2)" stroke="none">/* Concate Group management */</text>
      <text x="-801.6162" xml:space="preserve" y="-411.8473" clip-path="url(#clipPath2)" stroke="none">AtConcateGroup GroupCreate(</text>
      <text x="-801.6162" xml:space="preserve" y="-393.7223" clip-path="url(#clipPath2)" stroke="none">        uint32 groupId, </text>
      <text x="-801.6162" xml:space="preserve" y="-375.5973" clip-path="url(#clipPath2)" stroke="none">        eAtConcateMemberType memberType, </text>
      <text x="-801.6162" xml:space="preserve" y="-357.4723" clip-path="url(#clipPath2)" stroke="none">        eAtConcateGroupType concateType)</text>
      <text x="-801.6162" xml:space="preserve" y="-339.3473" clip-path="url(#clipPath2)" stroke="none">eAtModuleConcateRet GroupDelete(</text>
      <text x="-801.6162" xml:space="preserve" y="-321.2223" clip-path="url(#clipPath2)" stroke="none">        uint32 groupId)</text>
      <text x="-801.6162" xml:space="preserve" y="-303.0973" clip-path="url(#clipPath2)" stroke="none">AtConcateGroup GroupGet(</text>
      <text x="-801.6162" xml:space="preserve" y="-284.9723" clip-path="url(#clipPath2)" stroke="none">        uint32 groupId)</text>
      <text x="-801.6162" xml:space="preserve" y="-266.8473" clip-path="url(#clipPath2)" stroke="none">uint32 FreeGroupGet()</text>
      <text x="-801.6162" xml:space="preserve" y="-248.7223" clip-path="url(#clipPath2)" stroke="none">uint32 MaxGroupGet()</text>
      <text x="-801.6162" xml:space="preserve" y="-230.5973" clip-path="url(#clipPath2)" stroke="none"> </text>
      <text x="-801.6162" xml:space="preserve" y="-212.4723" clip-path="url(#clipPath2)" stroke="none">/* Capacity */</text>
      <text x="-801.6162" xml:space="preserve" y="-194.3473" clip-path="url(#clipPath2)" stroke="none">eBool GroupTypeIsSupported(</text>
      <text x="-801.6162" xml:space="preserve" y="-176.2223" clip-path="url(#clipPath2)" stroke="none">      eAtConcateGroupType concateType)</text>
      <text x="-801.6162" xml:space="preserve" y="-158.0973" clip-path="url(#clipPath2)" stroke="none">eBool MemberTypeIsSupported(</text>
      <text x="-801.6162" xml:space="preserve" y="-139.9723" clip-path="url(#clipPath2)" stroke="none">      eAtConcateMemberType memberType)</text>
    </g>
    <g text-rendering="geometricPrecision" shape-rendering="geometricPrecision" transform="matrix(2.4961,0,0,2.4961,498.6918,146.0833)" image-rendering="optimizeQuality">
      <image x="0" y="0" clip-path="url(#clipPath5)" width="191" xlink:href="data:image/png;base64,iVBORw0KGgoAAAANSUhEUgAAAL8AAAEUCAYAAAB6RuefAAAE20lEQVR4Xu3X144d&#13;&#10;RRRA0QJsTDDBApMRyeQgMiIHEwz8//9QR81IfmU8wtfa60hLmpfb/bJPdc1axhhj&#13;&#10;jDHGGGOMMaY39/3rfrgHTKsXMmfRX9oubw9uV+AETZvT6APrApZgfjwPmoc+vF3d&#13;&#10;Ht+egBP02Pbo9tA6lmAW4NwzP57w54HXtme2F7aX4MS8uD2/XV/HIsxhPbeVc53+&#13;&#10;Z6f+PGTCn+hf397Z3t8+gBPy3vbW9ur27DpuKHMVOtfpP/HPp+PqOk78Cf/D7Yvt&#13;&#10;6+0bOBHT41fbp+tYgle2p9ZxcM8B/p9n4p8rz2zQC+s48Sf8H7Zftl/hRNzcftq+&#13;&#10;3T7ZbqzjwH5k3WH8c3+aO9VcdWbD5kV/bH/Cibi1/b6OBZgDeq4/z63jf9ULiX/u&#13;&#10;VfOJmU2bF/4NJ+KvdRzIP6/j+jO3lIl/ruyX1jlG/Nwrbo//y+3t5eQnQvxkiZ8s&#13;&#10;8ZMlfrLET5b4yRI/WeInS/xkiZ8s8ZMlfrLET5b4yRI/WeInS/xkiZ8s8ZMlfrLE&#13;&#10;T5b4yRI/WeInS/xkiZ8s8ZMlfrLET5b4yRI/WeInS/xkiZ8s8ZMlfrLET5b4yRI/&#13;&#10;WeInS/xkiZ8s8ZMlfrLET5b4yRI/WeInS/xkiZ8s8ZMlfrLET5b4yRI/WeInS/xk&#13;&#10;iZ8s8ZMlfrLET5b4yRI/WeInS/xkiZ8s8ZMlfrLET5b4yRI/WeInS/xkiZ8s8ZMl&#13;&#10;frLET5b4yRI/WeInS/xkiZ8s8ZMlfrLET5b4yRI/WeInS/xkiZ8s8ZMlfrLET5b4&#13;&#10;yRI/WeInS/xkiZ8s8ZMlfrLET5b4yRI/WeInS/xkiZ8s8ZMlfrLET5b4yRI/WeIn&#13;&#10;S/xkiZ8s8ZMlfrLET5b4yRI/WeInS/xkiZ8s8ZMlfrLET5b4yRI/WeInS/xkiZ8s&#13;&#10;8ZMlfrLET5b4yRI/WeInS/xkiZ8s8ZMlfrLET5b4yRI/WeInS/xkiZ8s8ZMlfrLE&#13;&#10;T5b4yRI/WeInS/xkiZ8s8ZMlfrLET5b4yRI/WeInS/xkiZ8s8ZMlfrLET5b4yRI/&#13;&#10;WeInS/xkiZ8s8ZMlfrLET5b4yRI/WeInS/xkiZ8s8ZMlfrLET5b4yRI/WeInS/xk&#13;&#10;iZ8s8ZMlfrLET5b4yRI/WeInS/xkiZ8s8ZMlfrLET5b4yRI/WeInS/xkiZ8s8ZMl&#13;&#10;frLET5b4yRI/WeInS/xkiZ8s8ZMlfrLET5b4yRI/WeInS/xkiZ8s8ZMlfrLET5b4&#13;&#10;yRI/WeInS/xkiZ8s8ZMlfrLET5b4yRI/WeInS/xkiZ8s8ZMlfrLET5b4yRI/WeIn&#13;&#10;S/xkiZ8s8ZMlfrLET9b/Ev/X283t1jpeCKdgDuPft5+2L9YFxv/49uL23vbVOl7w&#13;&#10;2zo2bV4Id9NZh3Mof799tr25PbvuMP7L22Pr2KK3tk/WcfX5YR1LAKfgx+27dRzO&#13;&#10;H22vbde3R9YdxH9pHdvz9PbK9u728Tq2az4vn8Nddtbhp+sIfw7puaZf2x7a7l/n&#13;&#10;nNmaecBcfZ7ZXt5e326s49MCp+KN7dV1XNGf3q6u49o+h/i55uz0nwWY689s0zx4&#13;&#10;PimzDHAqpsmntifXEf6VdRze545/Zj4bswCzRbMEc48acx06+xvults7fHgdjV5e&#13;&#10;FxD+2cxDZgnmgXDKptNxIeEbY4wxxhhjjDHGmHtl/gGYG1A7NXsaMgAAAABJRU5E&#13;&#10;rkJggg==" height="276" preserveAspectRatio="none"/>
      <path fill="white" d="M-320.3473 -546.9557 L106.0305 -546.9557 L106.0305 91.4863 L-320.3473 91.4863 Z" clip-path="url(#clipPath2)" transform="matrix(0.4006,0,0,0.4006,137.5382,228.3234)" stroke="none" image-rendering="auto"/>
    </g>
    <g stroke-linecap="butt" transform="matrix(1,0,0,1,842,716)" fill="rgb(90,90,90)" text-rendering="geometricPrecision" shape-rendering="geometricPrecision" stroke="rgb(90,90,90)" stroke-width="2" stroke-miterlimit="1.45">
      <path fill="none" d="M-320.3473 -546.9557 L106.0305 -546.9557 L106.0305 91.4863 L-320.3473 91.4863 Z" clip-path="url(#clipPath2)"/>
    </g>
    <g stroke-linecap="butt" font-size="16px" transform="matrix(1,0,0,1,842,716)" fill="rgb(90,90,90)" text-rendering="geometricPrecision" font-family="'Courier New'" shape-rendering="geometricPrecision" stroke="rgb(90,90,90)" font-weight="bold" stroke-miterlimit="1.45">
      <text x="-295.1697" xml:space="preserve" y="-527.6354" clip-path="url(#clipPath2)" stroke="none">/* Member management */</text>
      <text x="-295.1697" xml:space="preserve" y="-509.5104" clip-path="url(#clipPath2)" stroke="none">AtConcateMember SourceMemberProvision(</text>
      <text x="-295.1697" xml:space="preserve" y="-491.3854" clip-path="url(#clipPath2)" stroke="none">            AtChannel channel)</text>
      <text x="-295.1697" xml:space="preserve" y="-473.2604" clip-path="url(#clipPath2)" stroke="none">eAtModuleMapRet SourceMemberDeProvision(</text>
      <text x="-295.1697" xml:space="preserve" y="-455.1354" clip-path="url(#clipPath2)" stroke="none">            AtChannel channel)</text>
      <text x="-295.1697" xml:space="preserve" y="-437.0104" clip-path="url(#clipPath2)" stroke="none">AtConcateMember SinkMemberProvision(</text>
      <text x="-295.1697" xml:space="preserve" y="-418.8854" clip-path="url(#clipPath2)" stroke="none">            AtChannel channel)</text>
      <text x="-295.1697" xml:space="preserve" y="-400.7604" clip-path="url(#clipPath2)" stroke="none">eAtModuleMapRet SinkMemberDeProvision(</text>
      <text x="-295.1697" xml:space="preserve" y="-382.6354" clip-path="url(#clipPath2)" stroke="none">            AtChannel channel)</text>
      <text x="-295.1697" xml:space="preserve" y="-364.5104" clip-path="url(#clipPath2)" stroke="none">AtConcateMember SourceMemberGetByChannel(</text>
      <text x="-295.1697" xml:space="preserve" y="-346.3854" clip-path="url(#clipPath2)" stroke="none">            AtChannel channel)</text>
      <text x="-295.1697" xml:space="preserve" y="-328.2604" clip-path="url(#clipPath2)" stroke="none">AtConcateMember SourceMemberGetByIndex(</text>
      <text x="-295.1697" xml:space="preserve" y="-310.1354" clip-path="url(#clipPath2)" stroke="none">            uint32 memberIndex)</text>
      <text x="-295.1697" xml:space="preserve" y="-292.0104" clip-path="url(#clipPath2)" stroke="none">AtConcateMember SinkMemberGetByChannel(</text>
      <text x="-295.1697" xml:space="preserve" y="-273.8854" clip-path="url(#clipPath2)" stroke="none">            AtChannel channel)</text>
      <text x="-295.1697" xml:space="preserve" y="-255.7604" clip-path="url(#clipPath2)" stroke="none">AtConcateMember SinkMemberGetByIndex(</text>
      <text x="-295.1697" xml:space="preserve" y="-237.6354" clip-path="url(#clipPath2)" stroke="none">            uint32 memberIndex)</text>
      <text x="-295.1697" xml:space="preserve" y="-219.5104" clip-path="url(#clipPath2)" stroke="none">uint32 NumSourceMembersGet()</text>
      <text x="-295.1697" xml:space="preserve" y="-201.3854" clip-path="url(#clipPath2)" stroke="none">uint32 NumSinkMembersGet)()</text>
      <text x="-295.1697" xml:space="preserve" y="-183.2604" clip-path="url(#clipPath2)" stroke="none"> </text>
      <text x="-295.1697" xml:space="preserve" y="-165.1354" clip-path="url(#clipPath2)" stroke="none">/* Accessory */</text>
      <text x="-295.1697" xml:space="preserve" y="-147.0104" clip-path="url(#clipPath2)" stroke="none">uint32 MaxNumMembersGet()</text>
      <text x="-295.1697" xml:space="preserve" y="-128.8854" clip-path="url(#clipPath2)" stroke="none">eAtConcateGroupType ConcatTypeGet()</text>
      <text x="-295.1697" xml:space="preserve" y="-110.7604" clip-path="url(#clipPath2)" stroke="none">eAtConcateMemberType MemberTypeGet()</text>
      <text x="-295.1697" xml:space="preserve" y="-92.6354" clip-path="url(#clipPath2)" stroke="none"> </text>
      <text x="-295.1697" xml:space="preserve" y="-74.5104" clip-path="url(#clipPath2)" stroke="none">/* Bound Encapsulation channel */</text>
      <text x="-295.1697" xml:space="preserve" y="-56.3854" clip-path="url(#clipPath2)" stroke="none">AtEncapChannel EncapChannelGet()</text>
      <text x="-295.1697" xml:space="preserve" y="-38.2604" clip-path="url(#clipPath2)" stroke="none"> </text>
      <text x="-295.1697" xml:space="preserve" y="-20.1354" clip-path="url(#clipPath2)" stroke="none">/* Associated encapsulation mode */</text>
      <text x="-295.1697" xml:space="preserve" y="-2.0104" clip-path="url(#clipPath2)" stroke="none">eBool EncapTypeIsSupported(</text>
      <text x="-295.1697" xml:space="preserve" y="16.1146" clip-path="url(#clipPath2)" stroke="none">        eAtEncapType encapType)</text>
      <text x="-295.1697" xml:space="preserve" y="34.2396" clip-path="url(#clipPath2)" stroke="none">eAtModuleConcateRet EncapTypeSet(</text>
      <text x="-295.1697" xml:space="preserve" y="52.3646" clip-path="url(#clipPath2)" stroke="none">        eAtEncapType encapType)</text>
      <text x="-295.1697" xml:space="preserve" y="70.4896" clip-path="url(#clipPath2)" stroke="none">uint32 EncapTypeGet()</text>
    </g>
    <g text-rendering="geometricPrecision" shape-rendering="geometricPrecision" transform="matrix(1.668,0,0,1.668,506.9731,104.3301)" image-rendering="optimizeQuality">
      <image x="0" y="0" clip-path="url(#clipPath6)" width="276" xlink:href="data:image/png;base64,iVBORw0KGgoAAAANSUhEUgAAARQAAAAyCAYAAACd8iTmAAACgElEQVR4Xu3dSVNT&#13;&#10;QRTF8RtlRkJExQkl4IDlhIVaImgZFQfw+38fz6lrCrZ577pp/qfqt3ydVZ+63Vl0&#13;&#10;BCGEEEIIIYQQQgghhBBCCGk3A7nyz1UAl4r3vTvAemVaJF50XhZlSZYBNM973Xt+&#13;&#10;QeYie6BXqbhMvJAXvibrcl02ADTPe30ka7ISWSydS8Uf+WOXyVBuyT15KGMAzduW&#13;&#10;LbkTWS4uFZ9UPGjMnEHkx6tyM3LxPXkp+/IGQLO8x1/Lc3kUOUyMIgcMDxozxy3k&#13;&#10;85OPOV7MZXIgh/JJPgNolvf4kbyXV7ITOVh4SvE1yMxxobiNPOr4mONFP8pEfshP&#13;&#10;AM3yHv8WWSxv5Yncjjyx9CoUX86MI8cgL34ip3IGoFne4y6WiXyQZ5F3Kf5zpqxQ&#13;&#10;PAq5ufyDfwA0y3v8l3wNCgVATxQKgDIUCoAyFAqAMhQKgDIUCoAyFAqAMhQKgDIU&#13;&#10;CoAyFAqAMhQKgDIUCoAyFAqAMhQKgDIUCoAyFAqAMhQKgDIUCoAyFAqAMhQKgDIU&#13;&#10;CoAyFAqAMv+1UPwMqZ8mPJbv8jvy3Q4AbfIe9/DwJfL1wL0oKhS/HPgg8k1jN5V/&#13;&#10;wKVyAqBZ3uOTyCHiQB7LZvR8OXBRhnJXnkYee1wq/hEAbTuUd5HDxFhuRL5t3Omx&#13;&#10;9IHMRzaSH0n2+8YulReRr7IDaJuLxHcnu5FDxXrkqaVzofhDTylrkaXiRbciy8X3&#13;&#10;KgDa5D3uq477kY+kjyKnEw8ZPr10ikvF5yWXiieVYeTCvlcB0DbvdU8lvohdjvMy&#13;&#10;cS90znRScbEsRJYLgMvBe95F4v3fu0wuxgtNeWEAbbu458uKhBBCCCGEEEIIIYQQ&#13;&#10;QkhR/gLUYS6EbHI+5AAAAABJRU5ErkJggg==" height="50" preserveAspectRatio="none"/>
      <path fill="white" d="M-320.3473 -596.9902 L106.0305 -596.9902 L106.0305 -546.9557 L-320.3473 -546.9557 Z" clip-path="url(#clipPath2)" transform="matrix(0.5995,0,0,0.5995,200.8592,366.7154)" stroke="none" image-rendering="auto"/>
    </g>
    <g stroke-linecap="butt" transform="matrix(1,0,0,1,842,716)" fill="rgb(153,51,204)" text-rendering="geometricPrecision" shape-rendering="geometricPrecision" stroke="rgb(153,51,204)" stroke-width="2" stroke-miterlimit="1.45">
      <path fill="none" d="M-320.3473 -596.9902 L106.0305 -596.9902 L106.0305 -546.9557 L-320.3473 -546.9557 Z" clip-path="url(#clipPath2)"/>
    </g>
    <g stroke-linecap="butt" font-size="20px" transform="matrix(1,0,0,1,842,716)" fill="rgb(153,51,204)" text-rendering="geometricPrecision" font-family="'Courier New'" shape-rendering="geometricPrecision" stroke="rgb(153,51,204)" font-weight="bold" stroke-miterlimit="1.45">
      <text x="-191.172" xml:space="preserve" y="-566.6507" clip-path="url(#clipPath2)" stroke="none">AtConcateGroup</text>
    </g>
    <g text-rendering="geometricPrecision" shape-rendering="geometricPrecision" transform="matrix(1.6406,0,0,1.6406,1.234,202.2667)" image-rendering="optimizeQuality">
      <image x="0" y="0" clip-path="url(#clipPath7)" width="276" xlink:href="data:image/png;base64,iVBORw0KGgoAAAANSUhEUgAAARQAAAAzCAYAAABWrvdDAAACh0lEQVR4Xu3dy04V&#13;&#10;QRSF4X3kcgRREMELihBEUYJiiBolgscrCO//Pq6Vbc90cLq3iSn+lXzDrh7Vyq6a&#13;&#10;VAQhhBBCCCGEEEIIIYQQQghpNyO59tsMgCul2/vugUHpisSLzslYrssCgOZ5r9t8&#13;&#10;5P53DwwqFZfJbOSiS7Ist2UVQPO811fklixGFkvvUvFH/thl4gXXZUMeyzaA5m3J&#13;&#10;ptyPLJgbkaXiQWPqjCLHHC+yFrn4nhzIobwG0LRXsi+78jByYvGA4UFj6riFfGfi&#13;&#10;Y44nE5fJkbyXj3ICoFne48fyLrJYdiJPKR4wfA0ydVwobiO3ko85L+WDTOS7/ADQ&#13;&#10;LO/xr5Hl8iZyoPDRx3epgwrFZ6ftyBHIrfVNfsoFgGZ5j5/J58hTyX7kSeVmFBaK&#13;&#10;28rN5R9eAmjauXwJCgXAQN7jFAqAEhQKgDIUCoAyFAqAMhQKgDIUCoAyFAqAMhQK&#13;&#10;gDIUCoAyFAqAMhQKgDIUCoAyFAqAMhQKgDIUCoAyFAqAMhQKgDIUCoAyFAqAMhQK&#13;&#10;gDIUCoBSfyuUueiRPxUK7/IAV8M/e5fHLwf6XWM/R3gc+QO/LOafAWiT97iHh0/y&#13;&#10;Vp7LgxhYKGNZkUfyInJhTymTyGIB0KaJnEY+P+zTya7ci4FvG89HNpIXeiIHkQ+m&#13;&#10;u1j8iDKANnmP+03jw8jpxO+b35EFmYkeGUU2kRfwlOJxx0cfN9WzyMeTAbTJe/yp&#13;&#10;7Mim3I0cLsaRw0av+EPf6C7KcmRDrUdOLADa5hJZi7xHdZn4TtVDhoeNXvGHXam4&#13;&#10;mTytuFx8jgLQPu93F4mvP1wmvaeTLi6Vrlh8djIvDKB93Z73/u89mRBCCCGEEEII&#13;&#10;IYQQQgghhJD/Ob8AK5hVmofUWtsAAAAASUVORK5CYII=" height="51" preserveAspectRatio="none"/>
      <path fill="white" d="M-826.3597 -499.3271 L-406.6552 -499.3271 L-406.6552 -449.2926 L-826.3597 -449.2926 Z" clip-path="url(#clipPath2)" transform="matrix(0.6095,0,0,0.6095,512.4669,313.1327)" stroke="none" image-rendering="auto"/>
    </g>
    <g stroke-linecap="butt" transform="matrix(1,0,0,1,842,716)" fill="rgb(153,51,204)" text-rendering="geometricPrecision" shape-rendering="geometricPrecision" stroke="rgb(153,51,204)" stroke-width="2" stroke-miterlimit="1.45">
      <path fill="none" d="M-826.3597 -499.3271 L-406.6552 -499.3271 L-406.6552 -449.2926 L-826.3597 -449.2926 Z" clip-path="url(#clipPath2)"/>
    </g>
    <g stroke-linecap="butt" font-size="20px" transform="matrix(1,0,0,1,842,716)" fill="rgb(153,51,204)" text-rendering="geometricPrecision" font-family="'Courier New'" shape-rendering="geometricPrecision" stroke="rgb(153,51,204)" font-weight="bold" stroke-miterlimit="1.45">
      <text x="-706.5221" xml:space="preserve" y="-468.9876" clip-path="url(#clipPath2)" stroke="none">AtModuleConcate</text>
    </g>
    <g text-rendering="geometricPrecision" shape-rendering="geometricPrecision" transform="matrix(2.0898,0,0,2.0898,987.8142,199.9476)" image-rendering="optimizeQuality">
      <image x="0" y="0" clip-path="url(#clipPath8)" width="221" xlink:href="data:image/png;base64,iVBORw0KGgoAAAANSUhEUgAAAN0AAAEUCAYAAACvVDPSAAAE0UlEQVR4Xu3Y2a5U&#13;&#10;VRSG0YUNitgbEXuNPbax7xtEEX3/93HNs60LL+HIlxjGn4xwVbtu+DJ3nbXMzMzM&#13;&#10;zMzMzMzM/s+78I/7/nE/cObUxDh1cu7NQ+bhD24Xt4e2h4Ez08OYNh5YRyvnCu8U&#13;&#10;3Dz0ke2x7YntKeDMk+toYtqYRia+Ow7vFNw85NHtme3q9tL2CnDm5e3F7bnt6e3y&#13;&#10;OpqZ183b3kQ353LqnYdNbG9u17YPt4+A9cH23jramPjm+l1ax8G67U2pU+yczblw&#13;&#10;b20fb19t3wFnvtm+WEeAb2xX1vFmOAfrtjfRzW+5eV+dKzcX7svtp+3G9huwrm8/&#13;&#10;rCO8d7cXtsfX8YfH294puvmhOO+u80r57TqCu7X9Cayb6whvLt776zhQc6j+k+jm&#13;&#10;fM45nbrny/4C1h/br+s4SPP7TnRwl4kOYqKDmOggJjqIiQ5iooOY6CAmOoiJDmKi&#13;&#10;g5joICY6iIkOYqKDmOggJjqIiQ5iooOY6CAmOoiJDmKig5joICY6iIkOYqKDmOgg&#13;&#10;JjqIiQ5iooOY6CAmOoiJDmKig5joICY6iIkOYqKDmOggJjqIiQ5iooOY6CAmOoiJ&#13;&#10;DmKig5joICY6iIkOYqKDmOggJjqIiQ5iooOY6CAmOoiJDmKig5joICY6iIkOYqKD&#13;&#10;mOggJjqIiQ5iooOY6CAmOoiJDmKig5joICY6iIkOYqKDmOggJjqIiQ5iooOY6CAm&#13;&#10;OoiJDmKig5joICY6iIkOYqKDmOggJjqIiQ5iooOY6CAmOoiJDmKig5joICY6iIkO&#13;&#10;YqKDmOggJjqIiQ5iooOY6CAmOoiJDmKig5joICY6iIkOYqKDmOggJjqIiQ5iooOY&#13;&#10;6CAmOoiJDmKig5joICY6iIkOYqKDmOggJjqIiQ5iooOY6CAmOoiJDmKig5joICY6&#13;&#10;iIkOYqKDmOggJjqIiQ5iooOY6CAmOoiJDmKig5joICY6iIkOYqKDmOggJjqIiQ5i&#13;&#10;ooOY6CAmOoiJDmKig5joICY6iIkOYqKDmOggJjqIiQ5iooOY6CAmOoiJDmKig5jo&#13;&#10;ICY6iIkOYqKDmOggJjqIiQ5iooOY6CAmOoiJDmKig5joICY6iIkOYqKDmOggJjqI&#13;&#10;iQ5iooOY6CAmOoiJDmKig5joICY6iIkOYqKDmOggJjqIiQ5iooOY6CAmOoiJDmKi&#13;&#10;g5joICY6iIkOYqKDmOggJjqIiQ5iooOY6CAmOoiJDmKig5joICY6iIkOYqKDmOgg&#13;&#10;JjqIiQ5iooOY6CAmOoiJDmKig5joICY6iIkOYqKDmOggJjqIiQ5iooOY6CAmOoiJ&#13;&#10;DmKig5joICY6iIkOYqKDmOggJjqIiQ5iooNYEt2N7dY6woN73c3t+roL0b28jgd+&#13;&#10;vf2y/b6OL4N73Ryhn7evtmvbi+uc0V3cHt9e2N7dPtu+X8eXTHxwr/txHVfu0+3t&#13;&#10;7fntsXWO6OaDj25Xtte399fx8C+2L4H1+fbJOq7ca9uz2+XtgXUHu7COD15axyvm&#13;&#10;1e3V7c3tnXVcvvkX7kWn//9z3d5YRxvPrePV8uHt/nWHO127R9bxsGfWcfUmQOAI&#13;&#10;ba7btDE/xeZITTNztO5o88FTeA+tI745nfPKCRymiYltGpm3w2nmXJvwTvHNyZyH&#13;&#10;Av82bUwjp17MzMzMzMzMzMzM/mf7G944UCHHp1AoAAAAAElFTkSuQmCC" height="276" preserveAspectRatio="none"/>
      <path fill="white" d="M164.7126 -497.154 L584.7707 -497.154 L584.7707 37.306 L164.7126 37.306 Z" clip-path="url(#clipPath2)" transform="matrix(0.4785,0,0,0.4785,-69.7728,246.9335)" stroke="none" image-rendering="auto"/>
    </g>
    <g stroke-linecap="butt" transform="matrix(1,0,0,1,842,716)" fill="rgb(90,90,90)" text-rendering="geometricPrecision" shape-rendering="geometricPrecision" stroke="rgb(90,90,90)" stroke-width="2" stroke-miterlimit="1.45">
      <path fill="none" d="M164.7126 -497.154 L584.7707 -497.154 L584.7707 37.306 L164.7126 37.306 Z" clip-path="url(#clipPath2)"/>
    </g>
    <g stroke-linecap="butt" font-size="16px" transform="matrix(1,0,0,1,842,716)" fill="rgb(90,90,90)" text-rendering="geometricPrecision" font-family="'Courier New'" shape-rendering="geometricPrecision" stroke="rgb(90,90,90)" font-weight="bold" stroke-miterlimit="1.45">
      <text x="181.5097" xml:space="preserve" y="-479.4161" clip-path="url(#clipPath2)" stroke="none">eBool LcasIsSupported()</text>
      <text x="181.5097" xml:space="preserve" y="-461.2911" clip-path="url(#clipPath2)" stroke="none">eAtModuleConcateRet LcasEnable(</text>
      <text x="181.5097" xml:space="preserve" y="-443.1661" clip-path="url(#clipPath2)" stroke="none">                   eBool enable)</text>
      <text x="181.5097" xml:space="preserve" y="-425.0411" clip-path="url(#clipPath2)" stroke="none">eBool LcasIsEnabled()</text>
      <text x="181.5097" xml:space="preserve" y="-406.9161" clip-path="url(#clipPath2)" stroke="none"> </text>
      <text x="181.5097" xml:space="preserve" y="-388.7911" clip-path="url(#clipPath2)" stroke="none">eAtModuleConcateRet HoldOffTimerSet(</text>
      <text x="181.5097" xml:space="preserve" y="-370.6661" clip-path="url(#clipPath2)" stroke="none">            uint32 timerInMs)</text>
      <text x="181.5097" xml:space="preserve" y="-352.5411" clip-path="url(#clipPath2)" stroke="none">uint32 HoldOffTimerGet()</text>
      <text x="181.5097" xml:space="preserve" y="-334.4161" clip-path="url(#clipPath2)" stroke="none"> </text>
      <text x="181.5097" xml:space="preserve" y="-316.2911" clip-path="url(#clipPath2)" stroke="none">eAtModuleConcateRet WtrTimerSet(</text>
      <text x="181.5097" xml:space="preserve" y="-298.1661" clip-path="url(#clipPath2)" stroke="none">            uint32 timerInMs)</text>
      <text x="181.5097" xml:space="preserve" y="-280.0411" clip-path="url(#clipPath2)" stroke="none">uint32 WtrTimerGet()</text>
      <text x="181.5097" xml:space="preserve" y="-261.9161" clip-path="url(#clipPath2)" stroke="none"> </text>
      <text x="181.5097" xml:space="preserve" y="-243.7912" clip-path="url(#clipPath2)" stroke="none">eAtModuleConcateRet RmvTimerSet(</text>
      <text x="181.5097" xml:space="preserve" y="-225.6662" clip-path="url(#clipPath2)" stroke="none">            uint32 timerInMs)</text>
      <text x="181.5097" xml:space="preserve" y="-207.5412" clip-path="url(#clipPath2)" stroke="none">uint32 RmvTimerGet()</text>
      <text x="181.5097" xml:space="preserve" y="-189.4162" clip-path="url(#clipPath2)" stroke="none"> </text>
      <text x="181.5097" xml:space="preserve" y="-171.2912" clip-path="url(#clipPath2)" stroke="none">uint8 SourceRsAckGet()</text>
      <text x="181.5097" xml:space="preserve" y="-153.1662" clip-path="url(#clipPath2)" stroke="none">uint8 SinkRsAckGet()</text>
      <text x="181.5097" xml:space="preserve" y="-135.0412" clip-path="url(#clipPath2)" stroke="none"> </text>
      <text x="181.5097" xml:space="preserve" y="-116.9161" clip-path="url(#clipPath2)" stroke="none">/* LCAS only */</text>
      <text x="181.5097" xml:space="preserve" y="-98.7911" clip-path="url(#clipPath2)" stroke="none">eAtModuleConcateRet SinkMemberAdd(</text>
      <text x="181.5097" xml:space="preserve" y="-80.6661" clip-path="url(#clipPath2)" stroke="none">             AtConcateMember member)</text>
      <text x="181.5097" xml:space="preserve" y="-62.5411" clip-path="url(#clipPath2)" stroke="none">eAtModuleConcateRet SinkMemberRemove(</text>
      <text x="181.5097" xml:space="preserve" y="-44.4161" clip-path="url(#clipPath2)" stroke="none">             AtConcateMember member)</text>
      <text x="181.5097" xml:space="preserve" y="-26.2911" clip-path="url(#clipPath2)" stroke="none">eAtModuleConcateRet SourceMemberAdd(</text>
      <text x="181.5097" xml:space="preserve" y="-8.1661" clip-path="url(#clipPath2)" stroke="none">             AtConcateMember member)</text>
      <text x="181.5097" xml:space="preserve" y="9.9589" clip-path="url(#clipPath2)" stroke="none">eAtModuleConcateRet SourceMemberRemove(</text>
      <text x="181.5097" xml:space="preserve" y="28.0839" clip-path="url(#clipPath2)" stroke="none">             AtConcateMember member)</text>
    </g>
    <g text-rendering="geometricPrecision" shape-rendering="geometricPrecision" transform="matrix(1.7461,0,0,1.7461,497.7051,921.4569)" image-rendering="optimizeQuality">
      <image x="0" y="0" clip-path="url(#clipPath9)" width="276" xlink:href="data:image/png;base64,iVBORw0KGgoAAAANSUhEUgAAARQAAAD8CAYAAAC2EFsiAAAFFUlEQVR4Xu3Yx44e&#13;&#10;VRRG0WtyBpNzMhYgMEmAABuRg+H934d7VLTEuHt7UqxPWsOuHtXWqX8tMzMzMzMz&#13;&#10;MzMzMzMzO++ubff9637gf+HinZ/3P9lFSObhD24Pb49sjwKnNe/4mPd93vt5/5Oo&#13;&#10;TEweWMfDn9ie3q5vzwKn9sz21Pb4OsJy5ajMH89DJibz4Be2V7c3t7eB03pre2N7&#13;&#10;ZXtuHcfEQ+s4MC69a+s4d6ZQz6/jn7y/fbx9un0GnNIn20fbze31dVws8yk0B8al&#13;&#10;NzWaU2c+c+YymZh8sX2z3dm+B07p9vb1Og6HG9tL67hS5uePS2+CMp8785vJfObc&#13;&#10;2r7dftx+234HTumXdYTlq+2DdRwUT67ji+XSuwjKnDtvr+MUmsvk1+3u9hdwSn9s&#13;&#10;P63jgJhPn/nsmd9R86BMteY6mX/6N3BKf67jSpmgzG+mggJc2gTl5+VCAQKCAmQE&#13;&#10;BcgICpARFCAjKEBGUICMoAAZQQEyggJkBAXICAqQERQgIyhARlCAjKAAGUEBMoIC&#13;&#10;ZAQFyAgKkBEUICMoQEZQgIygABlBATKCAmQEBcgICpARFCAjKEBGUICMoAAZQQEy&#13;&#10;ggJkBAXICAqQERQgIyhARlCAjKAAGUEBMoICZAQFyAgKkBEUICMoQEZQgIygABlB&#13;&#10;ATKCAmQEBcgICpARFCAjKEBGUICMoAAZQQEyggJkBAXICAqQERQgIyhARlCAjKAA&#13;&#10;GUEBMoICZAQFyAgKkBEUICMoQEZQgIygABlBATKCAmQEBcgICpARFCAjKEBGUICM&#13;&#10;oAAZQQEyggJkBAXICAqQERQgIyhARlCAjKAAGUEBMoICZAQFyAgKkBEUICMoQEZQ&#13;&#10;gIygABlBATKCAmQEBcgICpARFCAjKEBGUICMoAAZQQEyggJkBAXICAqQERQgIyhA&#13;&#10;RlCAjKAAGUEBMoICZAQFyAgKkBEUICMoQEZQgIygABlBATKCAmQEBcgICpARFCAj&#13;&#10;KEBGUICMoAAZQQEyggJkBAXICAqQERQgIyhARlCAjKAAGUEBMoICZAQFyAgKkBEU&#13;&#10;ICMoQEZQgIygABlBATKCAmQEBcgICpARFCAjKEBGUICMoAAZQQEyggJkBAXICAqQ&#13;&#10;ERQgIyhARlCAjKAAGUEBMoICZAQFyAgKkBEUICMoQEZQgIygABlBATKCAmQEBcgI&#13;&#10;CpARFCAjKEBGUICMoAAZQQEyggJkBAXICAqQERQgIyhARlCAjKAAGUEBMoICZAQF&#13;&#10;yAgKkBEUICMoQEZQgIygABlBATKCAmQEBcgICpARFCAjKEBGUICMoAAZQQEyggJk&#13;&#10;BAXICAqQERQgIyhARlCAjKAAGUEBMoICZAQFyAgKkBEUICMoQEZQgIygABlBATKC&#13;&#10;AmQEBcgICpARFCAjKEBmgvLLEhQgcBGU77aP1xGUp9c9CMqd7dft7jqiApzPH9tP&#13;&#10;2zfrHlwo17c3t1vrKNb8o9/X8U+B85mj4Yft6+3D7bUVBeXh7Zl1PHAe/OV2ex3/&#13;&#10;7EfglOanjfn95PPt5vby9sQKgvLQ9uT24vbuOs6f+fSZsADn9MX26fbBOr5Ont8e&#13;&#10;2x5YV9i1dTzg0XVcKS+t4+ETlvfWUS7gfG5s76zjt5MX1vG5M18rc2RcafOAB9cR&#13;&#10;lblU5veU59bxT4Bzmotk3vM5JOZTZ35LneNijowrbR4wUZmHzefPPHjiMucPcE7z&#13;&#10;jo+5Sua9v38F18l/dxGWMQ8Hzu3ifZ93/8qXiZmZmZmZmZmZmZndg/0DpYsu35yf&#13;&#10;BfoAAAAASUVORK5CYII=" height="252" preserveAspectRatio="none"/>
      <path fill="white" d="M-328.834 220.9178 L114.5172 220.9178 L114.5172 626.6946 L-328.834 626.6946 Z" clip-path="url(#clipPath2)" transform="matrix(0.5727,0,0,0.5727,197.1801,-117.6666)" stroke="none" image-rendering="auto"/>
    </g>
    <g stroke-linecap="butt" transform="matrix(1,0,0,1,842,716)" fill="rgb(90,90,90)" text-rendering="geometricPrecision" shape-rendering="geometricPrecision" stroke="rgb(90,90,90)" stroke-width="2" stroke-miterlimit="1.45">
      <path fill="none" d="M-328.834 220.9178 L114.5172 220.9178 L114.5172 626.6946 L-328.834 626.6946 Z" clip-path="url(#clipPath2)"/>
    </g>
    <g stroke-linecap="butt" font-size="16px" transform="matrix(1,0,0,1,842,716)" fill="rgb(90,90,90)" text-rendering="geometricPrecision" font-family="'Courier New'" shape-rendering="geometricPrecision" stroke="rgb(90,90,90)" font-weight="bold" stroke-miterlimit="1.45">
      <text x="-306.9089" xml:space="preserve" y="240.2382" clip-path="url(#clipPath2)" stroke="none">/* Source/Sink Provision */    </text>
      <text x="-306.9089" xml:space="preserve" y="258.3632" clip-path="url(#clipPath2)" stroke="none">eAtLcasMemberSourceState SourceStateGet()</text>
      <text x="-306.9089" xml:space="preserve" y="276.4882" clip-path="url(#clipPath2)" stroke="none">eAtModuleConcateRet SourceSequenceSet(</text>
      <text x="-306.9089" xml:space="preserve" y="294.6132" clip-path="url(#clipPath2)" stroke="none">            uint32 sourceSequence)</text>
      <text x="-306.9089" xml:space="preserve" y="312.7382" clip-path="url(#clipPath2)" stroke="none">uint32 SourceSequenceGet()</text>
      <text x="-306.9089" xml:space="preserve" y="330.8632" clip-path="url(#clipPath2)" stroke="none">uint32 SourceMstGet()</text>
      <text x="-306.9089" xml:space="preserve" y="348.9882" clip-path="url(#clipPath2)" stroke="none">eAtLcasMemberCtrl SourceControlGet()</text>
      <text x="-306.9089" xml:space="preserve" y="367.1132" clip-path="url(#clipPath2)" stroke="none">eAtLcasMemberSinkState SinkStateGet()</text>
      <text x="-306.9089" xml:space="preserve" y="385.2382" clip-path="url(#clipPath2)" stroke="none">uint32 SinkSequenceGet()</text>
      <text x="-306.9089" xml:space="preserve" y="403.3632" clip-path="url(#clipPath2)" stroke="none">uint32 SinkMstGet()</text>
      <text x="-306.9089" xml:space="preserve" y="421.4882" clip-path="url(#clipPath2)" stroke="none">eAtLcasMemberCtrl SinkControlGet()</text>
      <text x="-306.9089" xml:space="preserve" y="439.6132" clip-path="url(#clipPath2)" stroke="none"> </text>
      <text x="-306.9089" xml:space="preserve" y="457.7382" clip-path="url(#clipPath2)" stroke="none">/* For VCAT */</text>
      <text x="-306.9089" xml:space="preserve" y="475.8632" clip-path="url(#clipPath2)" stroke="none">eAtModuleConcateRet SinkExpectedSequenceSet(</text>
      <text x="-306.9089" xml:space="preserve" y="493.9882" clip-path="url(#clipPath2)" stroke="none">            uint32 sequence)</text>
      <text x="-306.9089" xml:space="preserve" y="512.1132" clip-path="url(#clipPath2)" stroke="none">uint32 SinkExpectedSequenceGet()</text>
      <text x="-306.9089" xml:space="preserve" y="530.2382" clip-path="url(#clipPath2)" stroke="none"> </text>
      <text x="-306.9089" xml:space="preserve" y="548.3632" clip-path="url(#clipPath2)" stroke="none">/* Associations */</text>
      <text x="-306.9089" xml:space="preserve" y="566.4882" clip-path="url(#clipPath2)" stroke="none">AtChannel SinkChannelGet()</text>
      <text x="-306.9089" xml:space="preserve" y="584.6132" clip-path="url(#clipPath2)" stroke="none">AtChannel SourceChannelGet()</text>
      <text x="-306.9089" xml:space="preserve" y="602.7382" clip-path="url(#clipPath2)" stroke="none">AtConcateGroup ConcateGroupGet()</text>
    </g>
    <g text-rendering="geometricPrecision" shape-rendering="geometricPrecision" transform="matrix(1.7344,0,0,1.7344,497.8223,871.5396)" image-rendering="optimizeQuality">
      <image x="0" y="0" clip-path="url(#clipPath10)" width="276" xlink:href="data:image/png;base64,iVBORw0KGgoAAAANSUhEUgAAARQAAAAxCAYAAAAbZlZIAAACgElEQVR4Xu3dSU9U&#13;&#10;URCG4WpUhkYQjThHcQpIVHCeFQ3O////UG9KEzYu+t5jNKffL3niqg+r86XOdVER&#13;&#10;xhhjjDHGGGOMMcYYY4wxpt9M0sIvJyTNFe49HYBR+V0kHHoqLaXltCKpe9x17vxi&#13;&#10;OhnVA6NKhTLhIA4+nc6ks+mcpO5x1zfSWppGFcvgUuFH/JgyWU+b6Uq6nrYkde9G&#13;&#10;upYuRZULpcJLhUFj5kyifryazkcdvp3up720L6lb3PGHaTfdjhomNqIGDAaNmUML&#13;&#10;8X7imcNhlMnj9DK9Te8kdYs7/jo9Sw/SzajBgimFzyAzh0KhjRh1eOZw6Kt0kD6n&#13;&#10;L5K6xR3/FFUsT9LddDHqxTKqUPg4sxU1BnH4YfqefkjqFnecYjlIL9JO1LcU/nOm&#13;&#10;WaEwCtFc/MGfkrrFHf+aPoaFImkkC0VSMxaKpGYsFEnNWCiSmrFQJDVjoUhqxkKR&#13;&#10;1IyFIqkZC0VSMxaKpGYsFEnNWCiSmrFQJDVjoUhqxkKR1IyFIqkZC0VSMxaKpGYs&#13;&#10;FEnN/JNC4V9JffnrhcLWQLaIvYna1cEf+iapW9zxw/Q+atnXdtRenlGFshS1fpD9&#13;&#10;prvpedSUQmtRLJL6xB3/ELXc71G6E7XffDVGFMpi1KJ0Rh0OZEp5GrWOVFLfmEwo&#13;&#10;k3tR20N5razEwN3Gk6hl6dOog66mW1GjD9OKpL7tRK0g5ZMHzx2GC14tDBszh0Kh&#13;&#10;iZhSGHPYcXwhXY5ank7BSOoTd5y7TpGwJJ0yWY567tANg3K8VBh1KJa1qMMl9Y27&#13;&#10;zkfYadRkQpkMmk6Oh1LhEIqFA3kGSZof3Hvu/+DJ5E/hQEnzxRhjjDHGGGOMMcYY&#13;&#10;Y8z/mCPDGc427qcgoQAAAABJRU5ErkJggg==" height="49" preserveAspectRatio="none"/>
      <path fill="white" d="M-328.834 170.8834 L114.5172 170.8834 L114.5172 220.9178 L-328.834 220.9178 Z" clip-path="url(#clipPath2)" transform="matrix(0.5766,0,0,0.5766,198.4448,-89.6805)" stroke="none" image-rendering="auto"/>
    </g>
    <g stroke-linecap="butt" transform="matrix(1,0,0,1,842,716)" fill="rgb(153,51,204)" text-rendering="geometricPrecision" shape-rendering="geometricPrecision" stroke="rgb(153,51,204)" stroke-width="2" stroke-miterlimit="1.45">
      <path fill="none" d="M-328.834 170.8834 L114.5172 170.8834 L114.5172 220.9178 L-328.834 220.9178 Z" clip-path="url(#clipPath2)"/>
    </g>
    <g stroke-linecap="butt" font-size="20px" transform="matrix(1,0,0,1,842,716)" fill="rgb(153,51,204)" text-rendering="geometricPrecision" font-family="'Courier New'" shape-rendering="geometricPrecision" stroke="rgb(153,51,204)" font-weight="bold" stroke-miterlimit="1.45">
      <text x="-197.173" xml:space="preserve" y="201.2229" clip-path="url(#clipPath2)" stroke="none">AtConcateMember</text>
    </g>
    <g text-rendering="geometricPrecision" shape-rendering="geometricPrecision" transform="matrix(1.6445,0,0,1.6445,992.2673,154.3663)" image-rendering="optimizeQuality">
      <image x="0" y="0" clip-path="url(#clipPath11)" width="276" xlink:href="data:image/png;base64,iVBORw0KGgoAAAANSUhEUgAAARQAAAAzCAYAAABWrvdDAAACb0lEQVR4Xu3d2WoV&#13;&#10;URCF4ToZHROHDDgmTogaUaOII8YxqO//PtZPeSDXnUJkn3/Bd9ndV7Wo3Tc7whhj&#13;&#10;jDHGGGOMMcYYY4wxxoybWVr6a1nSQmHu6YBTZ14kvHQ1racz6ayk4THrzPxaWomG&#13;&#10;YuEFvIgXX0ib6XK6Iml4zDozfzGqYFgq6IRJoYnYTCiTjbSdrqfbaV/S8Jj1m2kn&#13;&#10;qlgoFRaMWUwID9FI59NW2ksP00F6lp5LGhYz/jQ9SnfSbtSmwvFnUqGw2nB+opnY&#13;&#10;TCiTw/QmfUgfJQ2LGX+XXqXH6Va6FHVimXTs4SEe5hzF6kNbvU1H6Xv6IWlYzPiX&#13;&#10;9D5qY7mbrkYde05VKPyc2Y96Ka31Lf1MvyQNixmnWD5FbSn3o359tBYKqxDNxQd/&#13;&#10;SxoWM34cdSKxUCSdioUiqY2FIqmNhSKpjYUiqY2FIqmNhSKpjYUiqY2FIqmNhSKp&#13;&#10;jYUiqY2FIqmNhSKpjYUiqY2FIqmNhSKpjYUiqY2FIqmNhSKpjYUiqY2FIqmNhSKp&#13;&#10;zT8pFO/lkRYDMz6/l+dlNBbKyZsDuZrwc9SHaC9JY2LGv0YtES+i6ebA9aj7TG9E&#13;&#10;XZrM6sPVhLTWkaRhMeOUyet0kPailguWjKWYEB5ai7pxfSeqoZ5EHX0oFkljO4w6&#13;&#10;mXDcuZY2ojphUqHM0krUisOWsht19KFY+MADScNixu9FbSaUCf9Sz0V1At0wKTTR&#13;&#10;alSpsKmw8nCO2pY0vK2oItmMKhO6YNJ2Mg9NxAtoJVYdzk+UCy+XNDZmnZnnX+q8&#13;&#10;TCZvJyczLxYsS1oY87lvKRJjjDHGGGOMMcYYY4wxxhjzP+YPVh1Jcxy5QZ0AAAAA&#13;&#10;SUVORK5CYII=" height="51" preserveAspectRatio="none"/>
      <path fill="white" d="M164.7126 -547.1884 L584.7707 -547.1884 L584.7707 -497.154 L164.7126 -497.154 Z" clip-path="url(#clipPath2)" transform="matrix(0.6081,0,0,0.6081,-91.3739,341.516)" stroke="none" image-rendering="auto"/>
    </g>
    <g stroke-linecap="butt" transform="matrix(1,0,0,1,842,716)" fill="rgb(153,51,204)" text-rendering="geometricPrecision" shape-rendering="geometricPrecision" stroke="rgb(153,51,204)" stroke-width="2" stroke-miterlimit="1.45">
      <path fill="none" d="M164.7126 -547.1884 L584.7707 -547.1884 L584.7707 -497.154 L164.7126 -497.154 Z" clip-path="url(#clipPath2)"/>
    </g>
    <g stroke-linecap="butt" font-size="20px" transform="matrix(1,0,0,1,842,716)" fill="rgb(153,51,204)" text-rendering="geometricPrecision" font-family="'Courier New'" shape-rendering="geometricPrecision" stroke="rgb(153,51,204)" font-weight="bold" stroke-miterlimit="1.45">
      <text x="344.7368" xml:space="preserve" y="-516.8489" clip-path="url(#clipPath2)" stroke="none">AtVcg</text>
    </g>
    <g text-rendering="geometricPrecision" shape-rendering="geometricPrecision" transform="matrix(1.4023,0,0,1.4023,63.6465,874.8599)" image-rendering="optimizeQuality">
      <image x="0" y="0" clip-path="url(#clipPath12)" width="276" xlink:href="data:image/png;base64,iVBORw0KGgoAAAANSUhEUgAAARQAAAA4CAYAAAA8aQeAAAACaklEQVR4Xu3Y205U&#13;&#10;URCE4WaQg5wCI4oIQREBASNqFAUPhEPUwPu/j1XpTMKNF7OnSciav5LvcvdcrUr3&#13;&#10;RBBCCCGEEEIIIYQQQgh50JkAMDbKMxjck0kAY8dv30YumEGRPJJpmZXHMgegaX7n&#13;&#10;5jc/I1OR5dK5VAZl4kEevCjL0pdVAM17IiuyFFkyXio6l4o/8mbiMnGRrMmmvJLX&#13;&#10;AJq3LVuyHrlIzEcuGL3oEH/kRvJm4jLx8AM5lk8Amue3fiS7shG5WPgE8pYydPyR&#13;&#10;P/YQbyaH8lnO5BeA5n2XE3kfuVD4DPLp48tl6LhQfO70I88ct5XL5FJ+A2jelfyM&#13;&#10;XCT2Ii+VhRixUPzHjO8pr0BuLf/QLYCm3cgfuZCv8laeB4UCoAMKBUAZCgVAGQoF&#13;&#10;QBkKBUAZCgVAGQoFQBkKBUAZCgVAGQoFQBkKBUAZCgVAGQoFQBkKBUAZCgVAGQoF&#13;&#10;QBkKBUAZCgVAGQoFQBkKBUAZCgVAGQoFQBkKBUAZCgVAGQoFQBkKBUAZCgVAGQoF&#13;&#10;QBkKBUCZey2UbfkgP+RK/gJomsvkOnKJ+CL7shYjFsqsrMiWvItsKv/AJYCmeTM5&#13;&#10;lzP5KG/kqcxHx0LpyYwsyQvZk+PItjoF0LRvchJZJoeRS0U/8mrxsjF0XChTkY3k&#13;&#10;s2dTdiJvKf8AgLb5re/Ky8hzx8uFlwx3w9CZiGwiD/Dd5HZ6JuuyAaB5fusuktXI&#13;&#10;MvFfID533A2dMiiV6chVx9vKYuRwAG3zW/cyMRe5WLhMOm0nd+NS8RAXiwf6DAIw&#13;&#10;Pvzu/f47byb/iwcCGC+EEEIIIYQQQgghhBBCHmL+AR1M6k3niH+xAAAAAElFTkSu&#13;&#10;QmCC" height="56" preserveAspectRatio="none"/>
      <path fill="white" d="M-766.3301 170.8834 L-407.9657 170.8834 L-407.9657 220.9178 L-766.3301 220.9178 Z" clip-path="url(#clipPath2)" transform="matrix(0.7131,0,0,0.7131,555.0376,-113.2817)" stroke="none" image-rendering="auto"/>
    </g>
    <g stroke-linecap="butt" transform="matrix(1,0,0,1,842,716)" fill="rgb(153,51,204)" text-rendering="geometricPrecision" shape-rendering="geometricPrecision" stroke="rgb(153,51,204)" stroke-width="2" stroke-miterlimit="1.45">
      <path fill="none" d="M-766.3301 170.8834 L-407.9657 170.8834 L-407.9657 220.9178 L-766.3301 220.9178 Z" clip-path="url(#clipPath2)"/>
    </g>
    <g stroke-linecap="butt" font-size="20px" transform="matrix(1,0,0,1,842,716)" fill="rgb(153,51,204)" text-rendering="geometricPrecision" font-family="'Courier New'" shape-rendering="geometricPrecision" stroke="rgb(153,51,204)" font-weight="bold" stroke-miterlimit="1.45">
      <text x="-641.1567" xml:space="preserve" y="201.2229" clip-path="url(#clipPath2)" stroke="none">AtChannel</text>
    </g>
    <g text-rendering="geometricPrecision" stroke-miterlimit="1.45" shape-rendering="geometricPrecision" transform="matrix(1,0,0,1,842,716)" stroke-linecap="butt">
      <path fill="none" d="M-400.9607 -277.3394 L-330.7207 -277.3394 L-328.1331 -276.7652" clip-path="url(#clipPath2)"/>
    </g>
    <g stroke-linecap="butt" transform="matrix(1,0,0,1,842,716)" fill="white" text-rendering="geometricPrecision" shape-rendering="geometricPrecision" stroke="white" stroke-miterlimit="1.45">
      <path d="M-407.9607 -277.3394 L-400.9607 -282.3394 L-393.9607 -277.3394 L-400.9607 -272.3394 Z" stroke="none" clip-path="url(#clipPath2)"/>
      <path fill="none" d="M-407.9607 -277.3394 L-400.9607 -282.3394 L-393.9607 -277.3394 L-400.9607 -272.3394 Z" clip-path="url(#clipPath2)" stroke="black"/>
      <path fill="black" d="M-320.3231 -275.0323 L-330.9551 -282.513 L-329.1094 -276.9818 L-333.1212 -272.7504 Z" clip-path="url(#clipPath2)" stroke="none"/>
    </g>
    <g font-size="13px" stroke-linecap="butt" transform="matrix(1,0,0,1,842,716)" text-rendering="geometricPrecision" font-family="sans-serif" shape-rendering="geometricPrecision" stroke-miterlimit="1.45">
      <text x="-387.4242" xml:space="preserve" y="-300.9573" clip-path="url(#clipPath2)" stroke="none">manage</text>
      <path fill="none" d="M-107.1584 -596.9697 L-107.1584 -635.0994" clip-path="url(#clipPath2)"/>
    </g>
    <g stroke-linecap="butt" transform="matrix(1,0,0,1,842,716)" fill="white" text-rendering="geometricPrecision" shape-rendering="geometricPrecision" stroke="white" stroke-miterlimit="1.45">
      <path d="M-107.1584 -650.0994 L-113.1584 -634.0994 L-101.1584 -634.0994 Z" stroke="none" clip-path="url(#clipPath2)"/>
      <path fill="none" d="M-107.1584 -650.0994 L-113.1584 -634.0994 L-101.1584 -634.0994 Z" clip-path="url(#clipPath2)" stroke="black"/>
      <path fill="none" d="M164.7401 -289.3973 L121.0257 -289.3973" clip-path="url(#clipPath2)" stroke="black"/>
      <path d="M106.0257 -289.3973 L122.0257 -283.3973 L122.0257 -295.3973 Z" clip-path="url(#clipPath2)" stroke="none"/>
      <path fill="none" d="M106.0257 -289.3973 L122.0257 -283.3973 L122.0257 -295.3973 Z" clip-path="url(#clipPath2)" stroke="black"/>
      <path fill="none" d="M-107.1584 91.445 L-107.1584 162.8833" clip-path="url(#clipPath2)" stroke="black"/>
      <path fill="black" d="M-107.1584 170.8833 L-102.1584 158.8833 L-107.1584 161.8833 L-112.1584 158.8833 Z" clip-path="url(#clipPath2)" stroke="none"/>
      <text x="-162.1633" y="135.8987" clip-path="url(#clipPath2)" fill="black" font-family="sans-serif" stroke="none" xml:space="preserve">Members</text>
      <path fill="none" d="M-328.843 195.9006 L-392.9552 195.9006" clip-path="url(#clipPath2)" stroke="black"/>
      <path d="M-407.9552 195.9006 L-391.9552 201.9006 L-391.9552 189.9006 Z" clip-path="url(#clipPath2)" stroke="none"/>
      <path fill="none" d="M-407.9552 195.9006 L-391.9552 201.9006 L-391.9552 189.9006 Z" clip-path="url(#clipPath2)" stroke="black"/>
    </g>
  </g>
</svg>
