<?xml version="1.0" encoding="UTF-8"?>
<svg xmlns="http://www.w3.org/2000/svg" xmlns:xlink="http://www.w3.org/1999/xlink" fill-opacity="1" color-rendering="auto" color-interpolation="auto" stroke="black" text-rendering="auto" stroke-linecap="square" width="544" stroke-miterlimit="10" stroke-opacity="1" shape-rendering="auto" fill="black" stroke-dasharray="none" font-weight="normal" stroke-width="1" height="823" font-family="'Dialog'" font-style="normal" stroke-linejoin="miter" font-size="12" stroke-dashoffset="0" image-rendering="auto">
  <!--Generated by ySVG-->
  <defs id="genericDefs"/>
  <g>
    <defs id="defs1">
      <clipPath clipPathUnits="userSpaceOnUse" id="clipPath1">
        <path d="M0 0 L544 0 L544 823 L0 823 L0 0 Z"/>
      </clipPath>
      <clipPath clipPathUnits="userSpaceOnUse" id="clipPath2">
        <path d="M632 112 L1176 112 L1176 935 L632 935 L632 112 Z"/>
      </clipPath>
      <clipPath clipPathUnits="userSpaceOnUse" id="clipPath3">
        <path d="M-66.6322 -3.3025 L339.3853 -3.3025 L339.3853 610.9482 L-66.6322 610.9482 L-66.6322 -3.3025 Z"/>
      </clipPath>
      <clipPath clipPathUnits="userSpaceOnUse" id="clipPath4">
        <path d="M1.4458 -90.1819 L272.3875 -90.1819 L272.3875 319.7169 L1.4458 319.7169 L1.4458 -90.1819 Z"/>
      </clipPath>
      <clipPath clipPathUnits="userSpaceOnUse" id="clipPath5">
        <path d="M-66.6322 -31.9625 L339.3853 -31.9625 L339.3853 582.2882 L-66.6322 582.2882 L-66.6322 -31.9625 Z"/>
      </clipPath>
      <clipPath clipPathUnits="userSpaceOnUse" id="clipPath6">
        <path d="M1.8727 -117.5488 L259.2923 -117.5488 L259.2923 271.893 L1.8727 271.893 L1.8727 -117.5488 Z"/>
      </clipPath>
      <clipPath clipPathUnits="userSpaceOnUse" id="clipPath7">
        <path d="M1.4458 -109.3072 L272.3875 -109.3072 L272.3875 300.5916 L1.4458 300.5916 L1.4458 -109.3072 Z"/>
      </clipPath>
    </defs>
    <g fill="white" transform="translate(-632,-112)" stroke="white">
      <rect x="632" width="544" height="823" y="112" clip-path="url(#clipPath2)" stroke="none"/>
    </g>
    <g transform="matrix(1.3398,0,0,1.3398,89.2768,4.4248)" image-rendering="optimizeQuality">
      <image x="0" y="0" clip-path="url(#clipPath3)" width="276" xlink:href="data:image/png;base64,iVBORw0KGgoAAAANSUhEUgAAARQAAAAxCAYAAAAbZlZIAAABtUlEQVR42u3d3U7C&#13;&#10;MBiA4QFD0fu/WPlbhfg1NETpmITo+jxJMyTAgcnefNsO2nUAAAAAADzN4knfAf6n&#13;&#10;9Og4LIqjmEC7UUm1wNQCkSOyLJawQHsRGYr1Y1T6ETFZxef6eJ3DAsw/KueAHE/r&#13;&#10;ECvduhTqKz+4jM+8xlrH34ICbQTlHJP9aX3EezkwkyaUMijvp7U5rZeYVIB5y5PJ&#13;&#10;9iomw5QJJQdlFZPJW0TlZcRkA8wjKPvoQA5Lvo9694RyPaWsIyYbQYFmgrKMY76H&#13;&#10;evOBzJgwlJNKX8QFmK8U5/7QXR7GVJ/uurkKPIygAIICCAogKACCAggKICiAoAAI&#13;&#10;CiAogKAACAogKICgAIICICiAoACCAiAogKAAggI0aOz+OuVmyUchgtnL25CWOwWm&#13;&#10;3wblerPkvItY8v+G2QdliHP+EA2oRqWv/GAqYrLrvjb8GTo7B0JLQdnGsRqVWhjy&#13;&#10;dJL3ND2/XrvkgSbk838XDTjEe5MnlKG7bJKciilFUKCNoOQG7K+mlG/V9iot9zXO&#13;&#10;azHie8A8LnvK+6jHIjKTgtIVAVmICTQfllSLxT3EBNoMCgAAAAAAf80nUa9vO+Ej&#13;&#10;yKsAAAAASUVORK5CYII=" height="49" preserveAspectRatio="none"/>
    </g>
    <g fill="white" stroke-width="2" stroke-miterlimit="1.45" transform="matrix(1,0,0,1,-632,-112)" stroke-linecap="butt" stroke="white">
      <path d="M732.6752 127.8232 L1074.8262 127.8232 L1074.8262 166.2232 L732.6752 166.2232 Z" clip-path="url(#clipPath2)" stroke="none"/>
      <path fill="none" d="M732.6752 127.8232 L1074.8262 127.8232 L1074.8262 166.2232 L732.6752 166.2232 Z" clip-path="url(#clipPath2)" stroke="rgb(153,51,204)"/>
    </g>
    <g font-size="20" stroke-linecap="butt" transform="matrix(1,0,0,1,-632,-112)" fill="rgb(153,51,204)" font-family="'Courier New'" stroke="rgb(153,51,204)" font-weight="bold" stroke-miterlimit="1.45">
      <text x="825.738" xml:space="preserve" y="152.3455" clip-path="url(#clipPath2)" stroke="none">AtModuleClock</text>
    </g>
    <g transform="matrix(2.0078,0,0,2.0078,-2.9029,181.0683)" image-rendering="optimizeQuality">
      <image x="0" y="0" clip-path="url(#clipPath4)" width="276" xlink:href="data:image/png;base64,iVBORw0KGgoAAAANSUhEUgAAARQAAAAnCAYAAADO6bfOAAABu0lEQVR42u3d7W6C&#13;&#10;MBQGYFC2ud3/xTqHMEja2DROvkwWy/MkJ1SD/DDhzSlgrSoAAAAAAABeT71wv3rh&#13;&#10;54DX1Wfj/hmBMu5zCFUnBewjULow7qaCpZkZJuN+x6QECuwjUMa6DtWG7XVtoMQw&#13;&#10;GQPkbaiPsG3C+0D5gRLD5HuoSxIy/doOZdznfajPoU5h3PiuoXhdEiZ1EjDdmkBJ&#13;&#10;O5QYKF8hVBrTHthFd/ITciAd12umPGmoNMm05xTGAgXKD5Rj6EjO1e3mTLU2UPJO&#13;&#10;JQaLQIHyA+UQwiTejJm8drrkWkh9p4By5Y+MTHK3BpjqVGY91CZQgKcSKIBAAQQK&#13;&#10;IFAABAogUACBAggUgD8sejJeoACPLHpStllx0C6U3/JA2UESz/WnBkq+DFybtEC9&#13;&#10;7x2KnObEcz5WDJdNgRJTagyRcXGVuHJTq0OBXXQo43l/Cef8ZKg0Mw4YV2o6h/fj&#13;&#10;oitA2dIlIGOobFr1PrY9l/C6rW4rN+lQoOwOJV+k+qfasOp9Ot2pkvYn/X8e11Cg&#13;&#10;POm5HWcp12Ta0z/64JyDH7JtJVBgF4GS3+HttwZKvq+pDuxr6nNvDAAAAADAf/sF&#13;&#10;x6KEA7vDAwoAAAAASUVORK5CYII=" height="39" preserveAspectRatio="none"/>
    </g>
    <g fill="white" stroke-width="2" stroke-miterlimit="1.45" transform="matrix(1,0,0,1,-632,-112)" stroke-linecap="butt" stroke="white">
      <path d="M647.1752 311.1465 L1160.3262 311.1465 L1160.3262 349.5464 L647.1752 349.5464 Z" clip-path="url(#clipPath2)" stroke="none"/>
      <path fill="none" d="M647.1752 311.1465 L1160.3262 311.1465 L1160.3262 349.5464 L647.1752 349.5464 Z" clip-path="url(#clipPath2)" stroke="rgb(153,51,204)"/>
    </g>
    <g font-size="20" stroke-linecap="butt" transform="matrix(1,0,0,1,-632,-112)" fill="rgb(153,51,204)" font-family="'Courier New'" stroke="rgb(153,51,204)" font-weight="bold" stroke-miterlimit="1.45">
      <text x="807.735" xml:space="preserve" y="335.6687" clip-path="url(#clipPath2)" stroke="none">AtClockExtractor</text>
    </g>
    <g transform="matrix(1.3398,0,0,1.3398,89.2768,42.8248)" image-rendering="optimizeQuality">
      <image x="0" y="0" clip-path="url(#clipPath5)" width="276" xlink:href="data:image/png;base64,iVBORw0KGgoAAAANSUhEUgAAARQAAABXCAYAAADFy7oPAAAB/0lEQVR42u3ZcWuC&#13;&#10;QBjA4TJrbd//u26l6QzeY4dsaRKxzueBl+aw+0Pwx6WbDQAAAAAAT7N90neA19Q/&#13;&#10;Og7b7FNMYL1R6acCMxWIFJEqG2GB9UWky+bPqNQzYrKL8+r4O4UFKD8q14Bchmlj&#13;&#10;+ls/heqJBas45y1mH8eCAusIyjUmzTBf8b8UmEU7lDwoH8MchznETgUoW9qZnEYx&#13;&#10;6ZbsUFJQdrEzeY+oHGbsbIAygtJEB1JY0nPUu3co413KPmJyFBRYTVCq+EzPUG++&#13;&#10;kJkThnynUmdxAcrVx73fbX5exky+3fVwFXgYQQEEBRAUQFAABAUQFEBQAEEBEBRA&#13;&#10;UABBARAUQFAAQQEEBUBQAEEBBAVAUABBAQQFEBQAQQEEBRAUAEEBBAUQFEBQAAQF&#13;&#10;EBRAUAAEBRAUQFAAQQEQFEBQAEEBEBRAUABBAQQFQFAAQQEEBUBQAEEBBAUQFABB&#13;&#10;AQQFEBRAUFwCQFAAQQEEBUBQAEEBXlA987x+mC6bi0sHRRvf8/0jgtKPItIO08xd&#13;&#10;HHj5oDRx31/mhKW+Y9HzMLs4rl1vWE1QzllUFgclLdjGgp9xnMIClB+Ua0ROMe3U&#13;&#10;LmVuUE5xnGLiYS6UrxttKpqpoGwnFqxidtlsZ3wPKCsql2yH0i0NSjqnykIiJrCu&#13;&#10;nz6/zeKgLDkXKC8sAAAAAAD8J99PNXRtFXpRUgAAAABJRU5ErkJggg==" height="87" preserveAspectRatio="none"/>
    </g>
    <g fill="white" stroke-width="2" stroke-miterlimit="1.45" transform="matrix(1,0,0,1,-632,-112)" stroke-linecap="butt" stroke="white">
      <path d="M732.6752 166.2232 L1074.8262 166.2232 L1074.8262 255.6963 L732.6752 255.6963 Z" clip-path="url(#clipPath2)" stroke="none"/>
      <path fill="none" d="M732.6752 166.2232 L1074.8262 166.2232 L1074.8262 255.6963 L732.6752 255.6963 Z" clip-path="url(#clipPath2)" stroke="rgb(90,90,90)"/>
    </g>
    <g font-size="16" stroke-linecap="butt" transform="matrix(1,0,0,1,-632,-112)" fill="rgb(90,90,90)" font-family="'Courier New'" stroke="rgb(90,90,90)" font-weight="bold" stroke-miterlimit="1.45">
      <text x="753.2742" xml:space="preserve" y="185.5435" clip-path="url(#clipPath2)" stroke="none">uint8 NumExtractors()</text>
      <text x="753.2742" xml:space="preserve" y="203.6685" clip-path="url(#clipPath2)" stroke="none">AtClockExtractor ExtractorGet(</text>
      <text x="753.2742" xml:space="preserve" y="221.7935" clip-path="url(#clipPath2)" stroke="none">    uint8 extractorId)</text>
      <text x="753.2742" xml:space="preserve" y="239.9185" clip-path="url(#clipPath2)" stroke="none">eAtModuleClockRet AllClockCheck()</text>
    </g>
    <g transform="matrix(2.1133,0,0,2.1133,-3.9576,248.4136)" image-rendering="optimizeQuality">
      <image x="0" y="0" clip-path="url(#clipPath6)" width="263" xlink:href="data:image/png;base64,iVBORw0KGgoAAAANSUhEUgAAAQcAAAEUCAYAAAAm6fOSAAADxElEQVR42u3a206D&#13;&#10;QBRA0U47Xv//W9W2MBWSQ5w0FUEedHSt5ARsWh5M2Ay0ux0AAAAAAMBPSivfl1Z+&#13;&#10;DvgdLjf2L3MfyAvDsI9J1QDtxWHclpjZQOSFYRjfd6hGHKC9OIzTx3Sx/TQQeUEY&#13;&#10;xhjcDfMQ2xyvA23FYYrCqbrAd1tWDuN77od5GuYx9rP/NTSlVGF4qWKRtq4cpjg8&#13;&#10;RyCyWwtoctXwGvvn3cdzxM3PHKZbi8fYFwdoKw7nWEEc46I/+3hgzbcVhyoS4gBt&#13;&#10;xWEf28NVGNKWONSRuB6gDam60C/6vZJvHeD/rSIuN/bFAVhGHABxAMQBEAdAHABx&#13;&#10;AMQBEAdAHABxAMQBEAdAHADEARAHQBwAcQDEARAHQBwAcQDEARAHQBwAcQAQB0Ac&#13;&#10;AHEAxAEQB0AcAHEAxAEQB0AcAHEAxAFAHABxAMQBEAdAHABxAMQBEAdAHABxAMQB&#13;&#10;EAdAHADEARAHQBwAcQDEARAHQBwAcQDEARAHQBwAcQAQB0AcAHEAxAEQB0AcAHEA&#13;&#10;xAEQB0AcAHEAxAFAHABxAMQBEAdAHABxAMQBEAdAHABxAMQBEAcAcQDEARAHQBwA&#13;&#10;cQDEARAHQBwAcQDEARAHQBwAcQAQB0AcAHEAxAEQB0AcAHEAxAEQB0AcAHEAxAFA&#13;&#10;HABxAMQBEAdAHABxAMQBEAdAHABxAMQBEAcAcQDEARAHQBwAcQDEARAHQBwAcQDE&#13;&#10;ARAHQBwAcQAQB0AcAHEAxAEQB0AcAHEAxAEQB0AcAHEAxAFAHABxAMQBEAdAHABx&#13;&#10;AMQBEAdAHABxAMQBEAcAcQDEARAHQBwAcQDEARAHQBwAcQDEARAHQBwAxAEQB0Ac&#13;&#10;AHEAxAEQB0AcAHEAxAEQB0AcAHEAxAFAHABxAMQBEAdAHABxAMQBEAdAHABxAMQB&#13;&#10;EAcAcQDEARAHQBwAcQDEARAHQBwAcQDEARAHQBwAxAEQB0AcAHEAxAEQB0AcAHEA&#13;&#10;xAEQB0AcAHEAxAFAHABxAMQBEAdAHABxAMQBEAdAHABxAMQBEAcAcQDEARAHQBwA&#13;&#10;cQDEARAHQBwAcQDEARAH4G9KMTfllQe7VAO04bPzdvZczisOXmL6WHEk/3NoJg59&#13;&#10;NWXJBT4vjMJ4wG6Y8zCHeE0coJ04lDh/z0sDkVcc9BgrhhKBEAdoKw5dnMen2C/f&#13;&#10;va2Y7ke6ONhrFOfotgKafObQx4X+LbbluyuH+pbiFH+frBqg6UB01SOCfm7l8NVJ&#13;&#10;Pn3Vsa+iYNUA7cahvuiXLXG4jkS6es1XmvC73TpP/SQBAAAAAABowDvyToDekLtQ&#13;&#10;NAAAAABJRU5ErkJggg==" height="276" preserveAspectRatio="none"/>
    </g>
    <g fill="white" stroke-width="2" stroke-miterlimit="1.45" transform="matrix(1,0,0,1,-632,-112)" stroke-linecap="butt" stroke="white">
      <path d="M647.1752 379.5464 L1160.3262 379.5464 L1160.3262 919.6862 L647.1752 919.6862 Z" clip-path="url(#clipPath2)" stroke="none"/>
      <path fill="none" d="M647.1752 379.5464 L1160.3262 379.5464 L1160.3262 919.6862 L647.1752 919.6862 Z" clip-path="url(#clipPath2)" stroke="rgb(90,90,90)"/>
    </g>
    <g font-size="16" stroke-linecap="butt" transform="matrix(1,0,0,1,-632,-112)" fill="rgb(90,90,90)" font-family="'Courier New'" stroke="rgb(90,90,90)" font-weight="bold" stroke-miterlimit="1.45">
      <text x="677.0696" xml:space="preserve" y="398.8668" clip-path="url(#clipPath2)" stroke="none">/* Control global clock extraction */</text>
      <text x="677.0696" xml:space="preserve" y="416.9918" clip-path="url(#clipPath2)" stroke="none">eAtModuleClockRet SystemClockExtract()</text>
      <text x="677.0696" xml:space="preserve" y="435.1168" clip-path="url(#clipPath2)" stroke="none">eBool SystemClockIsExtracted()</text>
      <text x="677.0696" xml:space="preserve" y="453.2418" clip-path="url(#clipPath2)" stroke="none"> </text>
      <text x="677.0696" xml:space="preserve" y="471.3668" clip-path="url(#clipPath2)" stroke="none">/* Control SDH clock extraction */</text>
      <text x="677.0696" xml:space="preserve" y="489.4918" clip-path="url(#clipPath2)" stroke="none">eAtModuleClockRet SdhSystemClockExtract()</text>
      <text x="677.0696" xml:space="preserve" y="507.6168" clip-path="url(#clipPath2)" stroke="none">eBool SdhSystemClockIsExtracted()</text>
      <text x="677.0696" xml:space="preserve" y="525.7418" clip-path="url(#clipPath2)" stroke="none">eAtModuleClockRet SdhLineClockExtract(</text>
      <text x="677.0696" xml:space="preserve" y="543.8668" clip-path="url(#clipPath2)" stroke="none">    AtSdhLine line)</text>
      <text x="677.0696" xml:space="preserve" y="561.9918" clip-path="url(#clipPath2)" stroke="none">AtSdhLine SdhLineGet()</text>
      <text x="677.0696" xml:space="preserve" y="580.1168" clip-path="url(#clipPath2)" stroke="none"> </text>
      <text x="677.0696" xml:space="preserve" y="598.2418" clip-path="url(#clipPath2)" stroke="none">/* Control external clock extraction */</text>
      <text x="677.0696" xml:space="preserve" y="616.3668" clip-path="url(#clipPath2)" stroke="none">eAtModuleClockRet ExternalClockExtract(</text>
      <text x="677.0696" xml:space="preserve" y="634.4918" clip-path="url(#clipPath2)" stroke="none">    uint8 externalId)</text>
      <text x="677.0696" xml:space="preserve" y="652.6168" clip-path="url(#clipPath2)" stroke="none">uint8 ExternalClockGet()</text>
      <text x="677.0696" xml:space="preserve" y="670.7418" clip-path="url(#clipPath2)" stroke="none">eBool ExternalIdIsValid(</text>
      <text x="677.0696" xml:space="preserve" y="688.8668" clip-path="url(#clipPath2)" stroke="none">    uint8 externalId)</text>
      <text x="677.0696" xml:space="preserve" y="706.9918" clip-path="url(#clipPath2)" stroke="none"> </text>
      <text x="677.0696" xml:space="preserve" y="725.1168" clip-path="url(#clipPath2)" stroke="none">/* Control PDH clock extraction */</text>
      <text x="677.0696" xml:space="preserve" y="743.2418" clip-path="url(#clipPath2)" stroke="none">eAtModuleClockRet PdhDe1ClockExtract(</text>
      <text x="677.0696" xml:space="preserve" y="761.3668" clip-path="url(#clipPath2)" stroke="none">    AtPdhDe1 de1)</text>
      <text x="677.0696" xml:space="preserve" y="779.4918" clip-path="url(#clipPath2)" stroke="none">eAtModuleClockRet PdhDe1LiuClockExtract(</text>
      <text x="677.0696" xml:space="preserve" y="797.6168" clip-path="url(#clipPath2)" stroke="none">    AtPdhDe1 de1)</text>
      <text x="677.0696" xml:space="preserve" y="815.7418" clip-path="url(#clipPath2)" stroke="none">AtPdhDe1 PdhDe1Get()</text>
      <text x="677.0696" xml:space="preserve" y="833.8668" clip-path="url(#clipPath2)" stroke="none">eBool PdhDe1LiuClockIsExtracted()</text>
      <text x="677.0696" xml:space="preserve" y="851.9918" clip-path="url(#clipPath2)" stroke="none"> </text>
      <text x="677.0696" xml:space="preserve" y="870.1168" clip-path="url(#clipPath2)" stroke="none">/* Enabling */</text>
      <text x="677.0696" xml:space="preserve" y="888.2418" clip-path="url(#clipPath2)" stroke="none">eAtModuleClockRet Enable(eBool enable)</text>
      <text x="677.0696" xml:space="preserve" y="906.3668" clip-path="url(#clipPath2)" stroke="none">eBool IsEnabled()</text>
    </g>
    <g transform="matrix(2.0078,0,0,2.0078,-2.9029,219.4683)" image-rendering="optimizeQuality">
      <image x="0" y="0" clip-path="url(#clipPath7)" width="276" xlink:href="data:image/png;base64,iVBORw0KGgoAAAANSUhEUgAAARQAAAAkCAYAAABIfcVgAAABmElEQVR42u3c226C&#13;&#10;QBRA0UFpa/v//9oqFwvJTDolplz0oQ5rJScSgzw06c4gSAgAAAAAAAA8n2rlftXK&#13;&#10;zwHP6zrZvj4iKOM+hzhVNsA+gtLH7X4uLPXCmIz7HbMRFNhHUMbphmnja7c1KCkm&#13;&#10;Y0BehnmLr3V8Hyg/KCkm52EuWWSuW1co4z6vw7wPc4rbtb81FK/PYlJlgem3BCVf&#13;&#10;oaSgfMSo1E57YBerkyZ2IN+utpzy5FGps9OeU9wWFCg/KMe4IvkKPxdnwtagTFcq&#13;&#10;KSyCAuUH5RBjki7GzH53uua7kOrGAOWa3jIyy9UaYG6lsuimNkEBHkpQAEEBBAUQ&#13;&#10;FABBAe6z6jYRQQH+suqycb3yoH2cLrixDUoPSZ/Nw4KSDtzGaeJ7ggLlByU9B2VR&#13;&#10;WOoVBx1Dcs4+JyhQflDS/30TZh6uNBeUaUw+43vjtqe2wX5WKJcYlXZulbJkhdJl&#13;&#10;K5M2eGIb7EU/iUpzT1BSofKDX8KKXx4CxUSlW7JCWfrU+yr8fuo9sJ9Tn1uzOShb&#13;&#10;9gXKCwsAAAAAAP/JN6W/fgSalMqjAAAAAElFTkSuQmCC" height="36" preserveAspectRatio="none"/>
    </g>
    <g fill="white" stroke-width="2" stroke-miterlimit="1.45" transform="matrix(1,0,0,1,-632,-112)" stroke-linecap="butt" stroke="white">
      <path d="M647.1752 349.5464 L1160.3262 349.5464 L1160.3262 381.6964 L647.1752 381.6964 Z" clip-path="url(#clipPath2)" stroke="none"/>
      <path fill="none" d="M647.1752 349.5464 L1160.3262 349.5464 L1160.3262 381.6964 L647.1752 381.6964 Z" clip-path="url(#clipPath2)" stroke="rgb(90,90,90)"/>
    </g>
    <g font-size="16" stroke-linecap="butt" transform="matrix(1,0,0,1,-632,-112)" fill="rgb(90,90,90)" font-family="'Courier New'" stroke="rgb(90,90,90)" font-weight="bold" stroke-miterlimit="1.45">
      <text x="677.0696" xml:space="preserve" y="368.8668" clip-path="url(#clipPath2)" stroke="none">uint8 id</text>
    </g>
    <g stroke-linecap="butt" transform="matrix(1,0,0,1,-632,-112)" stroke-miterlimit="1.45">
      <path fill="none" d="M903.7507 255.7006 L903.7507 303.1383" clip-path="url(#clipPath2)"/>
    </g>
    <g stroke-linecap="butt" transform="matrix(1,0,0,1,-632,-112)" stroke-miterlimit="1.45">
      <path d="M903.7507 311.1383 L908.7507 299.1383 L903.7507 302.1383 L898.7507 299.1383 Z" clip-path="url(#clipPath2)" stroke="none"/>
      <text x="847.4099" xml:space="preserve" y="288.1353" font-family="sans-serif" clip-path="url(#clipPath2)" stroke="none">extractors</text>
    </g>
  </g>
</svg>
