<?xml version="1.0" encoding="UTF-8"?><svg xmlns="http://www.w3.org/2000/svg" xmlns:xlink="http://www.w3.org/1999/xlink" fill-opacity="1" color-rendering="auto" color-interpolation="auto" text-rendering="auto" stroke="black" stroke-linecap="square" width="844" stroke-miterlimit="10" shape-rendering="auto" stroke-opacity="1" fill="black" stroke-dasharray="none" font-weight="normal" stroke-width="1" height="159" font-family="'Dialog'" font-style="normal" stroke-linejoin="miter" font-size="12px" stroke-dashoffset="0" image-rendering="auto">
  <!--Generated by ySVG 2.5-->
  <defs id="genericDefs"/>
  <g>
    <defs id="defs1">
      <clipPath clipPathUnits="userSpaceOnUse" id="clipPath1">
        <path d="M0 0 L844 0 L844 159 L0 159 L0 0 Z"/>
      </clipPath>
      <clipPath clipPathUnits="userSpaceOnUse" id="clipPath2">
        <path d="M-16 -366 L828 -366 L828 -207 L-16 -207 L-16 -366 Z"/>
      </clipPath>
      <clipPath clipPathUnits="userSpaceOnUse" id="clipPath3">
        <path d="M-7.6522 -97.4837 L836.3478 -97.4837 L836.3478 61.5163 L-7.6522 61.5163 L-7.6522 -97.4837 Z"/>
      </clipPath>
      <clipPath clipPathUnits="userSpaceOnUse" id="clipPath4">
        <path d="M-509.7041 -9.4424 L334.2959 -9.4424 L334.2959 149.5576 L-509.7041 149.5576 L-509.7041 -9.4424 Z"/>
      </clipPath>
      <clipPath clipPathUnits="userSpaceOnUse" id="clipPath5">
        <path d="M-709.8098 -38.263 L134.1903 -38.263 L134.1903 120.737 L-709.8098 120.737 L-709.8098 -38.263 Z"/>
      </clipPath>
      <clipPath clipPathUnits="userSpaceOnUse" id="clipPath6">
        <path d="M-262.9541 -9.4424 L581.0459 -9.4424 L581.0459 149.5576 L-262.9541 149.5576 L-262.9541 -9.4424 Z"/>
      </clipPath>
      <clipPath clipPathUnits="userSpaceOnUse" id="clipPath7">
        <path d="M-7.6522 -9.4424 L836.3478 -9.4424 L836.3478 149.5576 L-7.6522 149.5576 L-7.6522 -9.4424 Z"/>
      </clipPath>
      <clipPath clipPathUnits="userSpaceOnUse" id="clipPath8">
        <path d="M-262.9541 -97.4837 L581.0459 -97.4837 L581.0459 61.5163 L-262.9541 61.5163 L-262.9541 -97.4837 Z"/>
      </clipPath>
    </defs>
    <g fill="white" text-rendering="geometricPrecision" shape-rendering="geometricPrecision" transform="translate(16,366)" stroke="white">
      <rect x="-16" width="844" height="159" y="-366" clip-path="url(#clipPath2)" stroke="none"/>
    </g>
    <g text-rendering="geometricPrecision" shape-rendering="geometricPrecision" transform="matrix(1,0,0,1,7.6522,97.4837)" image-rendering="optimizeQuality">
      <image x="0" y="0" clip-path="url(#clipPath3)" width="167" xlink:href="data:image/png;base64,iVBORw0KGgoAAAANSUhEUgAAAKcAAAA7CAYAAAAesprUAAACOElEQVR4Xu3dTUtW&#13;&#10;URRH8a2ZppYkldEboVhZk4oyqkEvUhT1/b9Pe7ERnkl0uvdGW1h/+A29d7I6PaNz&#13;&#10;I5xzzjnnnHPOOXextybNtPh46Hq6lDakieiHjhaLlAfx0M10Je2kXekv0Q390BE9&#13;&#10;zQ50NUxecD3dTAfptjSAVm5FdUM/dLRIoBzBl6MeeCPdT4fpUXosDTqO6oZ+6Iie&#13;&#10;6Iq+Jo8/3ooq/l56kp6n1+mNNOA0vYrqhn7oiJ7oalacHL3bUbVTPi94lz6mz9KA&#13;&#10;T+lDVDf0cxjVE13R1+Txx/yQ5TcD/5VzYhLm1/RdGvAtfYnqhn7oiJ7oapE4D6J+&#13;&#10;O3BM86+Bl/6UBvyICpRu6IeO6Mk49d8Zp9oyTrVlnGrLONWWcaot41Rbxqm2jFNt&#13;&#10;GafaMk61ZZxqyzjVlnGqLeNUW8aptoxTbRmn2jJOtWWcass41ZZxqi3jVFvGqbaM&#13;&#10;U20Zp9oyTrVlnGrLONWWcaqtfx7n6v2cXATq/ZwaRZjcz0k3i9/PyQ20XDZ/lF6k&#13;&#10;91G31Z5JAzgxuTiWm43p5yiqp9k3G69HfZ5jPz1IT9PLqOOZl0l/8jaqF7qhHzqi&#13;&#10;J7qir8njjzfT1aij+GHUscxLnkmDTqK6oR9+b16L6mpWnGtRRy+V80AumufbMnej&#13;&#10;voogjbgT1Q397EX1RFf0NWvUzafhtqJ+xHKKEiovkUbQC93QDx3R06xTc3UUfh4p&#13;&#10;HzeSpjj//uXsE/N348HSFM4555xzzjnnnLvQ+wVLXmlTvnZxfAAAAABJRU5ErkJg&#13;&#10;gg==" height="59" preserveAspectRatio="none"/>
      <path fill="teal" d="M-0.3478 -260.5163 L145.8031 -260.5163 L145.8031 -222.1163 L-0.3478 -222.1163 Z" clip-path="url(#clipPath2)" transform="matrix(1,0,0,1,8.3478,268.5163)" stroke="none" image-rendering="auto"/>
    </g>
    <g stroke-linecap="butt" font-size="20px" transform="matrix(1,0,0,1,16,366)" fill="white" text-rendering="geometricPrecision" font-family="'Courier New'" shape-rendering="geometricPrecision" stroke="white" font-weight="bold" stroke-miterlimit="1.45">
      <text x="36.7218" xml:space="preserve" y="-235.994" clip-path="url(#clipPath2)" stroke="none">LO VCG</text>
    </g>
    <g text-rendering="geometricPrecision" shape-rendering="geometricPrecision" transform="matrix(1,0,0,1,509.7041,9.4424)" image-rendering="optimizeQuality">
      <image x="0" y="0" clip-path="url(#clipPath4)" width="144" xlink:href="data:image/png;base64,iVBORw0KGgoAAAANSUhEUgAAAJAAAACTCAYAAABh0pAWAAADC0lEQVR4Xu3WW6tW&#13;&#10;ZRiF4ddtmrQjN4QWGmlQQaG2sYO0Uor8///HZ/AirMNY4yNkdj1wHa75HYybOdda&#13;&#10;zjnnnHPOOefe3bvA/8LJLw+9OC6NyxxaNs7WJwspD8pDr45r4/1xg0PKttk4W2fz&#13;&#10;OqKz8eQHPh43x+1xh8PInrfW3jYbZ+uTRJRX2ZW1H/jpuDcejIfjEYfy1drbZuNs&#13;&#10;nc2zfRo49+WP31u7yrvj6/H9eDp+4jB+HE/W3jYbZ+tsnu2rgPIKu752kakzP/Bs&#13;&#10;PB+/cxgvxm9rb5uNH6y9ebZPA+e+/HH+scr3MZ+tvHkSz6vxN4fx13i59rbZOFtn&#13;&#10;82x/koBur/2dzOsuxeZHX3MY/6wdUbbNxtk6mwuIf0VAVARERUBUBERFQFQEREVA&#13;&#10;VARERUBUBERFQFQEREVAVARERUBUBERFQFQEREVAVARERUBUBERFQFQEREVAVARE&#13;&#10;RUBUBERFQFQEREVAVARERUBUBERFQFQEREVAVARERUBUBERFQFQEREVAVARERUBU&#13;&#10;BERFQFQEREVAVARERUBUBERFQFQEREVAVARERUBUBERFQFQEREVAVARERUBUBERF&#13;&#10;QFQEREVAVARERUBUBERFQFQEREVAVARERUBUBERFQFQEREVAVARERUBUBERFQFQE&#13;&#10;REVAVARERUBUBERFQFQEREVAVARERUBUBERFQFQEREVAVARERUBUBERFQFQEREVA&#13;&#10;VARERUBUBERFQFQEREVAVARERUBUBERFQFQEREVAVARERUBU/pOAHo6n4/l4tXZE&#13;&#10;HEPiebn2ttk4W58soOvj5vhy/DB+XbvUPzmMP8aLtbfNxtk6m2f7S6u4/PG18cn4&#13;&#10;YnwzHo9f1v4xjuHZ+HntbbNxts7m2b4K6OK4Oj4Yd8b9tb+P347vOJSEk23vr711&#13;&#10;Ns/2aeDcd2FcXrvED8et8dm4Nz7nMLLn3bW3zcbZOptn+zRQXQp8G9GNtcv8iMNJ&#13;&#10;NNk2G7+Np3r7nL08KN/CPPTK2q82jifbZuNsfbJ4zl5eZxyfc84555xzzrl38t4A&#13;&#10;OCPOyRf1IakAAAAASUVORK5CYII=" height="147" preserveAspectRatio="none"/>
      <path fill="teal" d="M501.7041 -348.5576 L624.855 -348.5576 L624.855 -222.1163 L501.7041 -222.1163 Z" clip-path="url(#clipPath2)" transform="matrix(1,0,0,1,-493.7041,356.5576)" stroke="none" image-rendering="auto"/>
    </g>
    <g stroke-linecap="butt" font-size="20px" transform="matrix(1,0,0,1,16,366)" fill="white" text-rendering="geometricPrecision" font-family="'Courier New'" shape-rendering="geometricPrecision" stroke="white" font-weight="bold" stroke-miterlimit="1.45">
      <text x="509.2708" xml:space="preserve" y="-291.3428" clip-path="url(#clipPath2)" stroke="none">Ethernet </text>
      <text x="533.2747" xml:space="preserve" y="-268.6866" clip-path="url(#clipPath2)" stroke="none">flows</text>
    </g>
    <g text-rendering="geometricPrecision" shape-rendering="geometricPrecision" transform="matrix(1,0,0,1,709.8097,38.263)" image-rendering="optimizeQuality">
      <image x="0" y="0" clip-path="url(#clipPath5)" width="91" xlink:href="data:image/png;base64,iVBORw0KGgoAAAANSUhEUgAAAFsAAABZCAYAAABR/liSAAACVElEQVR4Xu3d2WoV&#13;&#10;QRRG4R2HmCiKY1QUTHACEWcF5yjOvv/7uJfFEcG7nPaHUGvDujzV5Kvuzl11leM4&#13;&#10;juM4zmGaDfunxYdFj3RHu2P2JzxwWQydhVh0s9vqTnan7LcDHrjgszb439Bc4Gx3&#13;&#10;sdvpLk8af/ulGg544LIIOI/I8RoLXuiud3vd7e7OxN2q4YAHLvjghNeBhx+fqLGD&#13;&#10;17q73cPuWfdi0p53T2s44IELPjithc2jsV1j99hJLvCye999mLT97l0NBzz2avjg&#13;&#10;hNeBhx/zj4B3FK8O7migP3ffJu1r96mGAx644IPTItg7Nd5VPEbsLhf9OWk/aoDj&#13;&#10;gAcu+Ij9HxI7mNjBxA4mdjCxg4kdTOxgYgcTO5jYwcQOJnYwsYOJHUzsYGIHEzuY&#13;&#10;2MHEDiZ2MLGDiR1M7GBiBxM7mNjBxA4mdjCxg4kdTOxgYgcTO5jYwcQOJnYwsYOJ&#13;&#10;HUzsYGIHEzuY2MHEDiZ2MLGDiR1M7GBiBxM7mNjBxA4mdjCxg4kdTOxgYgcTO5jY&#13;&#10;wcQOFsHmNF3Ojt7vvnTfJ40bjVOWOWUYD1wWxebI+Zvdk+5N97HGBWeM45y5q3HA&#13;&#10;Axd8FsHe6s53N7r7NXbzdfd20kB+VcMBD1zwwWkt7NUx/Ge6qzV28V6NE9EfT9qj&#13;&#10;7kENBzxwwQentY7h36jxPRYekXPdlRofVditcfz8jO3WuJtxwAMXfHDaqDVn9UWP&#13;&#10;7e50jY8p8NjMHMA44IELPmvd1atht1iIndus8bjwfpo9HPDAZdGvMDEstoK30crE&#13;&#10;cRzHcRznEMwvAOCCbY2b78kAAAAASUVORK5CYII=" height="89" preserveAspectRatio="none"/>
      <path fill="teal" d="M701.8098 -319.737 L771.9607 -319.737 L771.9607 -250.937 L701.8098 -250.937 Z" clip-path="url(#clipPath2)" transform="matrix(1,0,0,1,-693.8097,327.737)" stroke="none" image-rendering="auto"/>
    </g>
    <g stroke-linecap="butt" font-size="20px" transform="matrix(1,0,0,1,16,366)" fill="white" text-rendering="geometricPrecision" font-family="'Courier New'" shape-rendering="geometricPrecision" stroke="white" font-weight="bold" stroke-miterlimit="1.45">
      <text x="712.8813" xml:space="preserve" y="-291.3428" clip-path="url(#clipPath2)" stroke="none">ETH </text>
      <text x="706.8804" xml:space="preserve" y="-268.6866" clip-path="url(#clipPath2)" stroke="none">Ports</text>
    </g>
    <g text-rendering="geometricPrecision" shape-rendering="geometricPrecision" transform="matrix(1,0,0,1,262.9541,9.4424)" image-rendering="optimizeQuality">
      <image x="0" y="0" clip-path="url(#clipPath6)" width="181" xlink:href="data:image/png;base64,iVBORw0KGgoAAAANSUhEUgAAALUAAAA7CAYAAAA96csBAAACR0lEQVR4Xu3dWWsU&#13;&#10;URCG4TLGaBKNexRXorgFVxTFBTc0KPn//8d6KaKDlz19RizeD57LOX3zdXVdzYkw&#13;&#10;xhhjjDHGGGOMMX9yTPpHZg+HrqXjaV1aMXpH/2YrOIdw6EY6lbbStrQi9G0znYwq&#13;&#10;+FG5J2ex0DzgXLqUdtMVaTB6Rt8upJ2ocp+IKvbk8GMOodAX0420l+6l+9Jg9Oxu&#13;&#10;upWuprNR2wKDdvK0ptSMfSb09fQgPUuv0mtpMHr2Iu1HDdPddDpq0E4uNW8EI58p&#13;&#10;zaEU+m36lL5Ig9Gz9+llepiuRa0hG7FkqVnUL0d9CnhzeND39EMa7CCq3AzSx+lm&#13;&#10;1NYwS6kZ++w4fBJ4CA88lAb7mb5FTeunUbu1pdZ/zVKrHUutdiy12rHUasdSqx1L&#13;&#10;rXYstdqx1GrHUqsdS612LLXasdRqx1KrHUutdiy12rHUasdSqx1LrXYstdqx1GrH&#13;&#10;UqsdS612LLXasdRqx1KrHUutdiy12rHUasdSq52hpV78f+qP4f9TazUOoobo7P9P&#13;&#10;vRl1mcyd9Dy9S5/TV2kwCv0hapg+irqiZSeWLPVa1MUx56PeEg7mDg7WEN4eaaQ3&#13;&#10;UVdjPIm60Igbu5a+84VS81ZwECvI7ag1hHLvS4PRMy7P2ou674XhyubABjE5vA0c&#13;&#10;wLQ+E3WhEW8LD+BTII1Ez7hqjoHKLr0dNWQZtkuFA9ajrp7bipraFJzdRhqNrlFm&#13;&#10;BitrB0N28uqxGA45KjcHS6tE7ygzHZyl0H+HQ6VVMsYYY4wxxhhjjDG/8wuvJww/&#13;&#10;AfnJ6gAAAABJRU5ErkJggg==" height="59" preserveAspectRatio="none"/>
      <path fill="teal" d="M254.9541 -348.5576 L415.6398 -348.5576 L415.6398 -310.1576 L254.9541 -310.1576 Z" clip-path="url(#clipPath2)" transform="matrix(1,0,0,1,-246.9541,356.5576)" stroke="none" image-rendering="auto"/>
    </g>
    <g stroke-linecap="butt" font-size="20px" transform="matrix(1,0,0,1,16,366)" fill="white" text-rendering="geometricPrecision" font-family="'Courier New'" shape-rendering="geometricPrecision" stroke="white" font-weight="bold" stroke-miterlimit="1.45">
      <text x="269.2862" xml:space="preserve" y="-324.0353" clip-path="url(#clipPath2)" stroke="none">GFP-F/GFP-T</text>
    </g>
    <g text-rendering="geometricPrecision" shape-rendering="geometricPrecision" transform="matrix(1,0,0,1,7.6522,9.4424)" image-rendering="optimizeQuality">
      <image x="0" y="0" clip-path="url(#clipPath7)" width="167" xlink:href="data:image/png;base64,iVBORw0KGgoAAAANSUhEUgAAAKcAAAA7CAYAAAAesprUAAACOElEQVR4Xu3dTUtW&#13;&#10;URRH8a2ZppYkldEboVhZk4oyqkEvUhT1/b9Pe7ERnkl0uvdGW1h/+A29d7I6PaNz&#13;&#10;I5xzzjnnnHPOOXextybNtPh46Hq6lDakieiHjhaLlAfx0M10Je2kXekv0Q390BE9&#13;&#10;zQ50NUxecD3dTAfptjSAVm5FdUM/dLRIoBzBl6MeeCPdT4fpUXosDTqO6oZ+6Iie&#13;&#10;6Iq+Jo8/3ooq/l56kp6n1+mNNOA0vYrqhn7oiJ7oalacHL3bUbVTPi94lz6mz9KA&#13;&#10;T+lDVDf0cxjVE13R1+Txx/yQ5TcD/5VzYhLm1/RdGvAtfYnqhn7oiJ7oapE4D6J+&#13;&#10;O3BM86+Bl/6UBvyICpRu6IeO6Mk49d8Zp9oyTrVlnGrLONWWcaot41Rbxqm2jFNt&#13;&#10;GafaMk61ZZxqyzjVlnGqLeNUW8aptoxTbRmn2jJOtWWcass41ZZxqi3jVFvGqbaM&#13;&#10;U20Zp9oyTrVlnGrLONWWcaqtfx7n6v2cXATq/ZwaRZjcz0k3i9/PyQ20XDZ/lF6k&#13;&#10;91G31Z5JAzgxuTiWm43p5yiqp9k3G69HfZ5jPz1IT9PLqOOZl0l/8jaqF7qhHzqi&#13;&#10;J7qir8njjzfT1aij+GHUscxLnkmDTqK6oR9+b16L6mpWnGtRRy+V80AumufbMnej&#13;&#10;voogjbgT1Q397EX1RFf0NWvUzafhtqJ+xHKKEiovkUbQC93QDx3R06xTc3UUfh4p&#13;&#10;HzeSpjj//uXsE/N348HSFM4555xzzjnnnLvQ+wVLXmlTvnZxfAAAAABJRU5ErkJg&#13;&#10;gg==" height="59" preserveAspectRatio="none"/>
      <path fill="teal" d="M-0.3478 -348.5576 L145.8031 -348.5576 L145.8031 -310.1576 L-0.3478 -310.1576 Z" clip-path="url(#clipPath2)" transform="matrix(1,0,0,1,8.3478,356.5576)" stroke="none" image-rendering="auto"/>
    </g>
    <g stroke-linecap="butt" font-size="20px" transform="matrix(1,0,0,1,16,366)" fill="white" text-rendering="geometricPrecision" font-family="'Courier New'" shape-rendering="geometricPrecision" stroke="white" font-weight="bold" stroke-miterlimit="1.45">
      <text x="36.7218" xml:space="preserve" y="-324.0353" clip-path="url(#clipPath2)" stroke="none">HO VCG</text>
    </g>
    <g text-rendering="geometricPrecision" shape-rendering="geometricPrecision" transform="matrix(1,0,0,1,262.9541,97.4837)" image-rendering="optimizeQuality">
      <image x="0" y="0" clip-path="url(#clipPath8)" width="181" xlink:href="data:image/png;base64,iVBORw0KGgoAAAANSUhEUgAAALUAAAA7CAYAAAA96csBAAACR0lEQVR4Xu3dWWsU&#13;&#10;URCG4TLGaBKNexRXorgFVxTFBTc0KPn//8d6KaKDlz19RizeD57LOX3zdXVdzYkw&#13;&#10;xhhjjDHGGGOMMX9yTPpHZg+HrqXjaV1aMXpH/2YrOIdw6EY6lbbStrQi9G0znYwq&#13;&#10;+FG5J2ex0DzgXLqUdtMVaTB6Rt8upJ2ocp+IKvbk8GMOodAX0420l+6l+9Jg9Oxu&#13;&#10;upWuprNR2wKDdvK0ptSMfSb09fQgPUuv0mtpMHr2Iu1HDdPddDpq0E4uNW8EI58p&#13;&#10;zaEU+m36lL5Ig9Gz9+llepiuRa0hG7FkqVnUL0d9CnhzeND39EMa7CCq3AzSx+lm&#13;&#10;1NYwS6kZ++w4fBJ4CA88lAb7mb5FTeunUbu1pdZ/zVKrHUutdiy12rHUasdSqx1L&#13;&#10;rXYstdqx1GrHUqsdS612LLXasdRqx1KrHUutdiy12rHUasdSqx1LrXYstdqx1GrH&#13;&#10;UqsdS612LLXasdRqx1KrHUutdiy12rHUasdSq52hpV78f+qP4f9TazUOoobo7P9P&#13;&#10;vRl1mcyd9Dy9S5/TV2kwCv0hapg+irqiZSeWLPVa1MUx56PeEg7mDg7WEN4eaaQ3&#13;&#10;UVdjPIm60Igbu5a+84VS81ZwECvI7ag1hHLvS4PRMy7P2ou674XhyubABjE5vA0c&#13;&#10;wLQ+E3WhEW8LD+BTII1Ez7hqjoHKLr0dNWQZtkuFA9ajrp7bipraFJzdRhqNrlFm&#13;&#10;BitrB0N28uqxGA45KjcHS6tE7ygzHZyl0H+HQ6VVMsYYY4wxxhhjjDG/8wuvJww/&#13;&#10;AfnJ6gAAAABJRU5ErkJggg==" height="59" preserveAspectRatio="none"/>
      <path fill="teal" d="M254.9541 -260.5163 L415.6398 -260.5163 L415.6398 -222.1163 L254.9541 -222.1163 Z" clip-path="url(#clipPath2)" transform="matrix(1,0,0,1,-246.9541,268.5163)" stroke="none" image-rendering="auto"/>
    </g>
    <g stroke-linecap="butt" font-size="20px" transform="matrix(1,0,0,1,16,366)" fill="white" text-rendering="geometricPrecision" font-family="'Courier New'" shape-rendering="geometricPrecision" stroke="white" font-weight="bold" stroke-miterlimit="1.45">
      <text x="305.2921" xml:space="preserve" y="-235.994" clip-path="url(#clipPath2)" stroke="none">GFP-F</text>
    </g>
    <g text-rendering="geometricPrecision" stroke-miterlimit="1.45" shape-rendering="geometricPrecision" font-family="sans-serif" transform="matrix(1,0,0,1,16,366)" stroke-linecap="butt">
      <text x="153.7598" xml:space="preserve" y="-336.8438" clip-path="url(#clipPath2)" stroke="none">physical binding</text>
    </g>
    <g text-rendering="geometricPrecision" stroke-miterlimit="1.45" shape-rendering="geometricPrecision" font-family="sans-serif" transform="matrix(1,0,0,1,16,366)" stroke-linecap="butt">
      <text x="161.6088" xml:space="preserve" y="-248.8024" clip-path="url(#clipPath2)" stroke="none">physical binding</text>
      <text x="419.5166" xml:space="preserve" y="-336.8438" clip-path="url(#clipPath2)" stroke="none">flow binding</text>
      <text x="426.9844" xml:space="preserve" y="-248.8024" clip-path="url(#clipPath2)" stroke="none">flow binding</text>
      <path fill="none" d="M632.8885 -285.3369 L693.8064 -285.3369" clip-path="url(#clipPath2)"/>
      <path d="M624.8885 -285.3369 L636.8885 -280.3369 L633.8885 -285.3369 L636.8885 -290.3369 Z" clip-path="url(#clipPath2)" stroke="none"/>
      <path d="M701.8064 -285.3369 L689.8064 -290.3369 L692.8064 -285.3369 L689.8064 -280.3369 Z" clip-path="url(#clipPath2)" stroke="none"/>
      <path fill="none" d="M493.7119 -329.3576 L423.6198 -329.3576" clip-path="url(#clipPath2)"/>
      <path d="M501.7119 -329.3576 L489.7119 -334.3576 L492.7119 -329.3576 L489.7119 -324.3576 Z" clip-path="url(#clipPath2)" stroke="none"/>
      <path d="M415.6198 -329.3576 L427.6198 -324.3576 L424.6198 -329.3576 L427.6198 -334.3576 Z" clip-path="url(#clipPath2)" stroke="none"/>
      <path fill="none" d="M153.7964 -329.3576 L246.9671 -329.3576" clip-path="url(#clipPath2)"/>
      <path d="M145.7964 -329.3576 L157.7964 -324.3576 L154.7964 -329.3576 L157.7964 -334.3576 Z" clip-path="url(#clipPath2)" stroke="none"/>
      <path d="M254.9671 -329.3576 L242.9671 -334.3576 L245.9671 -329.3576 L242.9671 -324.3576 Z" clip-path="url(#clipPath2)" stroke="none"/>
      <rect x="197.4298" y="-320.4609" clip-path="url(#clipPath2)" fill="white" width="4" height="4" stroke="none"/>
      <path fill="none" d="M153.774 -241.3163 L246.9255 -241.3163" clip-path="url(#clipPath2)"/>
      <path d="M145.774 -241.3163 L157.774 -236.3163 L154.774 -241.3163 L157.774 -246.3163 Z" clip-path="url(#clipPath2)" stroke="none"/>
      <path d="M254.9255 -241.3163 L242.9255 -246.3163 L245.9255 -241.3163 L242.9255 -236.3163 Z" clip-path="url(#clipPath2)" stroke="none"/>
      <path fill="none" d="M423.6419 -241.3163 L493.6798 -241.3163" clip-path="url(#clipPath2)"/>
      <path d="M415.6419 -241.3163 L427.6419 -236.3163 L424.6419 -241.3163 L427.6419 -246.3163 Z" clip-path="url(#clipPath2)" stroke="none"/>
      <path d="M501.6798 -241.3163 L489.6798 -246.3163 L492.6798 -241.3163 L489.6798 -236.3163 Z" clip-path="url(#clipPath2)" stroke="none"/>
    </g>
  </g>
</svg>
