<?xml version="1.0" encoding="UTF-8" standalone="no"?>
<graphml xmlns="http://graphml.graphdrawing.org/xmlns" xmlns:xsi="http://www.w3.org/2001/XMLSchema-instance" xmlns:y="http://www.yworks.com/xml/graphml" xmlns:yed="http://www.yworks.com/xml/yed/3" xsi:schemaLocation="http://graphml.graphdrawing.org/xmlns http://www.yworks.com/xml/schema/graphml/1.1/ygraphml.xsd">
  <!--Created by yFiles for Java 2.10-->
  <key for="graphml" id="d0" yfiles.type="resources"/>
  <key for="port" id="d1" yfiles.type="portgraphics"/>
  <key for="port" id="d2" yfiles.type="portgeometry"/>
  <key for="port" id="d3" yfiles.type="portuserdata"/>
  <key attr.name="yed.palette.node.name" attr.type="string" for="node" id="d4"/>
  <key attr.name="Palette ToolTip" attr.type="string" for="node" id="d5"/>
  <key attr.name="url" attr.type="string" for="node" id="d6"/>
  <key attr.name="description" attr.type="string" for="node" id="d7"/>
  <key for="node" id="d8" yfiles.type="nodegraphics"/>
  <key attr.name="yed.palette.edge.name" attr.type="string" for="edge" id="d9"/>
  <key attr.name="Palette ToolTip" attr.type="string" for="edge" id="d10"/>
  <key attr.name="url" attr.type="string" for="edge" id="d11"/>
  <key attr.name="description" attr.type="string" for="edge" id="d12"/>
  <key for="edge" id="d13" yfiles.type="edgegraphics"/>
  <graph edgedefault="directed" id="G">
    <node id="n0" yfiles.foldertype="group">
      <data key="d4"><![CDATA[42372a5e-558e-4399-aa7e-b94864b9b929]]></data>
      <data key="d5"/>
      <data key="d8">
        <y:ProxyAutoBoundsNode>
          <y:Realizers active="0">
            <y:GenericGroupNode configuration="com.yworks.bpmn.Artifact">
              <y:Geometry height="161.25431233847763" width="351.66596951848965" x="341.568" y="80.0"/>
              <y:Fill color="#FFFFFFE6" transparent="false"/>
              <y:BorderStyle color="#5A5A5A" type="dashed" width="2.0"/>
              <y:NodeLabel alignment="center" autoSizePolicy="content" fontFamily="Courier New" fontSize="16" fontStyle="bold" hasBackgroundColor="false" hasLineColor="false" height="22.125" modelName="internal" modelPosition="b" textColor="#5A5A5A" underlinedText="true" visible="true" width="32.8046875" x="159.43064100924482" y="135.12931233847763">BOX</y:NodeLabel>
              <y:StyleProperties>
                <y:Property class="com.yworks.yfiles.bpmn.view.BPMNTypeEnum" name="com.yworks.bpmn.type" value="ARTIFACT_TYPE_GROUP"/>
                <y:Property class="java.awt.Color" name="com.yworks.bpmn.icon.line.color" value="#000000"/>
                <y:Property class="java.awt.Color" name="com.yworks.bpmn.icon.fill" value="#ffffff"/>
                <y:Property class="java.awt.Color" name="com.yworks.bpmn.icon.fill2" value="#d4d4d4"/>
              </y:StyleProperties>
              <y:State autoResize="true" closed="false" closedHeight="80.0" closedWidth="100.0"/>
              <y:Insets bottom="15" bottomF="15.0" left="15" leftF="15.0" right="15" rightF="15.0" top="15" topF="15.0"/>
              <y:BorderInsets bottom="0" bottomF="0.0" left="20" leftF="20.019999999999754" right="48" rightF="48.19967591655143" top="7" topF="7.297804602765154"/>
            </y:GenericGroupNode>
            <y:GroupNode>
              <y:Geometry height="80.0" width="100.0" x="608.046875" y="-292.4581249999999"/>
              <y:Fill color="#CAECFF84" transparent="false"/>
              <y:BorderStyle color="#666699" type="dotted" width="1.0"/>
              <y:NodeLabel alignment="right" autoSizePolicy="node_width" backgroundColor="#99CCFF" borderDistance="0.0" fontFamily="Dialog" fontSize="15" fontStyle="plain" hasLineColor="false" height="22.37646484375" modelName="internal" modelPosition="t" textColor="#000000" visible="true" width="100.0" x="0.0" y="0.0">Folder 1</y:NodeLabel>
              <y:Shape type="roundrectangle"/>
              <y:State closed="true" closedHeight="80.0" closedWidth="100.0" innerGraphDisplayEnabled="false"/>
              <y:Insets bottom="15" bottomF="15.0" left="15" leftF="15.0" right="15" rightF="15.0" top="15" topF="15.0"/>
              <y:BorderInsets bottom="0" bottomF="0.0" left="0" leftF="0.0" right="0" rightF="0.0" top="0" topF="0.0"/>
            </y:GroupNode>
          </y:Realizers>
        </y:ProxyAutoBoundsNode>
      </data>
      <graph edgedefault="directed" id="n0:"/>
    </node>
    <node id="n1">
      <data key="d5"/>
      <data key="d7"/>
      <data key="d8">
        <y:ShapeNode>
          <y:Geometry height="20.0" width="20.0" x="0.0" y="30.0"/>
          <y:Fill color="#C0C0C07F" transparent="false"/>
          <y:BorderStyle color="#000000" type="line" width="2.0"/>
          <y:NodeLabel alignment="center" autoSizePolicy="content" fontFamily="Dialog" fontSize="12" fontStyle="plain" hasBackgroundColor="false" hasLineColor="false" hasText="false" height="4.0" modelName="internal" modelPosition="c" textColor="#000000" visible="true" width="4.0" x="8.0" y="8.0"/>
          <y:Shape type="ellipse"/>
        </y:ShapeNode>
      </data>
    </node>
    <node id="n2">
      <data key="d5"/>
      <data key="d7"/>
      <data key="d8">
        <y:ShapeNode>
          <y:Geometry height="20.0" width="20.0" x="100.0" y="30.0"/>
          <y:Fill color="#C0C0C07F" transparent="false"/>
          <y:BorderStyle color="#000000" type="line" width="2.0"/>
          <y:NodeLabel alignment="center" autoSizePolicy="content" fontFamily="Dialog" fontSize="12" fontStyle="plain" hasBackgroundColor="false" hasLineColor="false" hasText="false" height="4.0" modelName="internal" modelPosition="c" textColor="#000000" visible="true" width="4.0" x="8.0" y="8.0"/>
          <y:Shape type="ellipse"/>
        </y:ShapeNode>
      </data>
    </node>
    <node id="n3">
      <data key="d5"/>
      <data key="d7"/>
      <data key="d8">
        <y:ShapeNode>
          <y:Geometry height="20.0" width="20.0" x="150.0" y="30.0"/>
          <y:Fill color="#C0C0C07F" transparent="false"/>
          <y:BorderStyle color="#000000" type="line" width="2.0"/>
          <y:NodeLabel alignment="center" autoSizePolicy="content" fontFamily="Dialog" fontSize="12" fontStyle="plain" hasBackgroundColor="false" hasLineColor="false" hasText="false" height="4.0" modelName="internal" modelPosition="c" textColor="#000000" visible="true" width="4.0" x="8.0" y="8.0"/>
          <y:Shape type="ellipse"/>
        </y:ShapeNode>
      </data>
    </node>
    <node id="n4">
      <data key="d5"/>
      <data key="d7"/>
      <data key="d8">
        <y:ShapeNode>
          <y:Geometry height="20.0" width="20.0" x="250.0" y="30.0"/>
          <y:Fill color="#C0C0C07F" transparent="false"/>
          <y:BorderStyle color="#000000" type="line" width="2.0"/>
          <y:NodeLabel alignment="center" autoSizePolicy="content" fontFamily="Dialog" fontSize="12" fontStyle="plain" hasBackgroundColor="false" hasLineColor="false" hasText="false" height="4.0" modelName="internal" modelPosition="c" textColor="#000000" visible="true" width="4.0" x="8.0" y="8.0"/>
          <y:Shape type="ellipse"/>
        </y:ShapeNode>
      </data>
    </node>
    <node id="n5">
      <data key="d5"/>
      <data key="d7"/>
      <data key="d8">
        <y:ShapeNode>
          <y:Geometry height="20.0" width="20.0" x="300.0" y="30.0"/>
          <y:Fill color="#C0C0C07F" transparent="false"/>
          <y:BorderStyle color="#000000" type="line" width="2.0"/>
          <y:NodeLabel alignment="center" autoSizePolicy="content" fontFamily="Dialog" fontSize="12" fontStyle="plain" hasBackgroundColor="false" hasLineColor="false" hasText="false" height="4.0" modelName="internal" modelPosition="c" textColor="#000000" visible="true" width="4.0" x="8.0" y="8.0"/>
          <y:Shape type="ellipse"/>
        </y:ShapeNode>
      </data>
    </node>
    <node id="n6">
      <data key="d5"/>
      <data key="d7"/>
      <data key="d8">
        <y:ShapeNode>
          <y:Geometry height="20.0" width="20.0" x="400.0" y="30.0"/>
          <y:Fill color="#C0C0C07F" transparent="false"/>
          <y:BorderStyle color="#000000" type="line" width="2.0"/>
          <y:NodeLabel alignment="center" autoSizePolicy="content" fontFamily="Dialog" fontSize="12" fontStyle="plain" hasBackgroundColor="false" hasLineColor="false" hasText="false" height="4.0" modelName="internal" modelPosition="c" textColor="#000000" visible="true" width="4.0" x="8.0" y="8.0"/>
          <y:Shape type="ellipse"/>
        </y:ShapeNode>
      </data>
    </node>
    <node id="n7">
      <data key="d5"/>
      <data key="d7"/>
      <data key="d8">
        <y:ShapeNode>
          <y:Geometry height="20.0" width="20.0" x="450.0" y="30.0"/>
          <y:Fill color="#C0C0C07F" transparent="false"/>
          <y:BorderStyle color="#000000" type="line" width="2.0"/>
          <y:NodeLabel alignment="center" autoSizePolicy="content" fontFamily="Dialog" fontSize="12" fontStyle="plain" hasBackgroundColor="false" hasLineColor="false" hasText="false" height="4.0" modelName="internal" modelPosition="c" textColor="#000000" visible="true" width="4.0" x="8.0" y="8.0"/>
          <y:Shape type="ellipse"/>
        </y:ShapeNode>
      </data>
    </node>
    <node id="n8">
      <data key="d5"/>
      <data key="d7"/>
      <data key="d8">
        <y:ShapeNode>
          <y:Geometry height="20.0" width="20.0" x="550.0" y="30.0"/>
          <y:Fill color="#C0C0C07F" transparent="false"/>
          <y:BorderStyle color="#000000" type="line" width="2.0"/>
          <y:NodeLabel alignment="center" autoSizePolicy="content" fontFamily="Dialog" fontSize="12" fontStyle="plain" hasBackgroundColor="false" hasLineColor="false" hasText="false" height="4.0" modelName="internal" modelPosition="c" textColor="#000000" visible="true" width="4.0" x="8.0" y="8.0"/>
          <y:Shape type="ellipse"/>
        </y:ShapeNode>
      </data>
    </node>
    <node id="n9">
      <data key="d5"/>
      <data key="d7"/>
      <data key="d8">
        <y:ShapeNode>
          <y:Geometry height="20.0" width="20.0" x="600.0" y="30.0"/>
          <y:Fill color="#C0C0C07F" transparent="false"/>
          <y:BorderStyle color="#000000" type="line" width="2.0"/>
          <y:NodeLabel alignment="center" autoSizePolicy="content" fontFamily="Dialog" fontSize="12" fontStyle="plain" hasBackgroundColor="false" hasLineColor="false" hasText="false" height="4.0" modelName="internal" modelPosition="c" textColor="#000000" visible="true" width="4.0" x="8.0" y="8.0"/>
          <y:Shape type="ellipse"/>
        </y:ShapeNode>
      </data>
    </node>
    <node id="n10">
      <data key="d5"/>
      <data key="d7"/>
      <data key="d8">
        <y:ShapeNode>
          <y:Geometry height="20.0" width="20.0" x="700.0" y="30.0"/>
          <y:Fill color="#C0C0C07F" transparent="false"/>
          <y:BorderStyle color="#000000" type="line" width="2.0"/>
          <y:NodeLabel alignment="center" autoSizePolicy="content" fontFamily="Dialog" fontSize="12" fontStyle="plain" hasBackgroundColor="false" hasLineColor="false" hasText="false" height="4.0" modelName="internal" modelPosition="c" textColor="#000000" visible="true" width="4.0" x="8.0" y="8.0"/>
          <y:Shape type="ellipse"/>
        </y:ShapeNode>
      </data>
    </node>
    <node id="n11">
      <data key="d5"/>
      <data key="d7"/>
      <data key="d8">
        <y:ShapeNode>
          <y:Geometry height="20.0" width="20.0" x="750.0" y="30.0"/>
          <y:Fill color="#C0C0C07F" transparent="false"/>
          <y:BorderStyle color="#000000" type="line" width="2.0"/>
          <y:NodeLabel alignment="center" autoSizePolicy="content" fontFamily="Dialog" fontSize="12" fontStyle="plain" hasBackgroundColor="false" hasLineColor="false" hasText="false" height="4.0" modelName="internal" modelPosition="c" textColor="#000000" visible="true" width="4.0" x="8.0" y="8.0"/>
          <y:Shape type="ellipse"/>
        </y:ShapeNode>
      </data>
    </node>
    <node id="n12">
      <data key="d5"/>
      <data key="d7"/>
      <data key="d8">
        <y:ShapeNode>
          <y:Geometry height="20.0" width="20.0" x="850.0" y="30.0"/>
          <y:Fill color="#C0C0C07F" transparent="false"/>
          <y:BorderStyle color="#000000" type="line" width="2.0"/>
          <y:NodeLabel alignment="center" autoSizePolicy="content" fontFamily="Dialog" fontSize="12" fontStyle="plain" hasBackgroundColor="false" hasLineColor="false" hasText="false" height="4.0" modelName="internal" modelPosition="c" textColor="#000000" visible="true" width="4.0" x="8.0" y="8.0"/>
          <y:Shape type="ellipse"/>
        </y:ShapeNode>
      </data>
    </node>
    <node id="n13">
      <data key="d4"><![CDATA[1be68703-209f-4641-8d25-1ac9c338a6ad]]></data>
      <data key="d5"/>
      <data key="d8">
        <y:ShapeNode>
          <y:Geometry height="11.158400000000029" width="11.567999999999984" x="0.0" y="155.0479561692388"/>
          <y:Fill color="#FFCC00" transparent="false"/>
          <y:BorderStyle hasColor="false" type="line" width="1.0"/>
          <y:NodeLabel alignment="center" autoSizePolicy="content" fontFamily="Dialog" fontSize="12" fontStyle="plain" hasBackgroundColor="false" hasLineColor="false" hasText="false" height="4.0" modelName="custom" textColor="#000000" visible="true" width="4.0" x="3.783999999999992" y="3.5792000000000144">
            <y:LabelModel>
              <y:SmartNodeLabelModel distance="4.0"/>
            </y:LabelModel>
            <y:ModelParameter>
              <y:SmartNodeLabelModelParameter labelRatioX="0.0" labelRatioY="0.0" nodeRatioX="0.0" nodeRatioY="0.0" offsetX="0.0" offsetY="0.0" upX="0.0" upY="-1.0"/>
            </y:ModelParameter>
          </y:NodeLabel>
          <y:Shape type="rectangle"/>
        </y:ShapeNode>
      </data>
    </node>
    <node id="n14">
      <data key="d5"/>
      <data key="d7"/>
      <data key="d8">
        <y:ShapeNode>
          <y:Geometry height="20.0" width="20.0" x="41.567999999999984" y="150.62715616923882"/>
          <y:Fill color="#C0C0C07F" transparent="false"/>
          <y:BorderStyle color="#000000" type="line" width="2.0"/>
          <y:NodeLabel alignment="center" autoSizePolicy="content" fontFamily="Dialog" fontSize="12" fontStyle="plain" hasBackgroundColor="false" hasLineColor="false" hasText="false" height="4.0" modelName="internal" modelPosition="c" textColor="#000000" visible="true" width="4.0" x="8.0" y="8.0"/>
          <y:Shape type="ellipse"/>
        </y:ShapeNode>
      </data>
    </node>
    <node id="n15">
      <data key="d5"/>
      <data key="d7"/>
      <data key="d8">
        <y:ShapeNode>
          <y:Geometry height="20.0" width="20.0" x="141.56799999999998" y="150.62715616923882"/>
          <y:Fill color="#C0C0C07F" transparent="false"/>
          <y:BorderStyle color="#000000" type="line" width="2.0"/>
          <y:NodeLabel alignment="center" autoSizePolicy="content" fontFamily="Dialog" fontSize="12" fontStyle="plain" hasBackgroundColor="false" hasLineColor="false" hasText="false" height="4.0" modelName="internal" modelPosition="c" textColor="#000000" visible="true" width="4.0" x="8.0" y="8.0"/>
          <y:Shape type="ellipse"/>
        </y:ShapeNode>
      </data>
    </node>
    <node id="n16">
      <data key="d5"/>
      <data key="d7"/>
      <data key="d8">
        <y:ShapeNode>
          <y:Geometry height="20.0" width="20.0" x="191.56799999999998" y="150.62715616923882"/>
          <y:Fill color="#C0C0C07F" transparent="false"/>
          <y:BorderStyle color="#000000" type="line" width="2.0"/>
          <y:NodeLabel alignment="center" autoSizePolicy="content" fontFamily="Dialog" fontSize="12" fontStyle="plain" hasBackgroundColor="false" hasLineColor="false" hasText="false" height="4.0" modelName="internal" modelPosition="c" textColor="#000000" visible="true" width="4.0" x="8.0" y="8.0"/>
          <y:Shape type="ellipse"/>
        </y:ShapeNode>
      </data>
    </node>
    <node id="n17">
      <data key="d5"/>
      <data key="d7"/>
      <data key="d8">
        <y:ShapeNode>
          <y:Geometry height="20.0" width="20.0" x="291.568" y="150.62715616923882"/>
          <y:Fill color="#C0C0C07F" transparent="false"/>
          <y:BorderStyle color="#000000" type="line" width="2.0"/>
          <y:NodeLabel alignment="center" autoSizePolicy="content" fontFamily="Dialog" fontSize="12" fontStyle="plain" hasBackgroundColor="false" hasLineColor="false" hasText="false" height="4.0" modelName="internal" modelPosition="c" textColor="#000000" visible="true" width="4.0" x="8.0" y="8.0"/>
          <y:Shape type="ellipse"/>
        </y:ShapeNode>
      </data>
    </node>
    <node id="n18">
      <data key="d4"><![CDATA[635b25f4-6561-4f72-b082-e11e5da69a41]]></data>
      <data key="d5"/>
      <data key="d8">
        <y:GenericNode configuration="com.yworks.flowchart.process">
          <y:Geometry height="38.39999999999998" width="192.74226547755447" x="723.2339695184896" y="141.42715616923883"/>
          <y:Fill color="#FFFFFF" transparent="false"/>
          <y:BorderStyle color="#9933CC" type="line" width="2.0"/>
          <y:NodeLabel alignment="center" autoSizePolicy="content" fontFamily="Courier New" fontSize="20" fontStyle="bold" hasBackgroundColor="false" hasLineColor="false" height="26.65625" modelName="custom" textColor="#9933CC" visible="true" width="160.025390625" x="16.35843742627719" y="5.871874999999989">AbstractClass<y:LabelModel>
              <y:SmartNodeLabelModel distance="4.0"/>
            </y:LabelModel>
            <y:ModelParameter>
              <y:SmartNodeLabelModelParameter labelRatioX="0.0" labelRatioY="0.0" nodeRatioX="0.0" nodeRatioY="0.0" offsetX="0.0" offsetY="0.0" upX="0.0" upY="-1.0"/>
            </y:ModelParameter>
          </y:NodeLabel>
          <y:StyleProperties>
            <y:Property class="java.lang.Boolean" name="y.view.ShadowNodePainter.SHADOW_PAINTING" value="true"/>
          </y:StyleProperties>
        </y:GenericNode>
      </data>
    </node>
    <node id="n19">
      <data key="d4"><![CDATA[ba402b16-3b66-4c72-a6fa-dd79158b305f]]></data>
      <data key="d5"/>
      <data key="d8">
        <y:GenericNode configuration="com.yworks.flowchart.process">
          <y:Geometry height="38.39999999999998" width="192.74226547755447" x="0.0" y="306.0543123384777"/>
          <y:Fill color="#FFFFFF" transparent="false"/>
          <y:BorderStyle color="#669900" type="line" width="2.0"/>
          <y:NodeLabel alignment="center" autoSizePolicy="content" fontFamily="Courier New" fontSize="20" fontStyle="bold" hasBackgroundColor="false" hasLineColor="false" height="26.65625" modelName="custom" textColor="#669900" visible="true" width="112.017578125" x="40.362343676277234" y="5.871874999999989">Interface<y:LabelModel>
              <y:SmartNodeLabelModel distance="4.0"/>
            </y:LabelModel>
            <y:ModelParameter>
              <y:SmartNodeLabelModelParameter labelRatioX="0.0" labelRatioY="0.0" nodeRatioX="0.0" nodeRatioY="0.0" offsetX="0.0" offsetY="0.0" upX="0.0" upY="-1.0"/>
            </y:ModelParameter>
          </y:NodeLabel>
          <y:StyleProperties>
            <y:Property class="java.lang.Boolean" name="y.view.ShadowNodePainter.SHADOW_PAINTING" value="true"/>
          </y:StyleProperties>
        </y:GenericNode>
      </data>
    </node>
    <node id="n20">
      <data key="d4"><![CDATA[f299cbe9-ed73-4cfa-8139-c7e03f53d352]]></data>
      <data key="d5"/>
      <data key="d8">
        <y:GenericNode configuration="com.yworks.flowchart.process">
          <y:Geometry height="38.39999999999998" width="192.7422654775545" x="222.74226547755444" y="306.0543123384777"/>
          <y:Fill color="#FFFFFF" transparent="false"/>
          <y:BorderStyle color="#0099CC" type="line" width="2.0"/>
          <y:NodeLabel alignment="center" autoSizePolicy="content" fontFamily="Courier New" fontSize="20" fontStyle="bold" hasBackgroundColor="false" hasLineColor="false" height="26.65625" modelName="custom" textColor="#0099CC" visible="true" width="160.025390625" x="16.35843742627725" y="5.871874999999989">ConcreteClass<y:LabelModel>
              <y:SmartNodeLabelModel distance="4.0"/>
            </y:LabelModel>
            <y:ModelParameter>
              <y:SmartNodeLabelModelParameter labelRatioX="0.0" labelRatioY="0.0" nodeRatioX="0.0" nodeRatioY="0.0" offsetX="0.0" offsetY="0.0" upX="0.0" upY="-1.0"/>
            </y:ModelParameter>
          </y:NodeLabel>
          <y:StyleProperties>
            <y:Property class="java.lang.Boolean" name="y.view.ShadowNodePainter.SHADOW_PAINTING" value="true"/>
          </y:StyleProperties>
        </y:GenericNode>
      </data>
    </node>
    <node id="n21">
      <data key="d4"><![CDATA[aad60aef-bccc-45f0-9ca7-dfb1563ad197]]></data>
      <data key="d5"/>
      <data key="d8">
        <y:GenericNode configuration="com.yworks.flowchart.process">
          <y:Geometry height="38.39999999999998" width="193.73309229337383" x="445.484530955109" y="306.0543123384777"/>
          <y:Fill color="#FFFFFF" transparent="false"/>
          <y:BorderStyle color="#FF8800" type="line" width="2.0"/>
          <y:NodeLabel alignment="center" autoSizePolicy="content" fontFamily="Courier New" fontSize="20" fontStyle="bold" hasBackgroundColor="false" hasLineColor="false" height="26.65625" modelName="custom" textColor="#FF8800" visible="true" width="100.015625" x="46.858733646686915" y="5.871874999999989">anObject<y:LabelModel>
              <y:SmartNodeLabelModel distance="4.0"/>
            </y:LabelModel>
            <y:ModelParameter>
              <y:SmartNodeLabelModelParameter labelRatioX="0.0" labelRatioY="0.0" nodeRatioX="0.0" nodeRatioY="0.0" offsetX="0.0" offsetY="0.0" upX="0.0" upY="-1.0"/>
            </y:ModelParameter>
          </y:NodeLabel>
          <y:StyleProperties>
            <y:Property class="java.lang.Boolean" name="y.view.ShadowNodePainter.SHADOW_PAINTING" value="true"/>
          </y:StyleProperties>
        </y:GenericNode>
      </data>
    </node>
    <node id="n22">
      <data key="d4"><![CDATA[d299023e-d45c-4528-aa6d-97ba48754210]]></data>
      <data key="d5"/>
      <data key="d8">
        <y:GenericNode configuration="com.yworks.flowchart.process">
          <y:Geometry height="108.00000000000011" width="263.150968740067" x="669.2176232484828" y="271.25431233847763"/>
          <y:Fill color="#FFFFFF" transparent="false"/>
          <y:BorderStyle color="#5A5A5A" type="line" width="2.0"/>
          <y:NodeLabel alignment="left" autoSizePolicy="content" fontFamily="Courier New" fontSize="16" fontStyle="bold" hasBackgroundColor="false" hasLineColor="false" height="58.375" modelName="custom" textColor="#5A5A5A" visible="true" width="176.828125" x="14.304644645864187" y="4.0">instanceVariable1;
instanceVariable2;
// ...<y:LabelModel>
              <y:SmartNodeLabelModel distance="4.0"/>
            </y:LabelModel>
            <y:ModelParameter>
              <y:SmartNodeLabelModelParameter labelRatioX="-0.5" labelRatioY="-0.5" nodeRatioX="-0.44564091968061925" nodeRatioY="-0.5" offsetX="0.0" offsetY="4.0" upX="0.0" upY="-1.0"/>
            </y:ModelParameter>
          </y:NodeLabel>
          <y:StyleProperties>
            <y:Property class="java.lang.Boolean" name="y.view.ShadowNodePainter.SHADOW_PAINTING" value="true"/>
          </y:StyleProperties>
        </y:GenericNode>
      </data>
    </node>
    <node id="n23">
      <data key="d4"><![CDATA[cc2b85c8-c2ba-46ec-b1b7-12d42dec1394]]></data>
      <data key="d5"/>
      <data key="d8">
        <y:GenericNode configuration="com.yworks.flowchart.process">
          <y:Geometry height="108.00000000000011" width="263.150968740067" x="0.0" y="409.25431233847775"/>
          <y:Fill color="#FFFFFF" transparent="false"/>
          <y:BorderStyle color="#5A5A5A" type="line" width="2.0"/>
          <y:NodeLabel alignment="left" autoSizePolicy="content" fontFamily="Courier New" fontSize="16" fontStyle="bold" hasBackgroundColor="false" hasLineColor="false" height="94.625" modelName="custom" textColor="#5A5A5A" visible="true" width="176.828125" x="14.304644645864158" y="4.0">publicMethod()
#protectedMethod()
-privateMethod()
+classMethod()
// ...<y:LabelModel>
              <y:SmartNodeLabelModel distance="4.0"/>
            </y:LabelModel>
            <y:ModelParameter>
              <y:SmartNodeLabelModelParameter labelRatioX="-0.5" labelRatioY="-0.5" nodeRatioX="-0.44564091968061925" nodeRatioY="-0.5" offsetX="0.0" offsetY="4.0" upX="0.0" upY="-1.0"/>
            </y:ModelParameter>
          </y:NodeLabel>
          <y:StyleProperties>
            <y:Property class="java.lang.Boolean" name="y.view.ShadowNodePainter.SHADOW_PAINTING" value="true"/>
          </y:StyleProperties>
        </y:GenericNode>
      </data>
    </node>
    <node id="n24">
      <data key="d4"><![CDATA[757676c4-80ea-421e-aeb1-9bfb097f737b]]></data>
      <data key="d5"/>
      <data key="d8">
        <y:GenericNode configuration="com.yworks.flowchart.annotation">
          <y:Geometry height="32.76800000000003" width="193.73309229337394" x="293.150968740067" y="446.8703123384778"/>
          <y:Fill color="#FFFFFF" transparent="false"/>
          <y:BorderStyle color="#000000" type="line" width="1.0"/>
          <y:NodeLabel alignment="left" autoSizePolicy="content" fontFamily="Courier New" fontSize="14" fontStyle="bold" hasBackgroundColor="false" hasLineColor="false" height="19.859375" modelName="custom" textColor="#000000" visible="true" width="54.408203125" x="4.0" y="4.0">// ...<y:LabelModel>
              <y:SmartNodeLabelModel distance="4.0"/>
            </y:LabelModel>
            <y:ModelParameter>
              <y:SmartNodeLabelModelParameter labelRatioX="-0.5" labelRatioY="-0.5" nodeRatioX="-0.5" nodeRatioY="-0.5" offsetX="4.0" offsetY="4.0" upX="0.0" upY="-1.0"/>
            </y:ModelParameter>
          </y:NodeLabel>
          <y:StyleProperties>
            <y:Property class="java.lang.Byte" name="com.yworks.flowchart.style.orientation" value="0"/>
            <y:Property class="java.lang.Byte" name="LAYER_STYLE_PROPERTY_KEY" value="1"/>
          </y:StyleProperties>
        </y:GenericNode>
      </data>
    </node>
    <edge id="e0" source="n1" target="n2">
      <data key="d9"><![CDATA[9fad02e3-73e4-4093-977b-c78930a5c121]]></data>
      <data key="d10"/>
      <data key="d13">
        <y:PolyLineEdge>
          <y:Path sx="0.0" sy="0.0" tx="0.0" ty="0.0"/>
          <y:LineStyle color="#000000" type="dashed" width="1.0"/>
          <y:Arrows source="none" target="delta"/>
          <y:EdgeLabel alignment="center" distance="2.0" fontFamily="Dialog" fontSize="12" fontStyle="plain" hasBackgroundColor="false" hasLineColor="false" hasText="false" height="4.0" modelName="six_pos" modelPosition="tail" preferredPlacement="anywhere" ratio="0.5" textColor="#000000" visible="true" width="4.0" x="38.0" y="2.0">
            <y:PreferredPlacementDescriptor angle="0.0" angleOffsetOnRightSide="0" angleReference="absolute" angleRotationOnRightSide="co" distance="0.0" frozen="true" placement="anywhere" side="anywhere" sideReference="relative_to_edge_flow"/>
          </y:EdgeLabel>
          <y:BendStyle smoothed="false"/>
        </y:PolyLineEdge>
      </data>
    </edge>
    <edge id="e1" source="n3" target="n4">
      <data key="d9"><![CDATA[d7c57e0f-b88d-487b-acb5-3fce30678e1d]]></data>
      <data key="d10"/>
      <data key="d13">
        <y:PolyLineEdge>
          <y:Path sx="0.0" sy="0.0" tx="0.0" ty="0.0"/>
          <y:LineStyle color="#000000" type="line" width="1.0"/>
          <y:Arrows source="none" target="white_delta"/>
          <y:EdgeLabel alignment="center" distance="2.0" fontFamily="Dialog" fontSize="12" fontStyle="plain" hasBackgroundColor="false" hasLineColor="false" hasText="false" height="4.0" modelName="six_pos" modelPosition="tail" preferredPlacement="anywhere" ratio="0.5" textColor="#000000" visible="true" width="4.0" x="38.0" y="2.0">
            <y:PreferredPlacementDescriptor angle="0.0" angleOffsetOnRightSide="0" angleReference="absolute" angleRotationOnRightSide="co" distance="0.0" frozen="true" placement="anywhere" side="anywhere" sideReference="relative_to_edge_flow"/>
          </y:EdgeLabel>
          <y:BendStyle smoothed="false"/>
        </y:PolyLineEdge>
      </data>
    </edge>
    <edge id="e2" source="n5" target="n6">
      <data key="d9"><![CDATA[7ff2446b-fd5d-41da-b3d4-10cff1910b36]]></data>
      <data key="d10"/>
      <data key="d13">
        <y:PolyLineEdge>
          <y:Path sx="0.0" sy="0.0" tx="0.0" ty="0.0"/>
          <y:LineStyle color="#000000" type="line" width="1.0"/>
          <y:Arrows source="none" target="delta"/>
          <y:EdgeLabel alignment="center" distance="2.0" fontFamily="Courier New" fontSize="14" fontStyle="bold" hasBackgroundColor="false" hasLineColor="false" height="19.859375" modelName="six_pos" modelPosition="shead" preferredPlacement="anywhere" ratio="0.5" textColor="#000000" visible="true" width="54.408203125" x="10.125" y="-21.859375">refVar<y:PreferredPlacementDescriptor angle="0.0" angleOffsetOnRightSide="0" angleReference="absolute" angleRotationOnRightSide="co" distance="0.0" frozen="true" placement="anywhere" side="anywhere" sideReference="relative_to_edge_flow"/>
          </y:EdgeLabel>
          <y:BendStyle smoothed="false"/>
        </y:PolyLineEdge>
      </data>
    </edge>
    <edge id="e3" source="n7" target="n8">
      <data key="d9"><![CDATA[ef96635c-4729-49ab-939d-ef1dda17127f]]></data>
      <data key="d10"/>
      <data key="d13">
        <y:PolyLineEdge>
          <y:Path sx="0.0" sy="0.0" tx="0.0" ty="0.0"/>
          <y:LineStyle color="#000000" type="line" width="1.0"/>
          <y:Arrows source="white_diamond" target="delta"/>
          <y:EdgeLabel alignment="center" distance="2.0" fontFamily="Courier New" fontSize="14" fontStyle="bold" hasBackgroundColor="false" hasLineColor="false" height="19.859375" modelName="six_pos" modelPosition="shead" preferredPlacement="anywhere" ratio="0.5" textColor="#000000" visible="true" width="54.408203125" x="10.125" y="-21.859375">refVar<y:PreferredPlacementDescriptor angle="0.0" angleOffsetOnRightSide="0" angleReference="absolute" angleRotationOnRightSide="co" distance="0.0" frozen="true" placement="anywhere" side="anywhere" sideReference="relative_to_edge_flow"/>
          </y:EdgeLabel>
          <y:BendStyle smoothed="false"/>
        </y:PolyLineEdge>
      </data>
    </edge>
    <edge id="e4" source="n9" target="n10">
      <data key="d9"><![CDATA[b86b5171-ef30-433d-8499-1989c1d41d31]]></data>
      <data key="d10"/>
      <data key="d13">
        <y:PolyLineEdge>
          <y:Path sx="0.0" sy="0.0" tx="0.0" ty="0.0"/>
          <y:LineStyle color="#000000" type="dashed" width="1.0"/>
          <y:Arrows source="none" target="white_delta"/>
          <y:EdgeLabel alignment="center" distance="2.0" fontFamily="Dialog" fontSize="12" fontStyle="plain" hasBackgroundColor="false" hasLineColor="false" hasText="false" height="4.0" modelName="six_pos" modelPosition="tail" preferredPlacement="anywhere" ratio="0.5" textColor="#000000" visible="true" width="4.0" x="38.0" y="2.0">
            <y:PreferredPlacementDescriptor angle="0.0" angleOffsetOnRightSide="0" angleReference="absolute" angleRotationOnRightSide="co" distance="0.0" frozen="true" placement="anywhere" side="anywhere" sideReference="relative_to_edge_flow"/>
          </y:EdgeLabel>
          <y:BendStyle smoothed="false"/>
        </y:PolyLineEdge>
      </data>
    </edge>
    <edge id="e5" source="n11" target="n12">
      <data key="d9"><![CDATA[e8100d60-ca9b-4a6c-9980-2393110e8632]]></data>
      <data key="d10"/>
      <data key="d13">
        <y:PolyLineEdge>
          <y:Path sx="0.0" sy="0.0" tx="0.0" ty="0.0"/>
          <y:LineStyle color="#000000" type="dotted" width="2.0"/>
          <y:Arrows source="none" target="none"/>
          <y:EdgeLabel alignment="center" distance="2.0" fontFamily="Dialog" fontSize="12" fontStyle="plain" hasBackgroundColor="false" hasLineColor="false" hasText="false" height="4.0" modelName="six_pos" modelPosition="tail" preferredPlacement="anywhere" ratio="0.5" textColor="#000000" visible="true" width="4.0" x="38.0" y="2.0">
            <y:PreferredPlacementDescriptor angle="0.0" angleOffsetOnRightSide="0" angleReference="absolute" angleRotationOnRightSide="co" distance="0.0" frozen="true" placement="anywhere" side="anywhere" sideReference="relative_to_edge_flow"/>
          </y:EdgeLabel>
          <y:BendStyle smoothed="false"/>
        </y:PolyLineEdge>
      </data>
    </edge>
    <edge id="e6" source="n14" target="n15">
      <data key="d9"><![CDATA[65849d58-308e-4d47-8784-5c0acb2c2434]]></data>
      <data key="d10"/>
      <data key="d13">
        <y:PolyLineEdge>
          <y:Path sx="0.0" sy="0.0" tx="0.0" ty="0.0"/>
          <y:LineStyle color="#000000" type="dashed" width="1.0"/>
          <y:Arrows source="none" target="none"/>
          <y:EdgeLabel alignment="center" distance="2.0" fontFamily="Dialog" fontSize="12" fontStyle="plain" hasBackgroundColor="false" hasLineColor="false" hasText="false" height="4.0" modelName="six_pos" modelPosition="tail" preferredPlacement="anywhere" ratio="0.5" textColor="#000000" visible="true" width="4.0" x="37.99999920654295" y="2.0000046799810036">
            <y:PreferredPlacementDescriptor angle="0.0" angleOffsetOnRightSide="0" angleReference="absolute" angleRotationOnRightSide="co" distance="0.0" frozen="true" placement="anywhere" side="anywhere" sideReference="relative_to_edge_flow"/>
          </y:EdgeLabel>
          <y:BendStyle smoothed="false"/>
        </y:PolyLineEdge>
      </data>
    </edge>
    <edge id="e7" source="n16" target="n17">
      <data key="d9"><![CDATA[b2d8e6d1-e136-4252-9d07-3ba7a11aeb8a]]></data>
      <data key="d10"/>
      <data key="d13">
        <y:PolyLineEdge>
          <y:Path sx="0.0" sy="0.0" tx="0.0" ty="0.0"/>
          <y:LineStyle color="#000000" type="line" width="1.0"/>
          <y:Arrows source="none" target="delta"/>
          <y:EdgeLabel alignment="center" distance="2.0" fontFamily="Georgia" fontSize="12" fontStyle="bold" hasBackgroundColor="false" hasLineColor="false" hasText="false" height="4.0" modelName="custom" preferredPlacement="anywhere" ratio="0.5" textColor="#000000" visible="true" width="4.0" x="31.60073856953943" y="44.73888294870727">
            <y:LabelModel>
              <y:SmartEdgeLabelModel autoRotationEnabled="false" defaultAngle="0.0" defaultDistance="10.0"/>
            </y:LabelModel>
            <y:ModelParameter>
              <y:SmartEdgeLabelModelParameter angle="6.283185307179586" distance="46.738878268726275" distanceToCenter="true" position="right" ratio="0.4200091466700243" segment="-1"/>
            </y:ModelParameter>
            <y:PreferredPlacementDescriptor angle="0.0" angleOffsetOnRightSide="0" angleReference="absolute" angleRotationOnRightSide="co" distance="0.0" frozen="true" placement="anywhere" side="anywhere" sideReference="relative_to_edge_flow"/>
          </y:EdgeLabel>
          <y:BendStyle smoothed="false"/>
        </y:PolyLineEdge>
      </data>
    </edge>
  </graph>
  <data key="d0">
    <y:Resources/>
  </data>
</graphml>
